a:3:{s:4:"time";i:1417122327;s:3:"ttl";i:315360000;s:4:"data";s:3048:"<!DOCTYPE html PUBLIC "-//W3C//DTD XHTML 1.0 Transitional//EN" "http://www.w3.org/TR/xhtml1/DTD/xhtml1-transitional.dtd">
<html xmlns="http://www.w3.org/1999/xhtml" xml:lang="nl" lang="nl">
<html><head><title>Slotkoersen Volta&nbsp;Finance
</title></head>
<body><table border=0 width=100%>
<tr><td width=50%>
<pre>140228: 6.50
140303: 6.40
140304: 6.48
140305: 6.48
140306: 6.41
140307: 6.41
140310: 6.41
140311: 6.41
140312: 6.50
140313: 6.55
140314: 6.55
140317: 6.60
140318: 6.75
140319: 6.71
140320: 6.75
140321: 6.64
140324: 6.70
140325: 6.76
140326: 6.77
140327: 6.73
140328: 6.59
140331: 6.56
140401: 6.47
140402: 6.55
140403: 6.50
140404: 6.68
140407: 6.60
140408: 6.67
140409: 6.72
140410: 6.75
140411: 6.70
140414: 6.70
140415: 6.75
140416: 6.60
140417: 6.60
140422: 6.55
140423: 6.58
140424: 6.52
140425: 6.55
140428: 6.60
140429: 6.60
140430: 6.60
140502: 6.59
140505: 6.59
140506: 6.60
140507: 6.60
140508: 6.58
140509: 6.53
140512: 6.53
140513: 6.60
140514: 6.60
140515: 6.60
140516: 6.52
140519: 6.60
140520: 6.60
140521: 6.55
140522: 6.50
140523: 6.50
140526: 6.50
140527: 6.40
140528: 6.55
140529: 6.58
140530: 6.58
140602: 6.51
140603: 6.52
140604: 6.51
140605: 6.55
140606: 6.57
140609: 6.52
140610: 6.50
140611: 6.50
140612: 6.50
140613: 6.54
140616: 6.56
140617: 6.65
140618: 6.65
140619: 6.60
140620: 6.66
140623: 6.66
140624: 6.66
140625: 6.64
140626: 6.70
140627: 6.70
140630: 6.75
140701: 6.69
140702: 6.75
140703: 6.62
140704: 6.72
140707: 6.74
140708: 6.62
140709: 6.60
140710: 6.68
140711: 6.60
140714: 6.54
140715: 6.61
140716: 6.63
140717: 6.60
140718: 6.60
140721: 6.63
140722: 6.63
140723: 6.58
140724: 6.55
140725: 6.55
140728: 6.63
140729: 6.63
140730: 6.56
140731: 6.33
140801: 6.27
140804: 6.23
140805: 6.25
140806: 6.25
140807: 6.21
140808: 6.25
140811: 6.25
140812: 6.13
140813: 6.16
140814: 6.12
140815: 6.08
140818: 6.08
140819: 6.09
140820: 6.30
140821: 6.40
140822: 6.30
140825: 6.33
140826: 6.35
140827: 6.36
140828: 6.40
140829: 6.38
140901: 6.48
140902: 6.40
140903: 6.41
140904: 6.65
140905: 6.52
140908: 6.50
140909: 6.50
140910: 6.50
140911: 6.50
140912: 6.45
140915: 6.41
140916: 6.42
140917: 6.42
140918: 6.44
140919: 6.44
140922: 6.45
140923: 6.45
140924: 6.37
140925: 6.39
140926: 6.34
140929: 6.30
140930: 6.25
141001: 6.25
141002: 6.31
141003: 6.33
141006: 6.33
141007: 6.33
141008: 6.21
141009: 6.29
141010: 6.21
141013: 6.23
141014: 6.29
141015: 6.22
141016: 6.22
141017: 6.25
141020: 6.20
141021: 6.35
141022: 6.37
141023: 6.36
141024: 6.36
141027: 6.35
141028: 6.30
141029: 6.37
141030: 6.37
141031: 6.32
141103: 6.36
141104: 6.30
141105: 6.30
141106: 6.30
141107: 6.27
141110: 6.27
141111: 6.29
141112: 6.30
141113: 6.32
141114: 6.30
141117: 6.24
141118: 6.27
141119: 6.26
141120: 6.26
141121: 6.28
141124: 6.30
141125: 6.30
141126: 6.31
141127: 6.30
</td><td  valign=top>&nbsp;&nbsp;</td></tr></table>

<script src="http://www.google-analytics.com/urchin.js" type="text/javascript"></script>
<script type="text/javascript">_uacct = "UA-2183389-1";urchinTracker();</script>
</body></html>
";}