a:3:{s:4:"time";i:1417122276;s:3:"ttl";i:315360000;s:4:"data";s:3050:"<!DOCTYPE html PUBLIC "-//W3C//DTD XHTML 1.0 Transitional//EN" "http://www.w3.org/TR/xhtml1/DTD/xhtml1-transitional.dtd">
<html xmlns="http://www.w3.org/1999/xhtml" xml:lang="nl" lang="nl">
<html><head><title>Slotkoersen Novisource
</title></head>
<body><table border=0 width=100%>
<tr><td width=50%>
<pre>140228: 3.10
140303: 3.19
140304: 3.14
140305: 3.60
140306: 3.50
140307: 3.50
140310: 3.40
140311: 3.35
140312: 3.35
140313: 3.35
140314: 3.30
140317: 3.30
140318: 3.20
140319: 3.20
140320: 3.14
140321: 3.30
140324: 3.30
140325: 3.30
140326: 3.30
140327: 3.30
140328: 3.15
140331: 3.10
140401: 3.10
140402: 3.00
140403: 3.00
140404: 3.20
140407: 3.15
140408: 3.15
140409: 3.05
140410: 3.05
140411: 3.05
140414: 3.05
140415: 3.00
140416: 3.15
140417: 2.65
140422: 2.90
140423: 2.90
140424: 2.90
140425: 3.20
140428: 3.20
140429: 3.20
140430: 3.15
140502: 3.00
140505: 2.80
140506: 2.80
140507: 2.90
140508: 2.90
140509: 3.10
140512: 3.15
140513: 3.15
140514: 3.15
140515: 3.15
140516: 3.00
140519: 3.24
140520: 3.34
140521: 3.38
140522: 3.40
140523: 3.10
140526: 3.10
140527: 3.40
140528: 3.30
140529: 3.00
140530: 2.90
140602: 2.90
140603: 2.90
140604: 2.91
140605: 2.91
140606: 2.91
140609: 2.91
140610: 2.91
140611: 3.00
140612: 3.00
140613: 3.00
140616: 3.00
140617: 3.25
140618: 3.24
140619: 3.27
140620: 3.24
140623: 3.40
140624: 3.82
140625: 3.78
140626: 3.50
140627: 3.50
140630: 3.75
140701: 3.75
140702: 3.50
140703: 3.70
140704: 3.40
140707: 3.30
140708: 3.30
140709: 3.30
140710: 3.30
140711: 3.30
140714: 3.30
140715: 3.30
140716: 3.30
140717: 3.20
140718: 3.20
140721: 3.20
140722: 3.20
140723: 3.20
140724: 3.10
140725: 3.10
140728: 3.10
140729: 3.30
140730: 3.30
140731: 3.30
140801: 3.10
140804: 3.05
140805: 3.05
140806: 3.05
140807: 3.05
140808: 3.00
140811: 2.97
140812: 2.97
140813: 2.97
140814: 2.95
140815: 2.95
140818: 3.30
140819: 3.30
140820: 3.10
140821: 3.30
140822: 2.96
140825: 2.96
140826: 3.10
140827: 3.10
140828: 3.10
140829: 3.25
140901: 3.25
140902: 3.25
140903: 3.25
140904: 3.25
140905: 3.25
140908: 3.25
140909: 3.25
140910: 3.25
140911: 3.25
140912: 3.25
140915: 3.25
140916: 3.25
140917: 3.15
140918: 3.15
140919: 3.16
140922: 3.00
140923: 3.00
140924: 2.999
140925: 2.90
140926: 2.90
140929: 2.899
140930: 2.85
141001: 2.80
141002: 2.80
141003: 2.80
141006: 2.80
141007: 2.80
141008: 2.81
141009: 2.92
141010: 2.96
141013: 2.961
141014: 2.96
141015: 2.96
141016: 2.961
141017: 3.00
141020: 3.00
141021: 2.97
141022: 2.97
141023: 2.97
141024: 2.97
141027: 2.97
141028: 2.97
141029: 2.93
141030: 2.931
141031: 2.931
141103: 3.15
141104: 3.149
141105: 3.15
141106: 3.20
141107: 3.19
141110: 3.19
141111: 3.19
141112: 3.189
141113: 3.00
141114: 3.001
141117: 2.75
141118: 2.90
141119: 3.00
141120: 2.999
141121: 3.00
141124: 2.90
141125: 3.00
141126: 3.00
141127: 3.00
</td><td  valign=top>&nbsp;&nbsp;</td></tr></table>

<script src="http://www.google-analytics.com/urchin.js" type="text/javascript"></script>
<script type="text/javascript">_uacct = "UA-2183389-1";urchinTracker();</script>
</body></html>
";}