a:3:{s:4:"time";i:1417473457;s:3:"ttl";i:315360000;s:4:"data";s:63508:"Date,Open,High,Low,Close,Volume,Adj Close
2014-12-01,18.40,18.45,18.22,18.30,589500,18.30
2014-11-28,18.50,18.56,18.38,18.49,568700,18.49
2014-11-27,18.38,18.53,18.32,18.46,545600,18.46
2014-11-26,18.09,18.32,18.06,18.32,1330100,18.32
2014-11-25,18.55,18.61,18.01,18.08,2529800,18.08
2014-11-24,18.88,18.93,18.57,18.64,1081000,18.64
2014-11-21,18.98,19.30,18.86,18.90,1860700,18.90
2014-11-20,19.07,19.10,18.71,18.98,747200,18.98
2014-11-19,19.20,19.27,19.04,19.07,666900,19.07
2014-11-18,18.70,19.25,18.70,19.11,973200,19.11
2014-11-17,18.42,18.76,18.41,18.67,449000,18.67
2014-11-14,18.68,18.68,18.28,18.51,736900,18.51
2014-11-13,18.67,18.67,18.47,18.58,693500,18.58
2014-11-12,18.68,18.73,18.60,18.62,926600,18.62
2014-11-11,18.99,19.08,18.69,18.76,778700,18.76
2014-11-10,18.66,18.91,18.61,18.91,1071200,18.91
2014-11-07,18.42,18.98,18.39,18.66,1402700,18.66
2014-11-06,18.00,18.48,17.57,18.28,2438000,18.28
2014-11-05,18.00,18.38,17.98,18.35,1054600,18.35
2014-11-04,17.98,18.16,17.85,17.94,544400,17.94
2014-11-03,18.17,18.20,17.93,17.98,501500,17.98
2014-10-31,18.15,18.30,17.93,18.17,1119000,18.17
2014-10-30,17.67,18.03,17.63,17.99,1285600,17.99
2014-10-29,17.82,17.83,17.52,17.57,543700,17.57
2014-10-28,17.58,17.87,17.53,17.73,785500,17.73
2014-10-27,17.76,17.88,17.42,17.51,518000,17.51
2014-10-24,17.62,17.74,17.52,17.63,596600,17.63
2014-10-23,17.70,17.91,17.54,17.74,641500,17.74
2014-10-22,17.62,17.75,17.53,17.73,635600,17.73
2014-10-21,17.11,17.58,16.98,17.56,841800,17.56
2014-10-20,17.24,17.24,16.86,17.17,1040900,17.17
2014-10-17,16.76,17.25,16.53,17.24,1316000,17.24
2014-10-16,17.16,17.29,16.42,16.71,2058500,16.71
2014-10-15,17.70,17.70,17.05,17.07,1398500,17.07
2014-10-14,17.89,17.99,17.51,17.70,1172000,17.70
2014-10-13,18.08,18.09,17.83,18.00,1238400,18.00
2014-10-10,18.32,18.63,18.08,18.25,1382100,18.25
2014-10-09,18.58,18.69,18.21,18.42,3033000,18.42
2014-10-08,18.84,19.18,18.84,19.08,1204900,19.08
2014-10-07,18.85,19.22,18.83,18.92,1113000,18.92
2014-10-06,19.12,19.13,18.82,18.90,681600,18.90
2014-10-03,18.89,19.10,18.88,19.05,911000,19.05
2014-10-02,19.00,19.06,18.75,18.78,1070300,18.78
2014-10-01,19.09,19.36,19.05,19.06,1190800,19.06
2014-09-30,18.89,19.17,18.89,19.09,1550400,19.09
2014-09-29,18.77,18.89,18.73,18.85,1037900,18.85
2014-09-26,18.70,18.82,18.62,18.76,565800,18.76
2014-09-25,18.92,19.09,18.68,18.72,942300,18.72
2014-09-24,18.42,18.84,18.31,18.84,1023500,18.84
2014-09-23,18.60,18.64,18.31,18.39,555300,18.39
2014-09-22,18.67,18.74,18.58,18.62,505600,18.62
2014-09-19,18.60,18.85,18.56,18.65,1083200,18.65
2014-09-18,17.95,18.53,17.92,18.45,1532800,18.45
2014-09-17,18.15,18.15,17.89,17.94,850700,17.94
2014-09-16,18.25,18.27,18.10,18.11,454600,18.11
2014-09-15,18.26,18.36,18.20,18.24,436600,18.24
2014-09-12,18.22,18.39,18.17,18.28,971300,18.28
2014-09-11,18.25,18.32,18.10,18.17,516800,18.17
2014-09-10,18.00,18.23,17.96,18.21,903800,18.21
2014-09-09,18.07,18.19,17.97,18.03,854800,18.03
2014-09-08,18.20,18.25,18.07,18.10,515800,18.10
2014-09-05,18.15,18.22,18.08,18.19,542200,18.19
2014-09-04,18.20,18.27,18.11,18.18,884400,18.18
2014-09-03,18.00,18.26,17.92,18.20,980000,18.20
2014-09-02,18.11,18.11,17.86,17.94,583500,17.94
2014-09-01,18.23,18.32,17.96,18.02,754100,18.02
2014-08-29,18.22,18.43,18.20,18.33,827200,18.33
2014-08-28,18.30,18.36,18.15,18.20,745600,18.20
2014-08-27,18.32,18.43,18.26,18.32,613900,18.32
2014-08-26,18.18,18.41,18.07,18.35,912700,18.35
2014-08-25,18.30,18.31,17.95,18.21,720900,18.21
2014-08-22,18.19,18.30,18.11,18.17,769600,18.17
2014-08-21,17.90,18.20,17.83,18.14,747600,18.14
2014-08-20,17.91,17.95,17.77,17.86,536900,17.86
2014-08-19,17.80,18.03,17.75,17.94,1038100,17.94
2014-08-18,17.53,17.74,17.49,17.69,888400,17.69
2014-08-15,17.33,17.62,17.30,17.34,854300,17.34
2014-08-14,17.38,17.42,17.23,17.26,839100,17.26
2014-08-13,17.28,17.47,17.24,17.40,764400,17.40
2014-08-12,17.02,17.25,16.99,17.19,833400,17.19
2014-08-11,16.97,17.19,16.92,17.00,736100,17.00
2014-08-08,16.97,17.46,16.84,17.22,1483400,8.61
2014-08-07,17.00,17.28,16.78,17.12,1554100,8.56
2014-08-06,16.92,16.92,16.56,16.84,904100,8.42
2014-08-05,17.21,17.30,16.94,16.96,778500,8.48
2014-08-04,17.08,17.38,17.06,17.12,1011400,8.56
2014-08-01,17.26,17.32,17.00,17.05,1117800,8.52
2014-07-31,17.90,17.92,17.17,17.26,1985200,8.63
2014-07-30,18.00,18.03,17.78,17.89,1001900,8.94
2014-07-29,18.08,18.09,17.97,18.01,997500,9.01
2014-07-28,18.10,18.14,17.89,18.01,792500,9.01
2014-07-25,18.13,18.25,18.01,18.08,767500,9.04
2014-07-24,18.00,18.22,17.84,18.20,830400,9.10
2014-07-23,17.84,18.03,17.80,17.97,723900,8.98
2014-07-22,17.96,17.96,17.83,17.85,673900,8.93
2014-07-21,18.00,18.00,17.75,17.81,745600,8.90
2014-07-18,17.98,18.06,17.90,18.01,706200,9.01
2014-07-17,18.25,18.26,18.00,18.08,805700,9.04
2014-07-16,17.94,18.33,17.90,18.30,1028900,9.15
2014-07-15,17.95,18.00,17.81,17.86,721900,8.93
2014-07-14,17.91,18.08,17.91,18.00,750500,9.00
2014-07-11,18.14,18.17,17.75,17.88,1150700,8.94
2014-07-10,18.48,18.48,18.08,18.17,905700,9.08
2014-07-09,18.49,18.49,18.31,18.44,447100,9.22
2014-07-08,18.67,18.69,18.34,18.46,813800,9.23
2014-07-07,18.93,18.93,18.58,18.70,786100,9.35
2014-07-04,19.03,19.05,18.87,18.95,601900,9.48
2014-07-03,18.89,19.10,18.83,19.03,1756800,9.52
2014-07-02,18.62,18.94,18.60,18.80,1068500,9.40
2014-07-01,18.56,18.65,18.55,18.58,713500,9.29
2014-06-30,18.38,18.61,18.33,18.54,1128800,9.27
2014-06-27,18.42,18.53,18.32,18.36,568100,9.18
2014-06-26,36.75,37.01,36.59,36.80,601600,18.40
2014-06-25,37.00,37.20,36.62,36.78,654300,18.39
2014-06-24,37.20,37.20,36.72,37.00,645000,18.50
2014-06-23,37.19,37.42,37.02,37.08,572300,18.54
2014-06-20,37.64,37.64,37.17,37.18,908600,18.59
2014-06-19,37.55,37.72,37.50,37.54,1198200,18.77
2014-06-18,37.39,37.56,37.34,37.41,839500,18.70
2014-06-17,37.39,37.56,37.20,37.34,1386000,18.67
2014-06-16,36.00,37.05,35.94,36.96,1676500,18.48
2014-06-13,36.07,36.13,35.66,36.00,707400,18.00
2014-06-12,36.35,36.35,35.95,36.04,865100,18.02
2014-06-11,36.93,36.96,36.37,36.38,850900,18.19
2014-06-10,36.99,36.99,36.61,36.89,684800,18.44
2014-06-09,37.10,37.20,36.86,36.97,465900,18.49
2014-06-06,36.75,37.24,36.60,36.97,1154700,18.49
2014-06-05,36.87,37.28,36.30,36.56,1455300,18.28
2014-06-04,36.75,36.94,36.46,36.59,760200,18.30
2014-06-03,36.12,37.01,36.06,36.75,1241900,18.38
2014-06-02,35.79,36.03,35.66,36.00,716900,18.00
2014-05-30,35.61,35.74,35.56,35.63,1030700,17.82
2014-05-29,35.52,35.79,35.48,35.55,618200,17.77
2014-05-28,35.76,35.76,35.37,35.52,877200,17.76
2014-05-27,35.60,35.80,35.42,35.68,951800,17.84
2014-05-26,35.57,35.68,35.33,35.63,1025300,17.82
2014-05-23,36.55,36.75,36.38,36.50,995200,18.25
2014-05-22,36.62,36.80,36.38,36.45,584800,18.23
2014-05-21,36.80,36.91,36.39,36.52,722300,18.26
2014-05-20,36.49,36.94,36.34,36.80,586700,18.40
2014-05-19,36.17,36.61,36.00,36.52,1415100,18.26
2014-05-16,37.00,37.11,36.02,36.14,1183500,18.07
2014-05-15,37.82,38.16,36.80,36.94,924200,18.47
2014-05-14,38.08,38.53,37.90,37.93,576900,18.97
2014-05-13,38.13,38.46,37.90,38.00,578700,19.00
2014-05-12,37.62,38.09,37.51,38.00,620400,19.00
2014-05-09,37.92,38.04,37.46,37.53,688200,18.76
2014-05-08,38.20,38.51,37.69,37.87,848800,18.93
2014-05-07,37.68,38.12,37.10,37.83,773000,18.92
2014-05-06,38.20,38.25,37.51,37.69,669500,18.84
2014-05-05,38.00,38.16,37.57,38.12,560400,19.06
2014-05-02,37.96,38.13,37.88,38.06,604000,19.03
2014-05-01,37.91,37.91,37.91,37.91,000,18.95
2014-04-30,37.82,37.99,37.55,37.91,697700,18.95
2014-04-29,37.15,37.94,37.14,37.86,604000,18.93
2014-04-28,37.10,37.56,36.91,37.01,538000,18.50
2014-04-25,37.35,37.84,36.86,37.05,444400,18.52
2014-04-24,38.03,38.14,37.18,37.62,803400,18.81
2014-04-23,37.84,38.02,37.42,37.93,581600,18.97
2014-04-22,37.40,37.96,37.20,37.83,701100,18.92
2014-04-21,37.17,37.17,37.17,37.17,000,18.58
2014-04-18,37.17,37.17,37.17,37.17,000,18.58
2014-04-17,36.64,37.32,36.60,37.17,722100,18.58
2014-04-16,36.46,36.89,36.21,36.60,879600,18.30
2014-04-15,36.50,36.73,36.00,36.17,875000,18.08
2014-04-14,36.54,36.59,35.97,36.50,1256600,18.25
2014-04-11,37.14,37.22,36.53,36.66,1227500,18.33
2014-04-10,38.20,38.20,37.31,37.34,1148300,18.67
2014-04-09,38.10,38.22,37.82,38.01,1100600,19.00
2014-04-08,38.79,38.88,37.77,38.02,1332800,19.01
2014-04-07,39.45,39.54,38.72,38.83,874700,19.42
2014-04-04,39.96,40.03,39.52,39.66,896600,19.83
2014-04-03,40.58,40.72,39.87,39.90,1273200,19.95
2014-04-02,41.80,41.80,40.35,40.51,1356800,20.25
2014-04-01,40.46,41.97,40.40,41.84,891000,20.92
2014-03-31,39.80,40.58,39.77,40.25,676400,20.12
2014-03-28,39.72,39.97,39.37,39.53,566300,19.76
2014-03-27,39.79,39.88,39.45,39.70,550900,19.85
2014-03-26,39.59,40.12,39.51,39.94,593000,19.97
2014-03-25,39.22,39.97,39.22,39.40,459300,19.70
2014-03-24,39.20,40.13,38.96,39.28,1495900,19.64
2014-03-21,40.24,40.60,39.19,39.19,3616400,19.59
2014-03-20,40.10,40.50,39.69,40.01,758400,20.00
2014-03-19,40.46,40.61,40.00,40.19,570200,20.09
2014-03-18,40.07,40.79,39.98,40.61,637500,20.31
2014-03-17,40.54,40.89,39.98,40.23,751400,20.11
2014-03-14,40.38,40.62,39.67,40.58,734600,20.29
2014-03-13,41.22,41.35,40.58,40.74,553800,20.37
2014-03-12,41.00,41.48,40.94,41.13,397100,20.57
2014-03-11,41.02,41.46,40.76,41.13,472700,20.57
2014-03-10,41.28,41.90,40.69,40.80,506400,20.40
2014-03-07,42.14,42.40,41.09,41.30,492600,20.65
2014-03-06,42.18,42.38,42.00,42.20,481000,21.10
2014-03-05,42.00,42.29,41.78,42.02,516200,21.01
2014-03-04,40.79,42.12,40.70,41.99,712300,21.00
2014-03-03,40.61,40.81,40.14,40.55,645100,20.27
2014-02-28,40.96,41.64,40.86,41.37,915000,20.68
2014-02-27,41.41,41.41,40.30,40.83,649400,20.42
2014-02-26,41.22,41.83,41.04,41.40,1110800,20.70
2014-02-25,40.32,41.00,40.20,41.00,768600,20.50
2014-02-24,40.11,40.38,39.89,40.24,561500,20.12
2014-02-21,39.71,40.57,39.42,40.29,729200,20.15
2014-02-20,37.62,39.70,37.58,39.61,1888500,19.81
2014-02-19,36.86,37.74,36.73,37.49,557400,18.75
2014-02-18,37.26,37.42,36.91,36.94,296500,18.47
2014-02-17,37.66,37.80,37.22,37.26,356200,18.63
2014-02-14,37.10,37.61,37.10,37.61,466000,18.81
2014-02-13,36.61,37.17,36.55,37.17,734400,18.58
2014-02-12,36.45,36.77,36.34,36.76,932400,18.38
2014-02-11,37.38,37.50,36.20,36.45,1158800,18.23
2014-02-10,37.75,37.89,37.31,37.42,524500,18.71
2014-02-07,38.26,38.35,37.53,37.67,777200,18.83
2014-02-06,37.34,38.24,37.11,38.19,897800,19.09
2014-02-05,37.54,37.69,37.02,37.27,469700,18.64
2014-02-04,36.97,37.81,36.84,37.54,605300,18.77
2014-02-03,37.87,38.12,37.14,37.28,593400,18.64
2014-01-31,38.14,38.38,37.56,38.17,619500,19.08
2014-01-30,38.00,38.30,37.44,38.16,687800,19.08
2014-01-29,37.96,38.20,37.14,37.64,477100,18.82
2014-01-28,37.07,37.84,37.07,37.72,383100,18.86
2014-01-27,36.77,37.23,36.45,36.92,458800,18.46
2014-01-24,38.25,38.31,36.66,36.83,878800,18.42
2014-01-23,38.17,38.71,38.10,38.32,634600,19.16
2014-01-22,38.76,38.80,38.17,38.37,408000,19.18
2014-01-21,38.52,38.80,38.30,38.61,502700,19.31
2014-01-20,38.60,38.71,38.32,38.48,361700,19.24
2014-01-17,38.61,38.80,38.21,38.61,721800,19.31
2014-01-16,38.59,38.72,38.27,38.50,586500,19.25
2014-01-15,38.36,38.54,38.16,38.43,757500,19.22
2014-01-14,37.76,38.21,37.69,38.21,665000,19.10
2014-01-13,37.50,38.05,37.40,37.88,1174600,18.94
2014-01-10,37.31,37.43,36.92,37.30,330000,18.65
2014-01-09,36.95,37.28,36.78,37.07,821800,18.53
2014-01-08,36.97,37.39,36.85,37.04,562700,18.52
2014-01-07,37.16,37.48,36.72,36.92,882700,18.46
2014-01-06,36.20,36.51,35.93,36.15,516700,18.08
2014-01-03,35.89,36.32,35.55,36.14,357700,18.07
2014-01-02,36.22,36.29,35.58,35.78,392100,17.89
2014-01-01,36.08,36.08,36.08,36.08,000,18.04
2013-12-31,36.36,36.36,35.60,36.08,159300,18.04
2013-12-30,36.02,36.48,35.82,36.40,352200,18.20
2013-12-27,36.00,36.08,35.62,36.01,229000,18.00
2013-12-26,35.96,35.96,35.96,35.96,000,17.98
2013-12-25,35.96,35.96,35.96,35.96,000,17.98
2013-12-24,35.87,36.00,35.64,35.96,83500,17.98
2013-12-23,35.76,35.88,35.59,35.78,275000,17.89
2013-12-20,35.04,35.84,35.04,35.73,905100,17.86
2013-12-19,34.65,35.20,34.56,35.09,562300,17.55
2013-12-18,34.23,34.77,34.02,34.72,676600,17.36
2013-12-17,34.50,34.95,34.14,34.14,591500,17.07
2013-12-16,34.33,34.65,34.18,34.56,715800,17.28
2013-12-13,34.77,34.85,34.16,34.27,920500,17.14
2013-12-12,35.00,35.90,34.90,35.33,943800,17.67
2013-12-11,35.47,35.63,35.10,35.18,442200,17.59
2013-12-10,35.27,35.75,35.06,35.50,580300,17.75
2013-12-09,35.82,35.93,35.04,35.24,675200,17.62
2013-12-06,35.27,35.96,35.20,35.61,514400,17.81
2013-12-05,35.01,35.61,34.92,35.23,519200,17.61
2013-12-04,35.10,35.39,34.86,35.24,555500,17.62
2013-12-03,35.62,35.88,35.03,35.16,714100,17.58
2013-12-02,35.80,36.37,35.51,35.63,780400,17.82
2013-11-29,35.65,35.88,35.51,35.78,914000,17.89
2013-11-28,35.60,35.70,35.30,35.66,507700,17.83
2013-11-27,35.30,35.58,35.26,35.49,621400,17.75
2013-11-26,34.81,35.52,34.81,35.16,864200,17.58
2013-11-25,34.63,35.10,34.63,34.76,715400,17.38
2013-11-22,34.17,34.80,34.06,34.48,635500,17.24
2013-11-21,33.77,34.62,33.74,34.08,1028000,17.04
2013-11-20,33.20,34.24,33.12,33.84,1220500,16.92
2013-11-19,32.82,33.18,32.73,33.18,654500,16.59
2013-11-18,33.28,33.28,32.70,32.94,746900,16.47
2013-11-15,32.82,33.45,32.75,33.33,815000,16.67
2013-11-14,32.98,33.08,32.54,32.75,656500,16.38
2013-11-13,32.60,32.76,32.39,32.71,581900,16.35
2013-11-12,32.42,32.68,32.42,32.53,303200,16.26
2013-11-11,32.58,32.79,32.38,32.47,385300,16.24
2013-11-08,32.26,32.67,32.01,32.51,569400,16.25
2013-11-07,32.55,32.98,32.27,32.38,939400,16.19
2013-11-06,31.80,32.56,31.80,32.46,1402500,16.23
2013-11-05,31.52,31.60,31.07,31.28,519400,15.64
2013-11-04,31.40,31.66,31.39,31.50,320300,15.75
2013-11-01,31.49,31.70,31.33,31.38,394300,15.69
2013-10-31,30.74,31.50,30.74,31.32,849800,15.66
2013-10-30,31.02,31.17,30.57,30.91,498300,15.45
2013-10-29,30.65,31.04,30.57,31.03,326500,15.52
2013-10-28,31.06,31.06,30.60,30.78,472900,15.39
2013-10-25,31.32,31.34,30.86,31.00,455700,15.50
2013-10-24,31.56,31.69,31.37,31.50,336800,15.75
2013-10-23,31.38,31.69,31.37,31.46,475200,15.73
2013-10-22,31.36,31.69,31.36,31.61,588800,15.81
2013-10-21,31.26,31.50,31.14,31.34,422900,15.67
2013-10-18,31.28,31.28,30.90,31.24,802200,15.62
2013-10-17,30.77,31.29,30.67,31.05,637800,15.52
2013-10-16,30.26,30.90,30.20,30.76,426100,15.38
2013-10-15,30.21,30.39,30.05,30.32,521200,15.16
2013-10-14,30.00,30.20,29.96,30.14,257100,15.07
2013-10-11,30.45,30.45,29.45,30.09,1216400,15.05
2013-10-10,30.40,30.51,30.24,30.40,663200,15.20
2013-10-09,30.72,30.80,29.98,30.22,896600,15.11
2013-10-08,31.16,31.26,30.92,30.92,400400,15.46
2013-10-07,31.33,31.33,30.88,31.18,396300,15.59
2013-10-04,30.95,31.47,30.90,31.32,627400,15.66
2013-10-03,31.40,31.50,30.82,31.03,395500,15.52
2013-10-02,31.10,31.53,30.93,31.34,432700,15.67
2013-10-01,31.58,31.58,31.03,31.11,731200,15.56
2013-09-30,31.12,31.46,30.96,31.46,651200,15.73
2013-09-27,31.44,31.61,31.11,31.51,335500,15.76
2013-09-26,31.49,31.54,31.08,31.35,476100,15.68
2013-09-25,31.48,31.80,31.32,31.50,4799600,15.75
2013-09-24,31.30,31.63,31.27,31.48,269900,15.74
2013-09-23,31.56,31.69,31.02,31.30,549100,15.65
2013-09-20,31.60,31.82,31.36,31.49,672700,15.74
2013-09-19,32.00,32.00,31.50,31.62,836100,15.81
2013-09-18,31.71,32.07,31.52,31.86,653600,15.93
2013-09-17,31.64,31.76,31.55,31.60,267400,15.80
2013-09-16,31.76,31.95,31.61,31.64,461300,15.82
2013-09-13,31.18,31.59,31.10,31.53,376600,15.77
2013-09-12,31.04,31.43,30.97,31.24,627800,15.62
2013-09-11,30.77,31.07,30.75,31.04,591500,15.52
2013-09-10,30.52,30.79,30.37,30.72,889400,15.36
2013-09-09,30.20,30.64,30.09,30.37,623000,15.19
2013-09-06,29.70,30.40,29.65,30.16,847900,15.08
2013-09-05,29.09,29.71,29.06,29.71,587200,14.85
2013-09-04,29.38,29.38,28.53,29.04,1004400,14.52
2013-09-03,29.58,29.76,29.20,29.25,490600,14.62
2013-09-02,29.20,29.80,29.20,29.53,511100,14.77
2013-08-30,29.70,29.70,28.78,28.90,1521800,14.45
2013-08-29,29.45,29.94,29.17,29.84,653200,14.92
2013-08-28,28.70,29.35,28.66,29.25,904200,14.62
2013-08-27,30.01,30.14,29.00,29.00,1163800,14.50
2013-08-26,30.84,30.84,30.07,30.16,509600,15.08
2013-08-23,31.00,31.04,30.63,30.74,496500,15.37
2013-08-22,30.00,30.98,29.91,30.80,917900,15.40
2013-08-21,30.43,30.76,29.92,30.00,516100,15.00
2013-08-20,30.54,30.54,29.73,30.28,850600,15.14
2013-08-19,30.93,31.00,30.55,30.70,374100,15.35
2013-08-16,30.46,30.94,30.30,30.87,776700,15.44
2013-08-15,30.94,30.95,30.34,30.59,658700,15.30
2013-08-14,31.50,31.50,30.82,30.94,1089300,15.47
2013-08-13,31.60,31.60,30.96,31.49,914800,15.74
2013-08-12,31.40,31.78,31.31,31.44,1185200,15.72
2013-08-09,30.03,30.96,29.99,30.80,884300,15.40
2013-08-08,30.54,31.00,29.81,30.70,1500100,14.99
2013-08-07,30.95,31.12,28.90,30.54,4214800,14.91
2013-08-06,32.96,33.01,32.02,32.24,843400,15.75
2013-08-05,33.04,33.50,33.00,33.02,646000,16.13
2013-08-02,32.49,33.00,32.46,32.96,932400,16.10
2013-08-01,32.43,32.54,32.14,32.27,677200,15.76
2013-07-31,32.46,32.70,32.17,32.54,501900,15.89
2013-07-30,32.38,32.72,32.31,32.52,622700,15.88
2013-07-29,32.46,32.64,32.03,32.28,559800,15.76
2013-07-26,32.88,33.10,32.33,32.45,721400,15.85
2013-07-25,32.59,33.00,32.46,32.78,517300,16.01
2013-07-24,32.30,32.70,32.16,32.64,722900,15.94
2013-07-23,32.36,32.64,32.16,32.22,287500,15.74
2013-07-22,32.24,32.46,32.04,32.25,353000,15.75
2013-07-19,31.81,32.48,31.77,32.24,431000,15.75
2013-07-18,31.36,32.12,31.32,31.96,652100,15.61
2013-07-17,31.21,31.55,30.91,31.39,496100,15.33
2013-07-16,31.77,31.77,31.01,31.01,720300,15.14
2013-07-15,31.90,32.05,31.43,31.78,516500,15.52
2013-07-12,32.56,32.56,31.58,31.77,681600,15.52
2013-07-11,32.61,32.86,32.33,32.45,789800,15.85
2013-07-10,32.40,32.58,32.14,32.43,732900,15.84
2013-07-09,32.10,33.00,32.09,32.50,957800,15.87
2013-07-08,31.33,32.13,31.27,32.00,691600,15.63
2013-07-05,31.57,31.90,31.11,31.11,543600,15.19
2013-07-04,31.12,31.88,31.02,31.62,547700,15.44
2013-07-03,30.46,31.14,30.00,31.06,634600,15.17
2013-07-02,30.92,31.14,30.66,30.75,327800,15.02
2013-07-01,30.83,31.30,30.63,30.96,519600,15.12
2013-06-28,30.95,31.46,30.54,30.79,671800,15.04
2013-06-27,30.36,31.21,29.97,30.79,3917000,15.04
2013-06-26,29.72,30.42,29.55,30.34,861300,14.82
2013-06-25,30.00,30.00,29.17,29.50,1056000,14.41
2013-06-24,30.38,30.48,29.52,29.88,651400,14.59
2013-06-21,30.52,31.00,30.41,30.41,1114700,14.85
2013-06-20,30.00,30.89,29.90,30.62,946400,14.95
2013-06-19,30.80,30.91,30.35,30.42,510000,14.86
2013-06-18,30.49,30.95,30.30,30.80,506500,15.04
2013-06-17,29.72,30.72,29.72,30.53,763400,14.91
2013-06-14,29.89,30.00,29.56,29.62,448200,14.47
2013-06-13,29.21,29.76,28.88,29.64,519500,14.48
2013-06-12,29.84,30.02,29.42,29.46,571300,14.39
2013-06-11,30.19,30.19,29.53,29.89,674100,14.60
2013-06-10,30.62,30.64,30.14,30.28,535200,14.79
2013-06-07,30.10,30.87,29.92,30.59,993100,14.94
2013-06-06,30.40,30.58,29.78,29.83,752600,14.57
2013-06-05,30.44,30.84,30.40,30.60,818800,14.94
2013-06-04,30.31,30.61,30.24,30.57,561600,14.93
2013-06-03,30.02,30.53,29.87,30.14,739400,14.72
2013-05-31,30.46,30.51,30.03,30.34,894500,14.82
2013-05-30,29.62,30.69,29.44,30.42,1175100,14.86
2013-05-29,29.61,29.84,29.44,29.68,486900,14.49
2013-05-28,29.30,29.89,29.30,29.77,1015600,14.54
2013-05-27,29.26,29.38,28.87,29.19,660400,14.26
2013-05-24,30.77,30.79,29.98,30.21,884000,14.25
2013-05-23,30.52,30.63,30.08,30.59,1050700,14.43
2013-05-22,31.60,31.68,31.12,31.29,590400,14.76
2013-05-21,31.60,31.80,31.22,31.62,845700,14.91
2013-05-20,31.50,31.80,31.50,31.69,446500,14.95
2013-05-17,31.31,31.48,31.16,31.40,482500,14.81
2013-05-16,31.39,31.46,31.14,31.32,472900,14.77
2013-05-15,30.80,31.37,30.63,31.28,587900,14.75
2013-05-14,30.69,30.84,30.32,30.80,431400,14.53
2013-05-13,30.90,31.00,30.22,30.56,502600,14.41
2013-05-10,30.90,31.37,30.68,30.90,545300,14.57
2013-05-09,30.97,31.28,30.83,31.02,365700,14.63
2013-05-08,30.60,31.00,30.53,30.94,685100,14.59
2013-05-07,30.80,30.90,30.51,30.51,439600,14.39
2013-05-06,30.43,30.87,30.39,30.67,431400,14.46
2013-05-03,30.68,30.77,30.12,30.25,1118400,14.27
2013-05-02,29.45,30.70,29.42,30.68,1210400,14.47
2013-05-01,29.10,29.10,29.10,29.10,000,13.72
2013-04-30,29.30,29.52,29.06,29.10,762100,13.72
2013-04-29,28.69,29.28,28.50,29.24,838700,13.79
2013-04-26,28.75,28.82,28.35,28.50,600000,13.44
2013-04-25,28.63,29.04,28.58,28.86,681000,13.61
2013-04-24,27.98,28.68,27.85,28.61,774700,13.49
2013-04-23,26.80,28.00,26.80,27.98,866200,13.20
2013-04-22,26.90,27.19,26.67,26.84,371100,12.66
2013-04-19,26.20,26.68,26.17,26.63,577800,12.56
2013-04-18,26.64,26.64,25.96,26.11,481500,12.31
2013-04-17,26.98,26.98,26.26,26.53,563400,12.51
2013-04-16,26.85,26.96,26.56,26.80,547300,12.64
2013-04-15,27.21,27.36,26.77,27.09,391500,12.78
2013-04-12,27.47,27.47,26.92,27.29,451800,12.87
2013-04-11,27.45,27.58,27.16,27.47,580800,12.96
2013-04-10,26.70,27.52,26.64,27.50,804600,12.97
2013-04-09,26.40,26.68,26.28,26.68,537100,12.58
2013-04-08,26.61,26.77,26.09,26.20,490800,12.36
2013-04-05,26.91,27.11,26.02,26.47,550600,12.48
2013-04-04,27.07,27.12,26.62,26.79,506000,12.63
2013-04-03,27.00,27.18,26.74,26.85,595600,12.66
2013-04-02,26.89,27.24,26.88,27.20,530300,12.83
2013-04-01,26.76,26.76,26.76,26.76,000,12.62
2013-03-29,26.76,26.76,26.76,26.76,000,12.62
2013-03-28,27.04,27.05,26.59,26.76,734900,12.62
2013-03-27,27.69,27.76,26.75,26.99,710700,12.73
2013-03-26,27.90,28.06,27.36,27.55,720600,12.99
2013-03-25,28.40,28.51,27.39,27.66,696300,13.04
2013-03-22,27.95,28.23,27.50,27.94,521100,13.18
2013-03-21,28.48,28.59,27.94,28.00,647000,13.21
2013-03-20,28.02,28.48,27.94,28.48,521200,13.43
2013-03-19,28.29,28.38,27.76,27.89,446100,13.15
2013-03-18,28.02,28.36,27.91,28.28,881000,13.34
2013-03-15,29.10,29.14,28.60,28.82,1319700,13.59
2013-03-14,28.50,29.10,28.46,29.01,874000,13.68
2013-03-13,28.44,28.48,28.21,28.47,655900,13.43
2013-03-12,28.53,28.88,28.44,28.59,609600,13.48
2013-03-11,28.58,28.67,28.31,28.67,765100,13.52
2013-03-08,27.90,28.67,27.89,28.65,939100,13.51
2013-03-07,27.42,27.79,27.37,27.74,560200,13.08
2013-03-06,27.56,27.66,27.33,27.36,580800,12.90
2013-03-05,26.88,27.37,26.88,27.30,669200,12.87
2013-03-04,26.39,26.82,26.26,26.74,761300,12.61
2013-03-01,27.49,27.49,26.10,26.65,1305600,12.57
2013-02-28,26.75,27.38,26.65,27.12,3127600,12.79
2013-02-27,26.58,26.62,25.93,26.28,1180800,12.39
2013-02-26,27.04,27.21,26.35,26.42,1646100,12.46
2013-02-25,28.10,28.42,27.64,27.93,854700,13.17
2013-02-22,27.59,27.96,27.47,27.91,772100,13.16
2013-02-21,28.40,28.40,27.24,27.40,1326900,12.92
2013-02-20,28.30,28.71,28.29,28.69,1386400,13.53
2013-02-19,28.16,28.35,28.16,28.31,1209500,13.35
2013-02-18,28.02,28.26,27.82,28.17,259700,13.29
2013-02-15,28.45,28.50,28.00,28.07,751500,13.24
2013-02-14,28.45,28.60,28.30,28.47,862600,13.43
2013-02-13,28.39,28.67,28.02,28.52,560900,13.45
2013-02-12,28.00,28.32,27.71,28.32,523800,13.36
2013-02-11,27.86,28.21,27.64,27.95,395700,13.18
2013-02-08,27.58,27.98,27.38,27.83,948400,13.12
2013-02-07,27.58,28.04,27.29,27.38,736400,12.91
2013-02-06,28.26,28.40,27.35,27.55,1174500,12.99
2013-02-05,27.90,28.27,27.82,28.25,705300,13.32
2013-02-04,29.00,29.00,27.91,28.04,1565400,13.22
2013-02-01,28.94,29.21,28.70,28.90,788600,13.63
2013-01-31,29.42,29.47,28.70,28.98,811600,13.67
2013-01-30,29.59,29.63,29.23,29.35,673900,13.84
2013-01-29,29.41,29.62,29.20,29.47,645500,13.90
2013-01-28,29.58,29.62,29.20,29.41,922600,13.87
2013-01-25,29.27,29.60,29.15,29.43,828600,13.88
2013-01-24,28.78,29.31,28.49,29.30,777900,13.82
2013-01-23,29.38,29.41,28.32,28.58,906300,13.48
2013-01-22,28.87,29.42,28.55,29.26,748300,13.80
2013-01-21,28.69,28.94,28.50,28.82,467300,13.59
2013-01-18,29.13,29.13,28.46,28.58,1146800,13.48
2013-01-17,28.68,29.04,28.62,29.00,708000,13.68
2013-01-16,28.84,29.25,28.62,28.80,1144100,13.58
2013-01-15,28.48,29.04,28.48,28.96,1735800,13.66
2013-01-14,28.98,29.12,28.34,28.43,1251900,13.41
2013-01-11,28.22,28.90,28.22,28.89,1958000,13.62
2013-01-10,27.61,28.42,27.60,28.12,2738600,13.26
2013-01-09,27.26,28.17,27.20,27.42,41988300,12.93
2013-01-08,25.32,26.58,25.30,25.72,1504200,12.13
2013-01-07,24.90,25.97,24.86,25.40,1240200,11.98
2013-01-04,25.18,25.19,24.73,24.85,1233100,11.72
2013-01-03,25.25,25.40,25.02,25.16,695500,11.87
2013-01-02,25.38,25.49,25.13,25.20,960000,11.88
2013-01-01,24.67,24.67,24.67,24.67,000,11.63
2012-12-31,24.70,24.92,24.50,24.67,106900,11.63
2012-12-28,24.97,25.19,24.58,24.84,345000,11.71
2012-12-27,24.96,25.21,24.91,24.97,424400,11.78
2012-12-26,24.95,24.95,24.95,24.95,000,11.77
2012-12-25,24.95,24.95,24.95,24.95,000,11.77
2012-12-24,24.76,24.97,24.70,24.95,82600,11.77
2012-12-21,25.06,25.12,24.56,24.78,994500,11.69
2012-12-20,24.82,25.26,24.73,25.12,837800,11.85
2012-12-19,24.72,25.00,24.65,24.90,632500,11.74
2012-12-18,24.56,24.65,24.32,24.64,476100,11.62
2012-12-17,24.64,24.64,24.24,24.48,529600,11.54
2012-12-14,24.56,24.96,24.51,24.60,743300,11.60
2012-12-13,24.24,24.58,24.24,24.54,628100,11.57
2012-12-12,24.07,24.40,24.00,24.28,649300,11.45
2012-12-11,23.88,24.07,23.72,23.91,435800,11.28
2012-12-10,23.92,23.96,23.50,23.86,428200,11.25
2012-12-07,23.98,24.06,23.82,24.01,497500,11.32
2012-12-06,23.86,24.39,23.80,24.00,790500,11.32
2012-12-05,23.50,23.77,23.50,23.76,714600,11.21
2012-12-04,23.04,23.50,23.01,23.36,542600,11.02
2012-12-03,23.00,23.34,22.95,23.08,633700,10.88
2012-11-30,22.77,22.99,22.58,22.95,909400,10.82
2012-11-29,22.34,22.70,22.13,22.69,740900,10.70
2012-11-28,21.98,22.19,21.86,22.17,617100,10.46
2012-11-27,22.26,22.41,21.88,22.00,914200,10.38
2012-11-26,22.11,22.20,21.94,22.07,625900,10.41
2012-11-23,22.54,22.55,21.98,22.16,922400,10.45
2012-11-22,22.16,22.59,22.08,22.36,433900,10.55
2012-11-21,22.20,22.29,22.06,22.11,608700,10.43
2012-11-20,22.60,22.70,22.21,22.37,768500,10.55
2012-11-19,22.26,22.78,22.26,22.75,604300,10.73
2012-11-16,22.60,22.65,21.97,22.00,762100,10.38
2012-11-15,22.76,22.94,22.64,22.69,447400,10.70
2012-11-14,23.06,23.30,22.90,22.98,493800,10.84
2012-11-13,23.14,23.22,22.88,23.15,477400,10.92
2012-11-12,23.02,23.40,22.96,23.20,426600,10.94
2012-11-09,23.50,23.72,22.76,23.30,1204600,10.99
2012-11-08,23.78,24.10,22.85,23.73,2598700,11.19
2012-11-07,25.42,25.46,24.63,24.75,1069200,11.67
2012-11-06,25.49,25.54,25.26,25.32,563200,11.94
2012-11-05,25.62,25.70,25.37,25.46,442500,12.01
2012-11-02,25.80,25.94,25.64,25.74,343600,12.14
2012-11-01,25.60,25.82,25.40,25.74,424200,12.14
2012-10-31,25.30,25.73,25.22,25.66,624100,12.10
2012-10-30,24.96,25.38,24.91,25.26,291100,11.91
2012-10-29,25.30,25.33,24.69,24.84,451200,11.71
2012-10-26,25.38,25.43,24.91,25.29,488600,11.93
2012-10-25,25.40,25.86,25.32,25.57,487000,12.06
2012-10-24,25.16,25.79,24.92,25.36,947800,11.96
2012-10-23,25.50,25.57,24.93,25.10,962100,11.84
2012-10-22,25.46,25.88,25.26,25.50,550600,12.03
2012-10-19,25.75,25.75,25.35,25.47,470300,12.01
2012-10-18,25.55,25.80,25.30,25.74,630300,12.14
2012-10-17,25.48,25.65,25.25,25.52,615100,12.04
2012-10-16,24.99,25.45,24.90,25.30,597000,11.93
2012-10-15,24.64,24.91,24.54,24.82,470000,11.71
2012-10-12,24.63,24.85,24.42,24.64,522800,11.62
2012-10-11,23.95,24.60,23.84,24.52,1069900,11.56
2012-10-10,23.94,24.17,23.93,24.08,515500,11.36
2012-10-09,24.28,24.28,23.94,24.07,949900,11.35
2012-10-08,24.37,24.37,24.12,24.27,463600,11.45
2012-10-05,24.76,24.80,24.42,24.48,1055500,11.54
2012-10-04,24.54,24.80,24.51,24.70,514700,11.65
2012-10-03,24.25,24.59,24.07,24.44,812200,11.53
2012-10-02,24.14,24.46,24.00,24.30,894300,11.46
2012-10-01,23.65,24.53,23.59,24.38,555500,11.50
2012-09-28,24.58,24.60,23.73,23.73,908100,11.19
2012-09-27,24.60,24.64,24.21,24.42,618800,11.52
2012-09-26,25.00,25.08,24.11,24.23,1066500,11.43
2012-09-25,25.06,25.37,24.98,25.30,766000,11.93
2012-09-24,25.00,25.26,24.95,25.13,770800,11.85
2012-09-21,24.98,25.20,24.76,25.18,1205000,11.88
2012-09-20,25.02,25.07,24.34,24.69,1076500,11.64
2012-09-19,25.33,25.53,24.92,25.22,940200,11.89
2012-09-18,25.47,25.59,24.90,25.22,807400,11.89
2012-09-17,25.47,25.95,25.43,25.66,1044600,12.10
2012-09-14,25.42,25.80,25.27,25.48,1317500,12.02
2012-09-13,24.71,24.83,24.46,24.79,583200,11.69
2012-09-12,24.32,25.08,24.32,24.70,901700,11.65
2012-09-11,23.75,24.24,23.32,24.20,605600,11.41
2012-09-10,23.86,24.04,23.58,23.94,582500,11.29
2012-09-07,23.52,24.07,23.51,23.94,1317700,11.29
2012-09-06,22.50,23.45,22.45,23.39,1027300,11.03
2012-09-05,22.10,22.68,22.08,22.40,600600,10.56
2012-09-04,22.07,22.30,22.00,22.16,538700,10.45
2012-09-03,22.00,22.24,21.93,22.02,403300,10.38
2012-08-31,21.74,22.36,21.66,21.91,2475500,10.33
2012-08-30,22.20,22.28,21.59,21.59,786100,10.18
2012-08-29,22.16,22.24,21.92,22.19,340000,10.46
2012-08-28,22.03,22.27,21.98,22.10,579000,10.42
2012-08-27,22.00,22.41,21.99,22.24,339600,10.49
2012-08-24,22.15,22.20,21.80,21.96,595100,10.36
2012-08-23,22.58,22.67,21.96,22.14,531700,10.44
2012-08-22,22.63,22.65,22.33,22.40,715400,10.56
2012-08-21,22.58,22.86,22.47,22.69,734400,10.70
2012-08-20,22.41,22.80,22.34,22.45,1329700,10.59
2012-08-17,21.92,22.38,21.74,22.35,1203500,10.54
2012-08-16,21.61,22.02,21.42,21.93,821000,10.34
2012-08-15,21.48,21.62,21.37,21.56,319100,10.17
2012-08-14,21.49,21.64,21.33,21.56,579600,10.17
2012-08-13,21.46,21.56,21.24,21.37,490900,10.08
2012-08-10,21.44,21.54,21.35,21.44,855600,10.11
2012-08-09,21.43,21.65,21.24,21.50,808500,10.14
2012-08-08,21.20,21.89,21.17,21.34,1099100,10.06
2012-08-07,20.27,21.16,20.27,21.14,1013300,9.97
2012-08-06,20.48,20.48,19.94,20.30,1282700,9.57
2012-08-03,20.14,21.01,19.82,20.82,1376600,9.48
2012-08-02,21.15,21.40,19.70,19.86,3391500,9.04
2012-08-01,21.22,21.60,21.21,21.46,476400,9.77
2012-07-31,21.80,21.80,21.03,21.23,902600,9.67
2012-07-30,21.30,21.89,21.30,21.74,567900,9.90
2012-07-27,20.98,21.24,20.62,21.23,936500,9.67
2012-07-26,19.91,20.76,19.46,20.65,1149400,9.40
2012-07-25,19.38,20.02,19.28,19.58,1470900,8.91
2012-07-24,20.68,20.68,19.22,19.38,1657700,8.82
2012-07-23,21.65,21.65,19.84,20.25,1602600,9.22
2012-07-20,22.62,22.75,21.70,21.87,855600,9.96
2012-07-19,22.78,22.84,22.58,22.64,898500,10.31
2012-07-18,22.70,22.79,22.45,22.68,962100,10.33
2012-07-17,22.85,22.90,22.40,22.52,661000,10.25
2012-07-16,22.72,22.88,22.60,22.66,1429100,10.32
2012-07-13,22.34,22.46,22.01,22.30,610200,10.15
2012-07-12,22.00,22.56,21.88,22.20,1286900,10.11
2012-07-11,22.04,22.28,21.98,22.02,782700,10.03
2012-07-10,22.56,22.56,21.96,22.17,1113800,10.09
2012-07-09,22.43,22.44,21.91,22.30,1746800,10.15
2012-07-06,22.14,22.73,21.82,22.18,5265600,10.10
2012-07-05,23.50,23.78,23.14,23.20,1139400,10.56
2012-07-04,22.86,23.51,22.62,23.21,610600,10.57
2012-07-03,22.55,24.00,22.55,23.14,1509800,10.54
2012-07-02,21.99,22.30,21.66,22.15,413100,10.08
2012-06-29,21.35,21.89,20.97,21.88,798700,9.96
2012-06-28,20.78,20.93,20.11,20.32,640700,9.25
2012-06-27,20.61,20.96,20.53,20.69,417900,9.42
2012-06-26,20.96,20.99,20.48,20.54,372800,9.35
2012-06-25,21.68,21.82,20.58,20.74,453000,9.44
2012-06-22,21.36,22.09,21.14,21.68,393900,9.87
2012-06-21,21.54,22.04,21.27,21.58,542800,9.83
2012-06-20,21.70,21.94,21.40,21.86,403800,9.95
2012-06-19,20.63,21.62,20.25,21.45,873200,9.77
2012-06-18,20.76,21.39,20.04,20.36,745900,9.27
2012-06-15,18.98,20.52,18.98,20.52,1075700,9.34
2012-06-14,18.64,19.12,18.41,18.90,704400,8.61
2012-06-13,19.20,19.28,18.44,18.64,890800,8.49
2012-06-12,19.90,19.90,18.76,19.14,966100,8.71
2012-06-11,20.58,20.70,19.70,19.74,517500,8.99
2012-06-08,20.25,20.27,19.54,19.90,710000,9.06
2012-06-07,20.73,20.79,20.35,20.48,306700,9.32
2012-06-06,19.94,20.62,19.79,20.45,505800,9.31
2012-06-05,19.82,19.83,19.40,19.64,246500,8.94
2012-06-04,19.29,19.78,19.06,19.62,381700,8.93
2012-06-01,20.00,20.16,19.16,19.42,741600,8.84
2012-05-31,20.23,20.45,19.81,20.03,935700,9.12
2012-05-30,20.45,20.80,20.20,20.28,368100,9.23
2012-05-29,20.63,20.68,20.22,20.46,639700,9.32
2012-05-28,20.71,21.06,20.32,20.36,313600,9.27
2012-05-25,20.93,21.29,20.34,20.60,623500,9.38
2012-05-24,22.09,22.37,21.30,21.83,894300,9.47
2012-05-23,22.42,22.72,21.86,21.86,447500,9.48
2012-05-22,22.00,22.95,21.86,22.78,620600,9.88
2012-05-21,21.70,22.00,21.40,21.70,411100,9.41
2012-05-18,21.14,21.92,21.00,21.60,403700,9.37
2012-05-17,22.01,22.09,21.16,21.50,479100,9.32
2012-05-16,21.97,22.34,21.34,22.00,843200,9.54
2012-05-15,23.23,23.47,22.00,22.15,1075600,9.61
2012-05-14,23.95,23.95,23.18,23.18,587900,10.05
2012-05-11,24.20,24.28,23.53,24.18,618400,10.49
2012-05-10,23.90,24.28,23.58,24.20,846100,10.49
2012-05-09,24.16,24.26,23.10,23.50,720700,10.19
2012-05-08,24.69,24.79,24.05,24.06,940900,10.43
2012-05-07,23.87,24.76,23.70,24.61,391100,10.67
2012-05-04,24.63,24.77,24.03,24.21,779000,10.50
2012-05-03,24.84,25.07,24.38,24.58,830900,10.66
2012-05-02,25.74,25.76,24.39,24.60,1082900,10.67
2012-05-01,25.47,25.47,25.47,25.47,000,11.05
2012-04-30,25.60,25.82,25.32,25.47,302300,11.05
2012-04-27,24.79,25.60,24.53,25.49,451800,11.05
2012-04-26,25.30,25.51,24.67,25.10,532100,10.89
2012-04-25,25.02,25.67,24.83,25.31,602300,10.98
2012-04-24,24.58,24.93,23.96,24.69,754100,10.71
2012-04-23,25.00,25.06,23.79,24.23,1504300,10.51
2012-04-20,24.82,25.58,24.41,25.25,923300,10.95
2012-04-19,24.39,24.50,23.81,24.00,641600,10.41
2012-04-18,24.75,24.90,24.02,24.11,399000,10.46
2012-04-17,23.48,24.76,23.40,24.55,706800,10.65
2012-04-16,23.96,23.96,23.15,23.42,694700,10.16
2012-04-13,24.40,24.52,23.56,23.86,689100,10.35
2012-04-12,24.44,24.64,23.72,24.33,985900,10.55
2012-04-11,23.80,24.72,23.74,24.40,799300,10.58
2012-04-10,24.71,24.73,23.87,23.87,712700,10.35
2012-04-09,24.88,24.88,24.88,24.88,000,10.79
2012-04-06,24.88,24.88,24.88,24.88,000,10.79
2012-04-05,24.85,25.30,24.20,24.88,657900,10.79
2012-04-04,25.91,25.94,24.74,24.75,1057000,10.73
2012-04-03,26.47,26.60,25.96,26.01,551800,11.28
2012-04-02,26.52,26.52,25.77,26.36,686200,11.43
2012-03-30,26.53,26.54,26.02,26.36,426400,11.43
2012-03-29,26.70,26.78,26.02,26.20,801100,11.36
2012-03-28,26.50,26.91,26.40,26.66,827100,11.56
2012-03-27,26.90,27.10,26.16,26.28,815500,11.40
2012-03-26,26.55,26.88,26.08,26.70,473300,11.58
2012-03-23,26.53,26.88,26.05,26.25,682000,11.38
2012-03-22,26.70,26.81,26.24,26.58,669800,11.53
2012-03-21,27.35,27.60,26.46,26.78,627600,11.61
2012-03-20,27.60,27.66,27.17,27.28,695300,11.83
2012-03-19,27.40,27.66,27.12,27.60,980200,11.97
2012-03-16,26.88,27.48,26.60,27.31,1424600,11.84
2012-03-15,27.38,27.38,26.50,26.65,1179000,11.56
2012-03-14,27.53,27.59,27.13,27.37,632800,11.87
2012-03-13,26.40,27.56,26.34,27.27,1687100,11.83
2012-03-12,26.70,27.00,25.68,26.15,933300,11.34
2012-03-09,26.99,27.14,26.16,26.52,958400,11.50
2012-03-08,28.09,28.34,26.66,26.77,1185700,11.61
2012-03-07,27.27,27.69,27.15,27.54,556100,11.94
2012-03-06,28.60,28.74,27.32,27.34,636500,11.86
2012-03-05,28.30,29.10,27.78,28.80,759700,12.49
2012-03-02,28.22,28.44,27.99,28.35,346700,12.29
2012-03-01,27.80,28.19,27.72,28.10,355700,12.19
2012-02-29,28.62,28.92,27.82,27.85,627200,12.08
2012-02-28,28.30,28.78,28.10,28.64,671400,12.42
2012-02-27,28.44,28.65,28.06,28.30,434700,12.27
2012-02-24,28.74,29.04,28.58,28.62,261700,12.41
2012-02-23,28.91,29.28,28.54,28.80,415400,12.49
2012-02-22,29.30,29.49,28.84,29.06,278600,12.60
2012-02-21,29.75,29.91,28.98,29.29,306500,12.70
2012-02-20,29.20,30.06,29.00,29.74,592700,12.90
2012-02-17,28.59,29.07,28.35,28.71,317600,12.45
2012-02-16,28.22,28.31,27.68,28.30,418200,12.27
2012-02-15,28.85,29.07,28.26,28.56,369000,12.39
2012-02-14,29.00,29.22,28.36,28.64,353600,12.42
2012-02-13,29.09,29.38,28.88,28.95,198500,12.55
2012-02-10,29.54,29.54,28.71,28.80,440000,12.49
2012-02-09,29.82,29.93,29.43,29.57,441200,12.82
2012-02-08,29.00,29.94,29.00,29.82,692900,12.93
2012-02-07,29.51,29.52,28.61,28.88,418000,12.52
2012-02-06,29.89,29.89,29.10,29.29,335700,12.70
2012-02-03,29.04,29.96,28.82,29.80,559800,12.92
2012-02-02,29.30,29.39,28.50,29.12,461400,12.63
2012-02-01,28.11,29.24,28.11,29.24,568200,12.68
2012-01-31,27.59,28.52,27.42,27.98,619400,12.13
2012-01-30,27.56,27.69,27.26,27.42,404100,11.89
2012-01-27,27.92,28.06,27.49,27.87,626600,12.09
2012-01-26,27.80,28.34,27.55,28.00,318000,12.14
2012-01-25,27.82,28.28,27.41,27.62,397600,11.98
2012-01-24,28.50,28.60,27.70,27.77,519800,12.04
2012-01-23,27.95,28.76,27.76,28.62,628500,12.41
2012-01-20,27.94,27.98,27.44,27.79,433800,12.05
2012-01-19,26.90,27.84,26.72,27.82,698900,12.06
2012-01-18,26.66,27.04,26.32,26.77,365800,11.61
2012-01-17,26.36,26.93,26.01,26.75,476900,11.60
2012-01-16,25.60,26.24,25.36,26.17,365800,11.35
2012-01-13,26.28,26.38,25.11,25.60,456100,11.10
2012-01-12,25.31,26.22,25.31,26.12,454300,11.33
2012-01-11,25.27,25.51,24.96,25.35,461900,10.99
2012-01-10,24.73,25.28,24.55,25.14,413100,10.90
2012-01-09,25.05,25.14,24.03,24.33,504800,10.55
2012-01-06,25.23,25.51,24.46,24.80,379500,10.76
2012-01-05,26.70,26.77,25.04,25.22,447200,10.94
2012-01-04,26.70,26.92,26.40,26.50,236600,11.49
2012-01-03,26.83,26.87,26.30,26.87,208700,11.65
2012-01-02,26.22,26.70,26.22,26.48,123500,11.48
2011-12-30,25.98,26.32,25.77,26.00,136700,11.28
2011-12-29,25.69,25.90,25.42,25.90,123600,11.23
2011-12-28,26.16,26.25,25.50,25.61,197100,11.11
2011-12-27,26.30,26.30,26.00,26.00,148400,11.28
2011-12-26,25.88,25.88,25.88,25.88,000,11.22
2011-12-23,25.80,26.04,25.56,25.88,150700,11.22
2011-12-22,25.50,25.93,25.34,25.60,244100,11.10
2011-12-21,25.36,25.82,25.26,25.45,503200,11.04
2011-12-20,24.90,25.40,24.90,25.26,559700,10.95
2011-12-19,25.20,25.57,24.68,24.90,308800,10.80
2011-12-16,25.13,25.61,25.10,25.36,374800,11.00
2011-12-15,25.19,25.65,24.90,25.13,390600,10.90
2011-12-14,25.40,25.78,24.86,25.06,284300,10.87
2011-12-13,25.86,26.10,25.34,25.65,387000,11.12
2011-12-12,26.80,26.92,25.74,25.93,312900,11.25
2011-12-09,26.20,27.51,26.20,26.98,609700,11.70
2011-12-08,27.50,27.50,26.04,26.20,375900,11.36
2011-12-07,27.96,28.04,26.79,27.35,309200,11.86
2011-12-06,27.20,27.80,26.80,27.76,398100,12.04
2011-12-05,27.80,28.18,27.46,27.61,482100,11.97
2011-12-02,26.51,27.50,26.43,27.30,478000,11.84
2011-12-01,26.08,26.50,25.98,26.35,535600,11.43
2011-11-30,24.71,26.60,24.65,26.01,771600,11.28
2011-11-29,25.18,25.55,24.49,25.46,326000,11.04
2011-11-28,23.32,25.17,23.32,25.12,499100,10.89
2011-11-25,23.23,23.45,22.82,22.99,276100,9.97
2011-11-24,23.35,23.97,23.04,23.08,251400,10.01
2011-11-23,23.98,24.55,23.17,23.19,302300,10.06
2011-11-22,23.98,25.02,23.79,24.16,468300,10.48
2011-11-21,24.50,24.55,23.60,23.87,326900,10.35
2011-11-18,24.96,25.32,24.62,24.63,278900,10.68
2011-11-17,25.21,25.54,24.92,25.17,240000,10.92
2011-11-16,25.13,25.84,25.00,25.52,546900,11.07
2011-11-15,25.00,25.41,24.62,25.21,558600,10.93
2011-11-14,25.82,25.94,24.89,25.12,356100,10.89
2011-11-11,24.18,25.78,23.88,25.71,401300,11.15
2011-11-10,23.42,24.73,23.39,24.02,309300,10.42
2011-11-09,25.90,25.90,23.84,24.06,384500,10.43
2011-11-08,25.00,25.89,25.00,25.44,240600,11.03
2011-11-07,24.68,25.48,24.22,24.94,230700,10.82
2011-11-04,26.16,26.28,24.80,25.04,392300,10.86
2011-11-03,23.98,26.00,23.62,25.90,502700,11.23
2011-11-02,23.90,24.82,23.74,24.46,456800,10.61
2011-11-01,24.91,24.95,23.27,23.46,551700,10.17
2011-10-31,26.60,27.02,25.57,25.57,383900,11.09
2011-10-28,28.07,28.18,26.51,26.95,386400,11.69
2011-10-27,26.88,27.96,26.70,27.70,656100,12.01
2011-10-26,25.32,26.40,25.15,25.95,535300,11.25
2011-10-25,25.93,26.20,25.10,25.34,308400,10.99
2011-10-24,25.40,26.34,25.00,26.27,512100,11.39
2011-10-21,24.60,24.98,24.30,24.98,396900,10.83
2011-10-20,25.20,25.41,24.19,24.34,420700,10.56
2011-10-19,25.18,26.12,25.16,25.61,302000,11.11
2011-10-18,24.60,25.30,24.34,24.74,312500,10.73
2011-10-17,25.89,25.96,24.64,24.92,394400,10.81
2011-10-14,24.85,25.88,24.19,25.52,531500,11.07
2011-10-13,26.20,26.40,24.72,24.88,670700,10.79
2011-10-12,24.43,26.36,24.43,26.32,938200,11.41
2011-10-11,25.15,25.27,24.37,24.74,278000,10.73
2011-10-10,24.60,25.32,24.11,25.16,516700,10.91
2011-10-07,24.23,24.90,23.83,24.54,1497800,10.64
2011-10-06,22.94,24.31,22.65,23.95,985600,10.39
2011-10-05,21.95,22.53,21.34,22.46,526000,9.74
2011-10-04,22.44,22.44,20.79,21.35,656500,9.26
2011-10-03,23.05,23.33,22.75,22.92,291400,9.94
2011-09-30,23.66,24.40,23.39,23.90,659500,10.36
2011-09-29,22.46,23.70,22.45,23.66,375800,10.26
2011-09-28,22.80,23.00,22.20,22.70,566800,9.84
2011-09-27,21.10,22.90,20.98,22.80,634900,9.89
2011-09-26,19.65,20.61,19.54,20.45,689800,8.87
2011-09-23,20.98,20.98,19.22,19.91,723400,8.64
2011-09-22,21.16,21.51,20.60,20.68,662400,8.97
2011-09-21,22.22,22.28,21.00,21.90,562200,9.50
2011-09-20,22.53,22.83,21.76,22.13,616100,9.60
2011-09-19,23.00,23.16,22.56,22.75,744500,9.87
2011-09-16,22.00,23.70,21.99,23.68,1196600,10.27
2011-09-15,21.40,22.14,21.25,22.02,741500,9.55
2011-09-14,20.78,21.46,20.21,21.28,796200,9.23
2011-09-13,21.62,21.94,20.70,20.98,773400,9.10
2011-09-12,22.53,22.56,21.18,21.26,799400,9.22
2011-09-09,24.24,24.24,22.88,22.95,530500,9.95
2011-09-08,24.24,24.24,22.88,22.95,1061100,9.95
2011-09-07,24.24,24.60,24.02,24.46,696200,10.61
2011-09-06,24.61,25.30,23.40,23.77,598800,10.31
2011-09-05,25.50,25.59,24.35,24.91,504500,10.80
2011-09-02,25.50,25.78,25.28,25.40,386800,11.02
2011-09-01,25.57,26.04,25.15,26.04,411700,11.29
2011-08-31,24.88,25.71,24.71,25.44,562000,11.03
2011-08-30,24.65,24.86,24.40,24.70,386400,10.71
2011-08-29,24.00,24.41,23.48,24.16,153900,10.48
2011-08-26,24.12,24.12,23.06,23.70,423800,10.28
2011-08-25,24.32,24.80,24.10,24.31,485200,10.54
2011-08-24,24.20,24.22,23.61,24.08,561700,10.44
2011-08-23,24.60,24.69,23.80,23.81,567400,10.33
2011-08-22,24.16,24.93,24.10,24.26,339200,10.52
2011-08-19,24.70,24.70,23.82,24.21,705000,10.50
2011-08-18,26.20,26.20,24.61,24.93,428200,10.81
2011-08-17,26.28,26.90,25.66,26.42,501900,11.46
2011-08-16,26.72,26.72,25.65,26.44,369100,11.47
2011-08-15,26.51,27.15,26.30,26.64,483000,11.55
2011-08-12,25.00,26.31,24.58,25.91,490800,11.24
2011-08-11,24.58,25.00,23.21,24.66,711600,10.69
2011-08-10,25.99,26.05,23.40,23.83,748400,10.33
2011-08-09,23.80,25.30,23.10,25.17,1105300,10.92
2011-08-08,25.17,26.17,23.91,24.03,984800,10.42
2011-08-05,26.00,26.86,25.60,26.32,1003500,11.10
2011-08-04,29.20,29.44,26.97,27.10,823800,11.43
2011-08-03,28.41,28.96,27.84,28.18,581700,11.89
2011-08-02,30.20,30.36,28.94,29.11,612300,12.28
2011-08-01,31.10,31.49,30.21,30.33,419800,12.80
2011-07-29,30.90,31.17,30.24,30.56,352900,12.89
2011-07-28,31.05,31.36,30.74,31.27,318100,13.19
2011-07-27,31.79,31.79,30.88,31.28,231700,13.20
2011-07-26,31.73,32.08,31.55,31.75,405100,13.40
2011-07-25,32.27,32.27,31.57,31.78,196600,13.41
2011-07-22,32.90,33.05,32.00,32.29,379600,13.62
2011-07-21,31.23,32.66,30.92,32.54,457000,13.73
2011-07-20,30.80,31.20,30.25,30.95,325700,13.06
2011-07-19,30.21,30.83,30.05,30.46,435900,12.85
2011-07-18,31.39,31.49,30.04,30.17,443500,12.73
2011-07-15,31.47,31.82,31.06,31.49,351800,13.29
2011-07-14,31.69,31.89,31.39,31.52,375200,13.30
2011-07-13,31.76,32.46,31.63,31.72,514600,13.38
2011-07-12,31.92,32.20,30.73,32.09,995000,13.54
2011-07-11,33.20,33.20,32.02,32.28,393400,13.62
2011-07-08,33.95,33.98,33.30,33.55,308000,14.15
2011-07-07,33.90,33.97,33.54,33.79,265800,14.26
2011-07-06,33.67,33.94,33.11,33.94,465600,14.32
2011-07-05,33.43,33.96,33.43,33.64,468800,14.19
2011-07-04,33.31,33.50,33.16,33.42,235200,14.10
2011-07-01,32.80,33.40,32.76,33.29,477400,14.05
2011-06-30,31.90,32.78,31.88,32.78,416700,13.83
2011-06-29,30.98,32.24,30.98,32.05,639900,13.52
2011-06-28,31.35,31.35,30.80,30.89,439500,13.03
2011-06-27,31.00,31.37,30.80,31.14,254900,13.14
2011-06-24,31.80,31.98,30.98,31.00,381100,13.08
2011-06-23,32.04,32.07,31.44,31.56,354400,13.32
2011-06-22,31.90,32.39,31.90,32.16,514700,13.57
2011-06-21,31.96,32.20,31.71,32.02,417900,13.51
2011-06-20,31.86,32.20,31.60,31.87,370000,13.45
2011-06-17,31.86,32.50,31.80,32.20,588200,13.59
2011-06-16,32.01,32.05,31.71,32.00,529300,13.50
2011-06-15,31.91,32.30,31.65,32.10,693300,13.54
2011-06-14,31.50,32.00,31.44,31.92,534200,13.47
2011-06-13,31.42,31.42,30.86,30.99,239400,13.07
2011-06-10,31.55,31.60,31.22,31.34,449700,13.22
2011-06-09,31.00,31.55,30.98,31.42,311600,13.26
2011-06-08,31.64,31.64,30.96,31.11,490400,13.13
2011-06-07,31.52,31.91,31.35,31.48,386400,13.28
2011-06-06,32.00,32.15,31.50,31.57,442600,13.32
2011-06-03,31.80,31.98,31.40,31.84,541600,13.43
2011-06-02,31.50,32.00,31.43,31.63,396300,13.34
2011-06-01,32.24,32.28,31.43,31.58,998600,13.32
2011-05-31,32.34,32.34,31.77,31.98,1873300,13.49
2011-05-30,31.92,32.05,31.71,31.88,214200,13.45
2011-05-27,31.95,32.15,31.51,31.60,731700,13.33
2011-05-26,31.53,32.31,31.42,31.65,1183600,13.35
2011-05-25,30.74,31.30,30.70,31.22,880700,13.17
2011-05-24,31.25,31.28,30.87,30.96,771000,13.06
2011-05-23,32.80,32.80,32.06,32.14,726000,13.13
2011-05-20,33.00,33.39,32.91,33.00,655000,13.48
2011-05-19,32.90,33.23,32.61,32.86,773600,13.42
2011-05-18,33.18,33.18,32.42,32.71,797100,13.36
2011-05-17,34.00,34.00,32.75,32.90,1605100,13.44
2011-05-16,34.50,34.73,34.04,34.24,561400,13.99
2011-05-13,35.24,35.37,34.61,34.74,303600,14.19
2011-05-12,35.09,35.21,34.55,35.08,362600,14.33
2011-05-11,35.56,35.60,35.05,35.19,340700,14.38
2011-05-10,35.10,35.44,34.80,35.40,541000,14.46
2011-05-09,35.24,35.29,34.74,35.06,382600,14.32
2011-05-06,35.02,35.41,34.82,35.36,460000,14.45
2011-05-05,35.15,35.15,34.71,35.00,630800,14.30
2011-05-04,35.48,35.56,34.76,34.84,613300,14.23
2011-05-03,35.50,35.70,35.12,35.60,726500,14.54
2011-05-02,35.68,35.80,35.39,35.51,247600,14.51
2011-04-29,35.75,35.75,35.32,35.54,198400,14.52
2011-04-28,35.29,35.72,35.12,35.52,647900,14.51
2011-04-27,34.90,35.18,34.75,35.01,498200,14.30
2011-04-26,35.25,35.31,34.98,34.98,319000,14.29
2011-04-21,34.80,35.40,34.80,35.12,1116000,14.35
2011-04-20,34.48,35.00,34.30,34.60,639500,14.13
2011-04-19,34.00,34.47,33.90,34.27,520200,14.00
2011-04-18,35.35,35.35,33.54,33.93,951800,13.86
2011-04-15,35.48,35.62,35.06,35.35,711500,14.44
2011-04-14,35.60,35.63,35.00,35.20,757600,14.38
2011-04-13,35.50,35.92,35.25,35.60,1618500,14.54
2011-04-12,35.14,35.59,34.66,35.07,7886000,14.33
2011-04-11,37.69,38.39,37.20,37.97,583000,15.51
2011-04-08,38.89,39.44,38.64,38.70,609400,15.81
2011-04-07,38.42,39.08,38.30,38.75,436800,15.83
2011-04-06,37.48,38.49,37.39,38.17,341900,15.59
2011-04-05,37.80,37.80,37.33,37.47,356800,15.31
2011-04-04,38.25,38.38,37.64,37.70,412700,15.40
2011-04-01,37.56,38.96,37.56,38.39,859200,15.68
2011-03-31,37.84,38.00,37.02,37.56,475300,15.34
2011-03-30,37.98,38.24,37.64,38.08,426400,15.56
2011-03-29,37.86,38.15,37.00,37.84,416000,15.46
2011-03-28,37.61,38.09,37.53,38.03,325300,15.54
2011-03-25,37.86,37.99,37.45,37.62,236800,15.37
2011-03-24,37.00,38.19,37.00,37.76,411700,15.43
2011-03-23,36.84,37.24,36.77,36.97,240800,15.10
2011-03-22,36.66,37.29,36.56,37.14,374100,15.17
2011-03-21,36.40,36.78,36.10,36.62,600600,14.96
2011-03-18,35.03,36.21,34.64,36.21,887200,14.79
2011-03-17,34.29,34.98,34.10,34.67,620500,14.16
2011-03-16,34.90,35.24,34.00,34.19,522000,13.97
2011-03-15,34.92,35.02,34.14,34.56,601500,14.12
2011-03-14,35.84,35.94,35.20,35.34,435600,14.44
2011-03-11,35.93,36.24,35.60,35.78,364900,14.62
2011-03-10,36.50,36.56,35.94,36.17,538300,14.78
2011-03-09,36.46,37.00,36.36,36.93,282400,15.09
2011-03-08,36.28,36.78,36.28,36.35,348000,14.85
2011-03-07,36.67,36.80,36.23,36.23,390100,14.80
2011-03-04,36.50,36.96,36.14,36.46,374500,14.89
2011-03-03,35.80,36.29,35.28,36.12,1226100,14.76
2011-03-02,34.72,34.92,34.40,34.85,270800,14.24
2011-03-01,35.20,35.52,34.77,35.03,685700,14.31
2011-02-28,35.02,35.20,34.70,35.04,468200,14.31
2011-02-25,34.99,35.13,34.34,35.00,903900,14.30
2011-02-24,34.87,35.18,34.66,34.80,368900,14.22
2011-02-23,36.20,36.44,35.14,35.15,784300,14.36
2011-02-22,36.50,37.11,35.20,36.45,438600,14.89
2011-02-21,37.48,37.80,36.65,36.65,268500,14.97
2011-02-18,37.50,37.96,37.24,37.63,248100,15.37
2011-02-17,37.60,37.72,37.30,37.50,446100,15.32
2011-02-16,37.56,37.76,37.26,37.40,389200,15.28
2011-02-15,37.40,38.00,37.20,37.66,265800,15.38
2011-02-14,38.18,38.20,37.16,37.34,419700,15.25
2011-02-11,37.72,38.04,37.46,37.88,290300,15.47
2011-02-10,38.39,38.42,37.60,37.83,733700,15.45
2011-02-09,39.74,39.76,38.20,38.58,729700,15.76
2011-02-08,37.99,39.81,37.94,39.76,810000,16.24
2011-02-07,38.00,38.51,37.94,38.12,336100,15.57
2011-02-04,37.70,38.38,37.70,37.99,496400,15.52
2011-02-03,38.25,38.28,37.32,37.52,375900,15.33
2011-02-02,38.60,38.80,37.66,37.84,552000,15.46
2011-02-01,37.50,38.84,36.95,38.54,1188800,15.74
2011-01-31,36.80,37.30,36.30,36.85,408200,15.05
2011-01-28,36.68,37.70,36.61,37.10,810600,15.16
2011-01-27,36.71,36.98,36.30,36.59,401900,14.95
2011-01-26,36.72,37.08,36.50,36.75,442300,15.01
2011-01-25,37.00,37.00,36.25,36.67,310100,14.98
2011-01-24,37.00,37.10,36.01,36.76,346200,15.02
2011-01-21,35.96,37.18,35.90,37.00,703500,15.12
2011-01-20,36.08,36.62,35.73,35.88,531700,14.66
2011-01-19,36.74,36.86,35.60,36.02,575700,14.71
2011-01-18,36.16,37.07,36.02,36.60,812300,14.95
2011-01-17,34.80,36.17,34.66,35.99,956400,14.70
2011-01-14,34.64,34.68,34.40,34.68,396000,14.17
2011-01-13,35.00,35.00,34.58,34.65,579500,14.16
2011-01-12,33.76,34.78,33.32,34.78,766600,14.21
2011-01-11,33.49,33.68,33.13,33.65,758400,13.75
2011-01-10,33.86,34.17,33.22,33.30,731200,13.60
2011-01-07,34.26,34.50,33.00,33.73,647600,13.78
2011-01-06,33.60,34.48,33.50,34.13,1069300,13.94
2011-01-05,32.21,33.54,31.71,33.30,1526600,13.60
2011-01-04,30.98,31.90,30.72,31.75,936000,12.97
2011-01-03,30.24,30.89,30.24,30.72,247400,12.55
2010-12-31,30.12,30.28,30.00,30.17,43000,12.32
2010-12-30,30.20,30.30,29.84,29.98,109200,12.25
2010-12-29,30.18,30.23,30.08,30.14,141000,12.31
2010-12-28,30.26,30.36,30.04,30.15,146100,12.32
2010-12-27,30.36,30.36,29.94,30.08,148300,12.29
2010-12-24,30.29,30.36,29.97,30.35,25700,12.40
2010-12-23,30.20,30.33,29.97,30.00,162200,12.26
2010-12-22,30.30,30.36,30.08,30.10,316400,12.30
2010-12-21,30.30,30.38,30.02,30.02,269600,12.26
2010-12-20,30.37,30.50,30.06,30.18,249600,12.33
2010-12-17,30.26,30.26,29.80,30.08,462800,12.29
2010-12-16,30.50,30.72,30.13,30.15,242100,12.32
2010-12-15,30.70,30.89,30.50,30.50,306000,12.46
2010-12-14,30.67,30.82,30.50,30.78,200000,12.57
2010-12-13,30.41,30.86,30.41,30.80,300000,12.58
2010-12-10,30.30,30.48,30.04,30.32,296500,12.39
2010-12-09,29.60,30.22,29.57,30.22,1053600,12.35
2010-12-08,29.17,29.67,29.15,29.48,639800,12.04
2010-12-07,29.13,29.48,28.94,29.23,288300,11.94
2010-12-06,28.81,29.33,28.46,29.23,599200,11.94
2010-12-03,28.36,28.85,28.18,28.71,250100,11.73
2010-12-02,28.20,28.37,27.83,28.22,468200,11.53
2010-12-01,27.77,28.20,27.76,27.93,459900,11.41
2010-11-30,28.59,28.70,27.60,27.60,712700,11.28
2010-11-29,28.60,28.88,28.55,28.62,449800,11.69
2010-11-26,29.00,29.22,28.56,28.66,822000,11.71
2010-11-25,28.90,29.34,28.69,29.22,200000,11.94
2010-11-24,28.92,29.00,28.60,28.78,269000,11.76
2010-11-23,29.20,29.26,28.55,28.66,550600,11.71
2010-11-22,30.20,30.26,29.16,29.25,465200,11.95
2010-11-19,30.16,30.20,29.85,30.16,214700,12.32
2010-11-18,29.87,30.25,29.80,30.11,355000,12.30
2010-11-17,29.47,29.80,29.10,29.72,556300,12.14
2010-11-16,29.74,29.79,29.36,29.38,246700,12.00
2010-11-15,29.06,29.85,29.06,29.74,306600,12.15
2010-11-12,29.19,29.43,28.90,29.15,448100,11.91
2010-11-11,29.30,29.53,29.11,29.31,455400,11.97
2010-11-10,28.84,29.26,28.80,28.88,265500,11.80
2010-11-09,28.65,29.00,28.61,28.89,191300,11.80
2010-11-08,29.21,29.21,28.65,28.65,244800,11.70
2010-11-05,29.03,29.70,28.86,29.01,581800,11.85
2010-11-04,29.55,29.73,28.93,28.96,563700,11.83
2010-11-03,30.06,30.20,29.10,29.27,480200,11.96
2010-11-02,29.47,30.30,29.20,29.84,837700,12.19
2010-11-01,29.80,29.86,29.06,29.14,348500,11.90
2010-10-29,29.55,29.77,29.48,29.67,221700,12.12
2010-10-28,29.30,29.84,29.19,29.49,224900,12.05
2010-10-27,28.99,29.24,28.87,29.16,232100,11.91
2010-10-26,29.13,29.32,28.93,28.99,243300,11.84
2010-10-25,29.40,29.52,29.22,29.22,197300,11.94
2010-10-22,29.31,29.44,29.07,29.28,207400,11.96
2010-10-21,29.40,29.49,29.08,29.20,325200,11.93
2010-10-20,28.97,29.34,28.75,29.34,211700,11.99
2010-10-19,29.25,29.38,28.96,29.19,296000,11.92
2010-10-18,29.00,29.29,29.00,29.16,193500,11.91
2010-10-15,28.80,29.08,28.59,29.02,352600,11.86
2010-10-14,28.36,29.04,28.30,28.74,450900,11.74
2010-10-13,28.00,28.38,27.95,28.28,401400,11.55
2010-10-12,27.70,27.96,27.53,27.96,253500,11.42
2010-10-11,27.80,27.90,27.65,27.76,210900,11.34
2010-10-08,27.79,27.89,27.62,27.75,216000,11.34
2010-10-07,27.48,27.80,27.36,27.74,244800,11.33
2010-10-06,27.88,27.91,27.45,27.54,361700,11.25
2010-10-05,27.60,27.78,27.23,27.72,415600,11.32
2010-10-04,27.84,27.84,27.30,27.48,442900,11.23
2010-10-01,27.34,27.88,27.23,27.48,274400,11.23
2010-09-30,27.37,27.60,27.13,27.42,333600,11.20
2010-09-29,27.46,27.59,27.24,27.34,121700,11.17
2010-09-28,27.40,27.65,27.20,27.34,356400,11.17
2010-09-27,27.70,27.82,27.33,27.40,280700,11.19
2010-09-24,27.20,27.60,27.04,27.52,273900,11.24
2010-09-23,28.10,28.20,27.16,27.26,428100,11.14
2010-09-22,27.92,28.30,27.60,28.11,518400,11.48
2010-09-21,27.12,27.96,27.01,27.81,899300,11.36
2010-09-20,26.98,27.20,26.81,27.07,242200,11.06
2010-09-17,26.91,27.06,26.76,26.96,936500,11.01
2010-09-16,26.98,27.12,26.76,26.80,267900,10.95
2010-09-15,27.13,27.34,26.26,27.04,573400,11.05
2010-09-14,26.92,27.28,26.80,27.01,525300,11.03
2010-09-13,26.68,26.98,26.56,26.78,534300,10.94
2010-09-10,26.40,26.54,26.30,26.51,200900,10.83
2010-09-09,26.80,26.90,26.28,26.39,710700,10.78
2010-09-08,26.93,27.19,26.69,26.82,458900,10.96
2010-09-07,27.40,27.44,26.84,27.15,253700,11.09
2010-09-06,27.56,27.58,27.32,27.46,184600,11.22
2010-09-03,27.48,27.68,26.41,27.40,244100,11.19
2010-09-02,27.20,27.52,27.20,27.46,252900,11.22
2010-09-01,26.98,27.16,26.59,27.14,240300,11.09
2010-08-31,26.40,26.91,26.26,26.91,388400,10.99
2010-08-30,27.00,27.00,26.61,26.64,200300,10.88
2010-08-27,26.81,26.96,26.50,26.80,360500,10.95
2010-08-26,26.92,27.14,26.81,26.88,364100,10.98
2010-08-25,27.28,27.50,26.76,26.81,704100,10.95
2010-08-24,27.72,27.78,27.30,27.54,322600,11.25
2010-08-23,28.04,28.04,27.71,27.77,298200,11.34
2010-08-20,28.47,28.68,27.90,27.97,318700,11.43
2010-08-19,28.76,28.80,28.52,28.65,383500,11.70
2010-08-18,28.70,28.84,28.54,28.76,134900,11.75
2010-08-17,28.70,28.85,28.47,28.80,215400,11.77
2010-08-16,28.34,28.60,28.20,28.45,306400,11.62
2010-08-13,28.97,29.17,28.40,28.64,245300,11.70
2010-08-12,28.85,29.13,28.73,28.85,242500,11.79
2010-08-11,29.37,29.38,28.95,29.03,158100,11.86
2010-08-10,29.50,29.70,29.38,29.39,206500,12.01
2010-08-09,29.58,29.58,29.26,29.46,625200,12.03
2010-08-06,29.59,30.00,29.48,29.70,558100,11.86
2010-08-05,29.89,30.00,29.40,29.40,63700,11.74
2010-08-04,30.76,31.08,30.61,30.95,668400,12.35
2010-08-03,30.00,30.80,29.94,30.72,303900,12.26
2010-08-02,29.92,30.00,29.74,30.00,707500,11.97
2010-07-30,29.44,29.82,29.06,29.56,390500,11.80
2010-07-29,29.42,29.99,29.42,29.48,180900,11.77
2010-07-28,30.14,30.46,29.28,29.40,441000,11.74
2010-07-27,29.00,30.03,28.88,29.95,725400,11.95
2010-07-26,29.20,29.26,28.34,28.64,361700,11.43
2010-07-23,28.50,29.10,28.44,28.70,285600,11.46
2010-07-22,28.48,28.61,28.12,28.60,337200,11.42
2010-07-21,27.93,28.13,27.78,27.89,144900,11.13
2010-07-20,28.10,28.17,27.62,27.76,182700,11.08
2010-07-19,28.07,28.20,27.68,27.99,150100,11.17
2010-07-16,28.48,28.94,28.25,28.34,218300,11.31
2010-07-15,28.80,28.96,28.52,28.58,173300,11.41
2010-07-14,29.10,29.20,28.95,29.00,230300,11.58
2010-07-13,28.77,29.24,28.60,29.05,383000,11.60
2010-07-12,28.39,28.72,28.10,28.54,196100,11.39
2010-07-09,28.08,28.30,27.98,28.28,182300,11.29
2010-07-08,28.38,28.38,27.90,28.14,264700,11.23
2010-07-07,27.93,28.00,27.50,28.00,183600,11.18
2010-07-06,27.80,28.20,27.80,28.00,341700,11.18
2010-07-05,27.73,27.92,27.54,27.61,301600,11.02
2010-07-02,27.64,28.00,27.51,27.85,261900,11.12
2010-07-01,27.72,27.78,27.21,27.60,719800,11.02
2010-06-30,27.83,27.91,27.32,27.83,326700,11.11
2010-06-29,28.44,28.44,27.40,27.80,294300,11.10
2010-06-28,28.80,28.80,28.34,28.59,129700,11.41
2010-06-25,28.65,28.76,28.28,28.51,229300,11.38
2010-06-24,29.12,29.16,28.40,28.74,282800,11.47
2010-06-23,29.27,29.28,28.80,29.04,212100,11.59
2010-06-22,29.44,29.52,29.17,29.30,501800,11.70
2010-06-21,30.00,30.00,29.63,29.74,357200,11.87
2010-06-18,29.58,29.69,29.26,29.64,425000,11.83
2010-06-17,29.18,29.40,29.08,29.39,423600,11.73
2010-06-16,29.01,29.58,28.85,29.00,597500,11.58
2010-06-15,28.80,29.15,28.71,28.96,355100,11.56
2010-06-14,29.10,29.10,28.81,29.04,491300,11.59
2010-06-11,28.81,29.00,28.43,28.80,537300,11.50
2010-06-10,28.70,28.76,28.36,28.76,683600,11.48
2010-06-09,28.61,28.90,28.26,28.80,460600,11.50
2010-06-08,28.69,28.80,27.80,28.24,353100,11.27
2010-06-07,28.78,29.35,28.44,28.50,416500,11.38
2010-06-04,30.02,30.09,28.69,28.96,385900,11.56
2010-06-03,29.40,30.10,29.22,30.10,595600,12.01
2010-06-02,28.88,29.11,28.79,28.92,319400,11.54
2010-06-01,28.85,29.23,28.27,29.00,617500,11.58
2010-05-31,28.97,29.24,28.70,29.24,344200,11.67
2010-05-28,30.30,30.44,29.52,29.70,593300,11.52
2010-05-27,29.37,30.04,29.34,30.04,895500,11.65
2010-05-26,30.37,30.78,28.72,29.20,7805900,11.32
2010-05-25,29.90,30.53,29.02,29.39,1389900,11.40
2010-05-24,30.18,31.33,30.18,30.70,577000,11.90
2010-05-21,29.60,30.62,29.26,29.96,639300,11.62
2010-05-20,30.02,30.68,29.20,29.80,871400,11.55
2010-05-19,30.22,30.70,29.73,30.02,706200,11.64
2010-05-18,31.26,31.49,30.68,30.70,648200,11.90
2010-05-17,30.92,31.60,30.64,30.96,451500,12.00
2010-05-14,32.57,32.57,30.71,30.96,780200,12.00
2010-05-13,32.64,32.74,32.42,32.50,1057200,12.60
2010-05-12,31.68,32.86,31.68,32.54,1561300,12.62
2010-05-11,31.00,31.40,30.74,31.16,945600,12.08
2010-05-10,29.80,30.98,29.34,30.73,783700,11.92
2010-05-07,28.80,29.18,27.80,28.40,1979100,11.01
2010-05-06,30.67,31.00,29.40,29.51,912600,11.44
2010-05-05,31.65,31.95,30.57,30.73,849500,11.92
2010-05-04,32.84,32.84,31.60,31.60,565100,12.25
2010-05-03,32.40,32.85,32.34,32.70,214800,12.68
2010-04-30,32.57,33.06,32.30,32.30,409500,12.52
2010-04-29,33.02,33.21,32.10,32.41,773700,12.57
2010-04-28,34.40,34.44,33.00,33.00,529700,12.80
2010-04-27,35.15,35.20,34.52,34.52,222600,13.38
2010-04-26,35.09,35.17,34.89,35.09,119400,13.61
2010-04-23,35.17,35.17,34.57,34.82,286500,13.50
2010-04-22,35.61,35.76,34.96,35.00,217600,13.57
2010-04-21,35.92,36.10,35.55,35.55,223200,13.78
2010-04-20,35.91,36.08,35.69,35.97,173300,13.95
2010-04-19,35.69,36.18,35.30,35.60,448400,13.80
2010-04-16,35.18,35.81,34.91,35.68,827900,13.83
2010-04-15,35.30,35.39,34.82,35.20,270900,13.65
2010-04-14,35.50,35.50,35.10,35.20,235500,13.65
2010-04-13,35.77,35.77,35.35,35.40,303400,13.73
2010-04-12,35.80,35.80,35.60,35.76,194300,13.87
2010-04-09,35.67,35.74,35.58,35.66,238100,13.83
2010-04-08,35.51,35.74,35.34,35.42,320700,13.73
2010-04-07,35.79,35.79,35.44,35.62,523300,13.81
2010-04-06,35.70,35.80,35.54,35.80,230400,13.88
2010-04-05,35.46,35.46,35.46,35.46,000,13.75
2010-04-02,35.46,35.46,35.46,35.46,000,13.75
2010-04-01,35.24,35.48,35.19,35.46,103600,13.75
2010-03-31,35.16,35.41,35.03,35.18,181900,13.64
2010-03-30,35.10,35.39,35.06,35.18,230700,13.64
2010-03-29,34.71,35.10,34.55,34.96,244100,13.56
2010-03-26,34.96,35.07,34.88,34.96,96900,13.56
2010-03-25,34.98,35.18,34.85,35.00,405300,13.57
2010-03-24,34.90,35.14,34.82,34.98,495500,13.56
2010-03-23,34.46,34.90,34.39,34.80,236600,13.49
2010-03-22,34.44,34.60,34.29,34.34,210400,13.31
2010-03-19,34.70,34.70,34.30,34.51,662400,13.38
2010-03-18,34.74,34.80,34.61,34.66,188100,13.44
2010-03-17,34.76,34.80,34.62,34.62,126600,13.42
2010-03-16,34.64,34.78,34.50,34.58,295700,13.41
2010-03-15,34.60,34.60,33.63,34.56,307200,13.40
2010-03-12,34.20,34.56,34.00,34.51,185400,13.38
2010-03-11,33.44,34.10,33.44,34.05,137800,13.20
2010-03-10,33.80,33.80,33.32,33.46,388400,12.97
2010-03-09,33.99,33.99,33.70,33.78,258900,13.10
2010-03-08,34.20,34.36,33.72,33.84,263300,13.12
2010-03-05,33.90,34.30,33.82,34.09,346100,13.22
2010-03-04,34.96,35.20,33.65,33.83,786400,13.12
2010-03-03,34.18,34.90,33.86,34.47,314600,13.37
2010-03-02,34.10,34.15,33.65,34.12,271300,13.23
2010-03-01,33.85,34.17,33.14,34.00,343100,13.18
2010-02-26,33.20,33.64,32.90,33.64,379000,13.04
2010-02-25,32.79,33.10,32.55,33.00,186900,12.80
2010-02-24,32.78,32.94,32.58,32.80,117800,12.72
2010-02-23,33.09,33.20,32.52,32.70,259300,12.68
2010-02-22,32.80,33.09,32.72,33.00,303600,12.80
2010-02-19,32.14,32.77,32.14,32.77,430800,12.71
2010-02-18,32.40,32.40,32.08,32.14,1230600,12.46
2010-02-17,32.50,32.50,32.28,32.41,613600,12.57
2010-02-16,32.50,32.70,32.30,32.30,291300,12.52
2010-02-15,32.42,32.59,32.20,32.50,260600,12.60
2010-02-12,32.70,32.93,32.18,32.39,491800,12.56
2010-02-11,32.72,32.72,32.34,32.50,578000,12.60
2010-02-10,32.52,32.98,32.50,32.55,269500,12.62
2010-02-09,32.90,32.90,32.15,32.40,699100,12.56
2010-02-08,33.96,34.10,32.86,32.91,365800,12.76
2010-02-05,33.91,34.03,33.60,33.80,197400,13.11
2010-02-04,34.83,35.00,33.72,34.01,219400,13.19
2010-02-03,35.47,35.47,34.82,34.85,96900,13.51
2010-02-02,35.32,35.60,35.16,35.38,428700,13.72
2010-02-01,34.82,35.46,34.72,35.40,354800,13.73
2010-01-29,35.02,35.32,34.71,34.92,273500,13.54
2010-01-28,35.48,35.48,34.92,35.14,484800,13.63
2010-01-27,35.12,35.54,35.02,35.36,327300,13.71
2010-01-26,35.16,35.40,34.96,35.38,197400,13.72
2010-01-25,34.52,35.54,34.52,35.22,383400,13.66
2010-01-22,34.34,34.78,34.26,34.78,613000,13.49
2010-01-21,34.00,34.48,34.00,34.42,283600,13.35
2010-01-20,33.80,33.96,33.66,33.90,101500,13.14
2010-01-19,33.60,33.98,33.52,33.84,96100,13.12
2010-01-18,33.80,33.80,33.60,33.60,78200,13.03
2010-01-15,34.00,34.10,33.64,33.78,158200,13.10
2010-01-14,34.01,34.25,34.00,34.02,159800,13.19
2010-01-13,33.92,34.20,33.83,33.94,188100,13.16
2010-01-12,34.50,34.50,34.13,34.32,348900,13.31
2010-01-11,34.50,34.69,34.40,34.40,270700,13.34
2010-01-08,34.19,34.44,34.10,34.32,299800,13.31
2010-01-07,34.38,34.45,33.91,34.04,770200,13.20
2010-01-06,34.72,34.98,34.34,34.40,630400,13.34
2010-01-05,34.12,34.18,33.47,33.98,616600,13.18
2010-01-04,33.88,34.19,33.81,34.19,996400,13.26
2010-01-01,33.86,33.86,33.86,33.86,000,13.13
2009-12-31,33.70,33.88,33.70,33.86,247200,13.13
2009-12-30,33.73,33.73,33.51,33.52,77100,13.00
2009-12-29,33.50,33.90,33.46,33.90,96900,13.14
2009-12-28,33.56,33.80,33.45,33.70,30500,13.07
2009-12-24,33.54,33.70,33.40,33.56,93200,13.01
2009-12-23,33.36,33.48,32.96,33.46,203900,12.97
2009-12-22,33.46,33.66,33.33,33.39,133300,12.95
2009-12-21,33.72,33.72,33.20,33.62,249300,13.04
2009-12-18,33.21,33.94,33.00,33.94,269700,13.16
2009-12-17,33.20,33.25,32.94,33.02,233100,12.80
2009-12-16,33.95,34.12,32.80,33.28,505600,12.90
2009-12-15,34.40,34.40,33.62,33.78,397400,13.10
2009-12-14,34.50,35.08,33.42,34.14,370800,13.24
2009-12-11,33.89,34.28,33.70,34.20,606000,13.26
2009-12-10,33.20,34.30,33.12,33.68,623000,13.06
2009-12-09,33.90,33.90,33.08,33.30,321700,12.91
2009-12-08,34.24,34.50,33.64,33.88,306900,13.14
2009-12-07,34.60,34.60,34.10,34.20,391600,13.26
2009-12-04,34.80,34.80,34.06,34.70,283600,13.45
2009-12-03,34.24,34.83,34.24,34.80,478100,13.49
2009-12-02,34.26,34.26,33.70,34.10,634600,13.22
2009-12-01,33.88,34.20,33.56,34.20,497400,13.26
2009-11-30,34.00,34.00,32.80,33.57,418900,13.02
2009-11-27,32.60,33.86,32.44,33.78,678600,13.10
2009-11-26,34.01,34.01,32.50,33.00,431100,12.80
2009-11-25,34.60,34.78,33.80,33.90,486100,13.14
2009-11-24,34.75,34.75,34.30,34.54,504700,13.39
2009-11-23,33.73,34.78,33.60,34.68,1790600,13.45
2009-11-20,32.90,33.80,32.75,33.70,1315100,13.07
2009-11-19,32.80,33.06,32.75,32.86,1395400,12.74
2009-11-18,32.40,32.89,32.32,32.79,1000100,12.71
2009-11-17,32.39,32.40,32.20,32.33,858900,12.54
2009-11-16,32.27,32.40,32.11,32.38,578800,12.55
2009-11-13,32.16,32.18,31.92,32.10,325500,12.45
2009-11-12,32.40,32.40,32.07,32.10,975000,12.45
2009-11-11,32.34,32.42,32.00,32.30,2014700,12.52
2009-11-10,32.37,32.37,31.62,32.18,816700,12.48
2009-11-09,32.28,32.34,31.94,32.20,1464000,12.49
2009-11-06,31.80,32.22,31.60,32.20,2176000,12.49
2009-11-05,31.40,31.84,31.30,31.80,1741100,12.33
2009-11-04,31.60,31.82,31.26,31.56,3238700,12.24
2009-11-03,31.50,31.50,30.46,30.98,13176200,12.01
";}