a:3:{s:4:"time";i:1417122352;s:3:"ttl";i:315360000;s:4:"data";s:4391:"<!DOCTYPE html PUBLIC "-//W3C//DTD XHTML 1.0 Transitional//EN" "http://www.w3.org/TR/xhtml1/DTD/xhtml1-transitional.dtd">
<html xmlns="http://www.w3.org/1999/xhtml" xml:lang="nl" lang="nl">
<html><head><title>Slotkoersen Euro/ZKr&nbsp;won
</title></head>
<body><table border=0 width=100%>
<tr><td width=50%>
<pre>140228: 1474.087638
140303: 1470.116758
140304: 1472.346687
140305: 1472.236145
140306: 1475.491226
140307: 1473.504940
140310: 1481.024922
140311: 1475.958349
140312: 1489.772583
140313: 1484.049426
140314: 1490.473299
140317: 1486.493833
140318: 1490.187535
140319: 1478.831011
140320: 1483.929340
140321: 1489.822693
140324: 1491.551741
140325: 1489.960723
140326: 1482.151095
140327: 1473.070228
140328: 1471.510483
140331: 1465.273719
140401: 1459.159192
140402: 1455.913678
140403: 1452.341672
140404: 1443.938174
140407: 1449.455693
140408: 1448.609010
140409: 1434.741321
140410: 1444.216536
140411: 1438.585760
140414: 1436.778471
140415: 1438.642719
140416: 1434.518901
140417: 1434.509049
140422: 1432.665555
140423: 1437.451918
140424: 1436.861389
140425: 1440.058665
140428: 1432.652307
140429: 1423.632146
140430: 1432.041092
140502: 1428.977653
140505: 1428.775518
140506: 1433.129742
140507: 1423.289608
140508: 1415.330276
140509: 1408.833258
140512: 1408.601850
140513: 1400.885101
140514: 1409.296652
140515: 1407.234305
140516: 1402.215145
140519: 1401.592438
140520: 1404.851049
140521: 1404.930765
140522: 1398.430376
140523: 1396.828967
140526: 1397.896024
140527: 1396.059512
140528: 1389.980938
140529: 1388.629581
140530: 1391.309810
140602: 1392.998762
140603: 1394.887159
140604: 1391.851145
140605: 1394.351377
140606: 1391.562158
140609: 1382.174634
140610: 1377.450221
140611: 1376.080470
140612: 1379.804487
140613: 1378.396181
140616: 1386.208106
140617: 1387.845296
140618: 1389.406409
140619: 1386.158615
140620: 1388.199678
140623: 1386.844859
140624: 1386.644863
140625: 1389.704575
140626: 1383.881023
140627: 1384.232421
140630: 1385.641368
140701: 1382.971269
140702: 1378.908250
140703: 1373.458289
140704: 1372.146774
140707: 1375.789591
140708: 1377.421252
140709: 1380.783606
140710: 1379.244306
140711: 1386.757546
140714: 1388.226740
140715: 1393.741543
140716: 1396.227727
140717: 1392.201093
140718: 1392.492930
140721: 1387.885761
140722: 1379.755319
140723: 1378.990518
140724: 1385.993004
140725: 1378.080542
140728: 1378.878402
140729: 1377.028603
140730: 1375.835041
140731: 1376.457485
140801: 1392.620573
140804: 1386.901779
140805: 1379.160433
140806: 1383.623047
140807: 1386.799411
140808: 1383.493907
140811: 1378.982596
140812: 1374.065622
140813: 1376.539992
140814: 1364.822459
140815: 1367.405339
140818: 1359.555311
140819: 1355.543064
140820: 1355.755838
140821: 1359.662718
140822: 1348.442615
140825: 1344.762153
140826: 1338.299596
140827: 1338.728722
140828: 1338.213368
140829: 1332.370819
140901: 1330.050958
140902: 1337.606983
140903: 1341.339717
140904: 1318.792096
140905: 1327.111401
140908: 1321.130104
140909: 1339.734043
140910: 1334.054957
140911: 1338.662138
140912: 1343.563209
140915: 1343.538212
140916: 1338.878111
140917: 1341.626016
140918: 1349.255927
140919: 1339.716923
140922: 1337.521735
140923: 1336.755607
140924: 1329.246752
140925: 1332.460064
140926: 1326.465686
140929: 1338.216064
140930: 1332.410186
141001: 1340.570967
141002: 1343.752691
141003: 1333.268378
141006: 1352.377065
141007: 1351.518539
141008: 1361.693203
141009: 1357.456755
141010: 1354.721837
141013: 1358.731471
141014: 1349.282502
141015: 1361.751684
141016: 1359.042920
141017: 1356.762865
141020: 1355.342094
141021: 1342.375414
141022: 1332.654255
141023: 1339.575680
141024: 1338.752404
141027: 1335.483002
141028: 1333.800382
141029: 1331.716765
141030: 1331.096967
141031: 1344.434665
141103: 1352.479899
141104: 1352.053735
141105: 1361.383259
141106: 1348.954847
141107: 1353.400289
141110: 1354.137784
141111: 1366.560831
141112: 1362.142633
141113: 1367.959422
141114: 1378.102790
141117: 1369.217753
141118: 1378.293433
141119: 1398.162518
141120: 1395.021387
141121: 1378.428331
141124: 1385.655302
141125: 1385.785095
141126: 1381.202145
141127: 1374.412395
</td><td  valign=top>&nbsp;&nbsp;</td></tr></table>

<script src="http://www.google-analytics.com/urchin.js" type="text/javascript"></script>
<script type="text/javascript">_uacct = "UA-2183389-1";urchinTracker();</script>
</body></html>
";}