a:3:{s:4:"time";i:1417023948;s:3:"ttl";i:315360000;s:4:"data";s:2688:"140226: 73.11
140227: 73.11
140228: 73.11
140303: 73.11
140304: 73.11
140305: 73.11
140306: 73.11
140307: 73.11
140310: 73.11
140311: 73.11
140312: 73.11
140313: 73.11
140314: 73.11
140317: 73.11
140318: 73.11
140319: 73.11
140320: 73.11
140321: 73.11
140324: 73.11
140325: 73.11
140326: 73.11
140327: 73.11
140328: 73.11
140331: 73.11
140401: 73.11
140402: 73.11
140403: 73.11
140404: 73.11
140407: 77.00
140408: 77.00
140409: 77.00
140410: 77.00
140411: 77.00
140414: 77.00
140415: 77.00
140416: 77.00
140417: 77.00
140422: 77.00
140423: 77.00
140424: 77.00
140425: 77.00
140428: 77.00
140429: 77.00
140430: 77.00
140502: 77.00
140505: 77.00
140506: 77.00
140507: 77.00
140508: 77.00
140509: 78.01
140512: 78.01
140513: 78.01
140514: 78.01
140515: 78.01
140516: 78.01
140519: 78.01
140520: 78.01
140521: 78.01
140522: 78.01
140523: 78.01
140526: 78.01
140527: 78.01
140528: 78.01
140529: 78.01
140530: 78.01
140602: 78.01
140603: 78.01
140604: 78.01
140605: 78.01
140606: 78.01
140609: 78.01
140610: 78.01
140611: 78.01
140612: 78.01
140613: 78.01
140616: 78.01
140617: 78.01
140618: 78.01
140619: 78.01
140620: 78.01
140623: 78.01
140624: 78.01
140625: 78.01
140626: 78.01
140627: 78.01
140630: 78.01
140701: 78.01
140702: 78.01
140703: 78.01
140704: 78.01
140707: 78.01
140708: 78.01
140709: 78.01
140710: 78.01
140711: 78.01
140714: 78.01
140715: 78.01
140716: 78.01
140717: 78.01
140718: 78.01
140721: 78.01
140722: 78.01
140723: 78.01
140724: 78.01
140725: 78.01
140728: 78.01
140729: 78.01
140730: 78.01
140731: 78.01
140801: 78.01
140804: 78.01
140805: 78.01
140806: 78.01
140807: 72.50
140808: 72.50
140811: 72.50
140812: 72.50
140813: 72.50
140814: 72.50
140815: 72.50
140818: 72.50
140819: 72.50
140820: 72.50
140821: 72.50
140822: 72.50
140825: 72.50
140826: 72.50
140827: 72.50
140828: 72.50
140829: 72.50
140901: 72.50
140902: 72.50
140903: 72.50
140904: 72.50
140905: 72.50
140908: 72.50
140909: 72.50
140910: 72.50
140911: 72.50
140912: 72.50
140915: 72.50
140916: 72.50
140917: 72.50
140918: 72.50
140919: 72.50
140922: 72.50
140923: 73.20
140924: 73.20
140925: 73.20
140926: 73.20
140929: 73.20
140930: 73.20
141001: 73.20
141002: 73.20
141003: 73.20
141006: 73.20
141007: 73.20
141008: 73.20
141009: 73.20
141010: 73.20
141013: 73.20
141014: 73.20
141015: 73.20
141016: 73.20
141017: 73.20
141020: 73.20
141021: 73.20
141022: 73.20
141023: 73.20
141024: 73.20
141027: 73.20
141028: 73.20
141029: 73.20
141030: 73.20
141031: 73.20
141103: 73.20
141104: 73.20
141105: 73.20
141106: 73.20
141107: 73.20
141110: 73.20
141111: 73.20
141112: 73.20
141113: 73.20
141114: 73.20
141117: 73.20
141118: 73.20
141119: 73.20
141120: 73.20
141121: 73.20
141124: 73.20
141125: 73.20
";}