a:3:{s:4:"time";i:1417122326;s:3:"ttl";i:315360000;s:4:"data";s:3048:"<!DOCTYPE html PUBLIC "-//W3C//DTD XHTML 1.0 Transitional//EN" "http://www.w3.org/TR/xhtml1/DTD/xhtml1-transitional.dtd">
<html xmlns="http://www.w3.org/1999/xhtml" xml:lang="nl" lang="nl">
<html><head><title>Slotkoersen Hunter&nbsp;D.Pref
</title></head>
<body><table border=0 width=100%>
<tr><td width=50%>
<pre>140228: 0.13
140303: 0.13
140304: 0.13
140305: 0.13
140306: 0.13
140307: 0.13
140310: 0.13
140311: 0.13
140312: 0.13
140313: 0.13
140314: 0.13
140317: 0.13
140318: 0.13
140319: 0.13
140320: 0.13
140321: 0.13
140324: 0.13
140325: 0.13
140326: 0.13
140327: 0.13
140328: 0.13
140331: 0.13
140401: 0.13
140402: 0.13
140403: 0.13
140404: 0.13
140407: 0.13
140408: 0.13
140409: 0.13
140410: 0.13
140411: 0.13
140414: 0.12
140415: 0.12
140416: 0.12
140417: 0.12
140422: 0.12
140423: 0.12
140424: 0.12
140425: 0.12
140428: 0.12
140429: 0.12
140430: 0.12
140502: 0.12
140505: 0.12
140506: 0.12
140507: 0.12
140508: 0.12
140509: 0.12
140512: 0.12
140513: 0.12
140514: 0.12
140515: 0.12
140516: 0.12
140519: 0.12
140520: 0.12
140521: 0.12
140522: 0.12
140523: 0.12
140526: 0.12
140527: 0.12
140528: 0.12
140529: 0.12
140530: 0.12
140602: 0.12
140603: 0.12
140604: 0.12
140605: 0.12
140606: 0.12
140609: 0.12
140610: 0.12
140611: 0.12
140612: 0.12
140613: 0.12
140616: 0.12
140617: 0.12
140618: 0.12
140619: 0.12
140620: 0.12
140623: 0.12
140624: 0.12
140625: 0.12
140626: 0.12
140627: 0.12
140630: 0.12
140701: 0.12
140702: 0.12
140703: 0.12
140704: 0.12
140707: 0.12
140708: 0.12
140709: 0.12
140710: 0.12
140711: 0.12
140714: 0.12
140715: 0.12
140716: 0.12
140717: 0.12
140718: 0.12
140721: 0.12
140722: 0.12
140723: 0.12
140724: 0.12
140725: 0.12
140728: 0.12
140729: 0.12
140730: 0.12
140731: 0.12
140801: 0.12
140804: 0.12
140805: 0.12
140806: 0.12
140807: 0.12
140808: 0.12
140811: 0.12
140812: 0.12
140813: 0.12
140814: 0.12
140815: 0.12
140818: 0.12
140819: 0.12
140820: 0.12
140821: 0.12
140822: 0.12
140825: 0.12
140826: 0.12
140827: 0.12
140828: 0.12
140829: 0.12
140901: 0.12
140902: 0.12
140903: 0.12
140904: 0.12
140905: 0.12
140908: 0.12
140909: 0.12
140910: 0.12
140911: 0.12
140912: 0.12
140915: 0.12
140916: 0.12
140917: 0.12
140918: 0.12
140919: 0.12
140922: 0.12
140923: 0.12
140924: 0.12
140925: 0.12
140926: 0.12
140929: 0.12
140930: 0.12
141001: 0.12
141002: 0.12
141003: 0.11
141006: 0.11
141007: 0.11
141008: 0.11
141009: 0.11
141010: 0.11
141013: 0.11
141014: 0.11
141015: 0.11
141016: 0.11
141017: 0.11
141020: 0.11
141021: 0.11
141022: 0.11
141023: 0.11
141024: 0.11
141027: 0.11
141028: 0.11
141029: 0.11
141030: 0.11
141031: 0.11
141103: 0.11
141104: 0.11
141105: 0.11
141106: 0.11
141107: 0.11
141110: 0.11
141111: 0.11
141112: 0.11
141113: 0.11
141114: 0.11
141117: 0.11
141118: 0.11
141119: 0.11
141120: 0.11
141121: 0.11
141124: 0.11
141125: 0.11
141126: 0.11
141127: 0.11
</td><td  valign=top>&nbsp;&nbsp;</td></tr></table>

<script src="http://www.google-analytics.com/urchin.js" type="text/javascript"></script>
<script type="text/javascript">_uacct = "UA-2183389-1";urchinTracker();</script>
</body></html>
";}