a:3:{s:4:"time";i:1417023974;s:3:"ttl";i:315360000;s:4:"data";s:3264:"140226: 3.036217
140227: 3.055801
140228: 3.055801
140303: 3.047250
140304: 3.059657
140305: 3.046796
140306: 3.029408
140307: 3.019378
140310: 3.048773
140311: 3.075149
140312: 3.088067
140313: 3.110661
140314: 3.101120
140317: 3.100236
140318: 3.092961
140319: 3.088694
140320: 3.093785
140321: 3.081620
140324: 3.083756
140325: 3.083046
140326: 3.075934
140327: 3.037204
140328: 3.005927
140331: 3.011060
140401: 2.963121
140402: 2.963121
140403: 2.932484
140404: 2.946174
140407: 2.917967
140408: 2.907992
140409: 2.882213
140410: 2.920944
140411: 2.910388
140414: 2.946048
140415: 2.937271
140416: 2.943372
140417: 2.956294
140422: 2.943168
140423: 2.957679
140424: 2.975159
140425: 2.948173
140428: 2.953616
140429: 2.952867
140430: 2.931121
140502: 2.917688
140505: 2.913967
140506: 2.914689
140507: 2.915841
140508: 2.908852
140509: 2.889289
140512: 2.865982
140513: 2.864572
140514: 2.838738
140515: 2.848621
140516: 2.855715
140519: 2.873265
140520: 2.879721
140521: 2.894202
140522: 2.880690
140523: 2.863157
140526: 2.845733
140527: 2.846670
140528: 2.866642
140529: 2.863022
140530: 2.847396
140602: 2.852400
140603: 2.858582
140604: 2.878904
140605: 2.889058
140606: 2.889058
140609: 2.846202
140610: 2.834386
140611: 2.824960
140612: 2.839070
140613: 2.851297
140616: 2.876367
140617: 2.900299
140618: 2.903020
140619: 2.907582
140620: 2.904834
140623: 2.913605
140624: 2.903437
140625: 2.906732
140626: 2.911326
140627: 2.898494
140630: 2.894004
140701: 2.897273
140702: 2.909848
140703: 2.905636
140704: 2.908192
140707: 2.897724
140708: 2.896772
140709: 2.889528
140710: 2.894320
140711: 2.899972
140714: 2.885122
140715: 2.887952
140716: 2.889315
140717: 2.869910
140718: 2.878541
140721: 2.873064
140722: 2.865052
140723: 2.852442
140724: 2.818114
140725: 2.819576
140728: 2.812511
140729: 2.821323
140730: 2.830901
140731: 2.856316
140801: 2.863559
140804: 2.876370
140805: 2.866517
140806: 2.862875
140807: 2.888931
140808: 2.891535
140811: 2.885408
140812: 2.878466
140813: 2.888806
140814: 2.883228
140815: 2.877576
140818: 2.898164
140819: 2.897780
140820: 2.891177
140821: 2.889373
140822: 2.887776
140825: 2.893898
140826: 2.874255
140827: 2.858288
140828: 2.838546
140829: 2.853927
140901: 2.849866
140902: 2.837098
140903: 2.854352
140904: 2.838684
140905: 2.808689
140908: 2.802486
140909: 2.804681
140910: 2.836479
140911: 2.846278
140912: 2.845198
140915: 2.856289
140916: 2.862659
140917: 2.859856
140918: 2.866474
140919: 2.876964
140922: 2.865346
140923: 2.881738
140924: 2.878778
140925: 2.865746
140926: 2.875164
140929: 2.875931
140930: 2.900555
141001: 2.878188
141002: 2.883236
141003: 2.874767
141006: 2.883645
141007: 2.854678
141008: 2.866135
141009: 2.896624
141010: 2.881125
141013: 2.889258
141014: 2.882231
141015: 2.883888
141016: 2.877036
141017: 2.902173
141020: 2.876826
141021: 2.871384
141022: 2.860366
141023: 2.847988
141024: 2.832257
141027: 2.829102
141028: 2.837204
141029: 2.812194
141030: 2.797022
141031: 2.779609
141103: 2.787485
141104: 2.793779
141105: 2.787364
141106: 2.801680
141107: 2.807638
141110: 2.810138
141111: 2.809059
141112: 2.817338
141113: 2.811681
141114: 2.801115
141117: 2.792578
141118: 2.783296
141119: 2.779647
141120: 2.804885
141121: 2.789531
141124: 2.756809
141125: 2.767249
";}