a:3:{s:4:"time";i:1417023948;s:3:"ttl";i:315360000;s:4:"data";s:2771:"140226: 8.967
140227: 9.78
140228: 10.20
140303: 9.913
140304: 10.30
140305: 10.35
140306: 10.74
140307: 10.815
140310: 11.125
140311: 11.20
140312: 10.995
140313: 10.81
140314: 10.63
140317: 11.07
140318: 11.28
140319: 11.30
140320: 11.40
140321: 11.20
140324: 11.12
140325: 11.30
140326: 11.25
140327: 11.255
140328: 11.215
140331: 11.215
140401: 11.30
140402: 11.28
140403: 11.47
140404: 11.425
140407: 11.30
140408: 11.25
140409: 11.40
140410: 11.555
140411: 11.175
140414: 10.945
140415: 10.70
140416: 10.80
140417: 10.94
140422: 11.18
140423: 11.15
140424: 11.46
140425: 11.54
140428: 11.585
140429: 11.885
140430: 12.30
140502: 12.325
140505: 11.905X
140506: 11.945
140507: 12.29
140508: 12.175
140509: 12.00
140512: 12.05
140513: 12.00
140514: 12.00
140515: 11.55
140516: 11.655
140519: 11.615
140520: 11.505
140521: 11.535
140522: 11.67
140523: 11.65
140526: 11.80
140527: 11.95
140528: 12.08
140529: 12.10
140530: 12.235
140602: 12.25
140603: 12.275
140604: 12.245
140605: 12.43
140606: 12.48
140609: 12.495
140610: 12.42
140611: 12.22
140612: 12.165
140613: 12.20
140616: 12.135
140617: 12.525
140618: 12.54
140619: 12.34
140620: 12.99
140623: 12.79
140624: 12.745
140625: 12.845
140626: 12.75
140627: 12.90
140630: 12.945
140701: 13.395
140702: 13.47
140703: 13.515
140704: 13.495
140707: 13.375
140708: 13.155
140709: 12.48
140710: 12.28
140711: 12.11
140714: 12.11
140715: 11.865
140716: 12.24
140717: 12.34
140718: 12.175
140721: 12.07
140722: 12.165
140723: 12.34
140724: 12.655
140725: 12.165
140728: 11.99
140729: 12.125
140730: 12.245
140731: 12.47
140801: 12.78
140804: 12.435
140805: 12.335
140806: 12.205
140807: 12.205
140808: 11.48
140811: 11.735
140812: 11.855
140813: 12.53
140814: 12.47
140815: 12.35
140818: 12.50
140819: 12.75
140820: 12.84
140821: 12.99
140822: 13.105
140825: 13.19
140826: 13.155
140827: 13.195
140828: 13.405
140829: 13.41
140901: 13.425
140902: 13.365
140903: 13.66
140904: 13.95
140905: 13.915
140908: 13.48
140909: 13.535
140910: 13.52
140911: 13.195
140912: 13.25
140915: 13.20
140916: 13.05
140917: 13.265
140918: 13.40
140919: 13.325
140922: 13.61
140923: 13.555
140924: 13.555
140925: 13.435
140926: 13.68
140929: 13.795
140930: 14.00
141001: 14.00
141002: 13.57
141003: 14.07
141006: 14.03
141007: 13.58
141008: 13.43
141009: 13.145
141010: 12.41
141013: 12.305
141014: 12.24
141015: 11.975
141016: 11.875
141017: 12.265
141020: 12.635
141021: 13.11
141022: 13.235
141023: 13.355
141024: 13.775
141027: 13.43
141028: 13.555
141029: 13.275
141030: 13.965
141031: 15.17
141103: 15.80
141104: 15.43
141105: 15.905
141106: 15.965
141107: 16.05
141110: 16.425
141111: 16.235
141112: 15.755
141113: 15.79
141114: 15.81
141117: 16.07
141118: 16.22
141119: 16.825
141120: 16.665
141121: 16.715
141124: 16.59
141125: 17.19
";}