a:3:{s:4:"time";i:1417122285;s:3:"ttl";i:315360000;s:4:"data";s:3180:"<!DOCTYPE html PUBLIC "-//W3C//DTD XHTML 1.0 Transitional//EN" "http://www.w3.org/TR/xhtml1/DTD/xhtml1-transitional.dtd">
<html xmlns="http://www.w3.org/1999/xhtml" xml:lang="nl" lang="nl">
<html><head><title>Slotkoersen Ordina
</title></head>
<body><table border=0 width=100%>
<tr><td width=50%>
<pre>140228: 2.029
140303: 1.909
140304: 1.97
140305: 2.00
140306: 2.00
140307: 1.98
140310: 1.968
140311: 1.965
140312: 1.96
140313: 1.901
140314: 1.858
140317: 1.911
140318: 1.96
140319: 1.944
140320: 1.938
140321: 1.941
140324: 1.875
140325: 1.875
140326: 1.894
140327: 1.899
140328: 1.931
140331: 1.955
140401: 1.97
140402: 1.99
140403: 2.049
140404: 2.046
140407: 1.99
140408: 1.969
140409: 1.979
140410: 2.05
140411: 2.025
140414: 1.95
140415: 1.953
140416: 2.013
140417: 2.026
140422: 2.10
140423: 2.082
140424: 2.155
140425: 2.10
140428: 2.062
140429: 2.07
140430: 2.076
140502: 2.094
140505: 2.084
140506: 2.08
140507: 2.045
140508: 2.08
140509: 2.074
140512: 2.08
140513: 2.094
140514: 2.044
140515: 1.966
140516: 1.927
140519: 1.885
140520: 1.86
140521: 1.893
140522: 1.886
140523: 1.91
140526: 1.981
140527: 1.953
140528: 1.951
140529: 1.963
140530: 1.975
140602: 1.942
140603: 1.913
140604: 1.915
140605: 1.913
140606: 1.929
140609: 1.95
140610: 1.926
140611: 1.91
140612: 1.933
140613: 1.91
140616: 1.891
140617: 1.923
140618: 1.916
140619: 1.917
140620: 1.89
140623: 1.88
140624: 1.878
140625: 1.869
140626: 1.85
140627: 1.822
140630: 1.821
140701: 1.855
140702: 1.835
140703: 1.852
140704: 1.86
140707: 1.837
140708: 1.785
140709: 1.761
140710: 1.711
140711: 1.79
140714: 1.81
140715: 1.799
140716: 1.804
140717: 1.799
140718: 1.773
140721: 1.777
140722: 1.779
140723: 1.768
140724: 1.802
140725: 1.798
140728: 1.791
140729: 1.86
140730: 1.836
140731: 1.796
140801: 1.806
140804: 1.801
140805: 1.824
140806: 1.80
140807: 1.776
140808: 1.735
140811: 1.764
140812: 1.725
140813: 1.727
140814: 1.713
140815: 1.712
140818: 1.721
140819: 1.789
140820: 1.79
140821: 1.789
140822: 1.75
140825: 1.83
140826: 1.851
140827: 1.878
140828: 1.852
140829: 1.84
140901: 1.844
140902: 1.835
140903: 1.847
140904: 1.87
140905: 1.856
140908: 1.907
140909: 1.965
140910: 1.958
140911: 1.939
140912: 1.997
140915: 1.994
140916: 1.976
140917: 1.994
140918: 1.996
140919: 2.023
140922: 1.997
140923: 1.96
140924: 1.947
140925: 1.941
140926: 1.951
140929: 1.942
140930: 1.928
141001: 1.912
141002: 1.444
141003: 1.40
141006: 1.476
141007: 1.459
141008: 1.39
141009: 1.34
141010: 1.308
141013: 1.266
141014: 1.264
141015: 1.221
141016: 1.192
141017: 1.198
141020: 1.16
141021: 1.309
141022: 1.28
141023: 1.264
141024: 1.251
141027: 1.251
141028: 1.259
141029: 1.36
141030: 1.36
141031: 1.304
141103: 1.32
141104: 1.25
141105: 1.18
141106: 1.225
141107: 1.234
141110: 1.264
141111: 1.314
141112: 1.255
141113: 1.264
141114: 1.259
141117: 1.276
141118: 1.298
141119: 1.301
141120: 1.29
141121: 1.314
141124: 1.315
141125: 1.30
141126: 1.319
141127: 1.332
</td><td  valign=top>&nbsp;&nbsp;</td></tr></table>

<script src="http://www.google-analytics.com/urchin.js" type="text/javascript"></script>
<script type="text/javascript">_uacct = "UA-2183389-1";urchinTracker();</script>
</body></html>
";}