a:3:{s:4:"time";i:1417023989;s:3:"ttl";i:315360000;s:4:"data";s:3264:"140226: 1.218881
140227: 1.217989
140228: 1.214188
140303: 1.212962
140304: 1.219412
140305: 1.218791
140306: 1.220088
140307: 1.217896
140310: 1.218127
140311: 1.217140
140312: 1.215221
140313: 1.212847
140314: 1.213681
140317: 1.215801
140318: 1.216705
140319: 1.218536
140320: 1.217665
140321: 1.217864
140324: 1.219017
140325: 1.220518
140326: 1.219794
140327: 1.218188
140328: 1.219780
140331: 1.218162
140401: 1.218600
140402: 1.220599
140403: 1.222376
140404: 1.222391
140407: 1.220171
140408: 1.218677
140409: 1.218758
140410: 1.216956
140411: 1.216401
140414: 1.215845
140415: 1.215966
140416: 1.218240
140417: 1.220112
140422: 1.221809
140423: 1.220460
140424: 1.219650
140425: 1.219353
140428: 1.219249
140429: 1.220249
140430: 1.220691
140502: 1.218025
140505: 1.217921
140506: 1.217715
140507: 1.218948
140508: 1.218177
140509: 1.219479
140512: 1.221491
140513: 1.219767
140514: 1.220319
140515: 1.221747
140516: 1.222333
140519: 1.223156
140520: 1.222061
140521: 1.222522
140522: 1.221041
140523: 1.220962
140526: 1.220785
140527: 1.222671
140528: 1.221109
140529: 1.221350
140530: 1.220583
140602: 1.221959
140603: 1.221536
140604: 1.220211
140605: 1.217722
140606: 1.219034
140609: 1.219379
140610: 1.218135
140611: 1.217803
140612: 1.217550
140613: 1.218949
140616: 1.217788
140617: 1.218426
140618: 1.217851
140619: 1.216578
140620: 1.217331
140623: 1.216424
140624: 1.216204
140625: 1.216735
140626: 1.216304
140627: 1.215898
140630: 1.214353
140701: 1.214069
140702: 1.214083
140703: 1.215733
140704: 1.215787
140707: 1.215529
140708: 1.215492
140709: 1.215411
140710: 1.214357
140711: 1.213949
140714: 1.214647
140715: 1.215469
140716: 1.215086
140717: 1.213815
140718: 1.215115
140721: 1.214448
140722: 1.215057
140723: 1.214645
140724: 1.215104
140725: 1.215141
140728: 1.214889
140729: 1.216158
140730: 1.217047
140731: 1.217184
140801: 1.216484
140804: 1.216926
140805: 1.216004
140806: 1.214590
140807: 1.214535
140808: 1.214444
140811: 1.213522
140812: 1.213223
140813: 1.212840
140814: 1.211555
140815: 1.209277
140818: 1.211384
140819: 1.211100
140820: 1.211323
140821: 1.210549
140822: 1.210080
140825: 1.207632
140826: 1.208185
140827: 1.206889
140828: 1.206323
140829: 1.206210
140901: 1.207333
140902: 1.206990
140903: 1.206790
140904: 1.206303
140905: 1.206137
140908: 1.206251
140909: 1.207035
140910: 1.209909
140911: 1.209401
140912: 1.209676
140915: 1.210180
140916: 1.208601
140917: 1.210790
140918: 1.206688
140919: 1.207199
140922: 1.207717
140923: 1.207387
140924: 1.208407
140925: 1.207022
140926: 1.206700
140929: 1.206941
140930: 1.205856
141001: 1.206745
141002: 1.208445
141003: 1.210411
141006: 1.212765
141007: 1.212176
141008: 1.212047
141009: 1.211566
141010: 1.208399
141013: 1.208738
141014: 1.207359
141015: 1.206834
141016: 1.207210
141017: 1.207469
141020: 1.206835
141021: 1.206984
141022: 1.206095
141023: 1.206680
141024: 1.206189
141027: 1.205760
141028: 1.206058
141029: 1.206286
141030: 1.205828
141031: 1.206262
141103: 1.205571
141104: 1.204541
141105: 1.203631
141106: 1.204372
141107: 1.203389
141110: 1.202585
141111: 1.203203
141112: 1.202188
141113: 1.202069
141114: 1.201263
141117: 1.201357
141118: 1.201238
141119: 1.201408
141120: 1.201793
141121: 1.201453
141124: 1.202408
141125: 1.202692
";}