a:3:{s:4:"time";i:1417122260;s:3:"ttl";i:315360000;s:4:"data";s:3326:"<!DOCTYPE html PUBLIC "-//W3C//DTD XHTML 1.0 Transitional//EN" "http://www.w3.org/TR/xhtml1/DTD/xhtml1-transitional.dtd">
<html xmlns="http://www.w3.org/1999/xhtml" xml:lang="nl" lang="nl">
<html><head><title>Slotkoersen RD&nbsp;Shell-A
</title></head>
<body><table border=0 width=100%>
<tr><td width=50%>
<pre>140228: 26.455
140303: 26.19
140304: 26.61
140305: 26.535
140306: 26.235
140307: 26.17
140310: 26.265
140311: 26.33
140312: 26.01
140313: 25.75
140314: 25.635
140317: 25.74
140318: 25.90
140319: 25.905
140320: 25.83
140321: 26.00
140324: 25.815
140325: 26.07
140326: 26.25
140327: 26.425
140328: 26.535
140331: 26.52
140401: 26.61
140402: 26.53
140403: 26.715
140404: 26.845
140407: 26.795
140408: 26.725
140409: 26.755
140410: 26.74
140411: 26.425
140414: 26.80
140415: 27.005
140416: 27.09
140417: 27.24
140422: 27.295
140423: 27.265
140424: 27.385
140425: 27.285
140428: 27.41
140429: 27.705
140430: 28.545
140502: 28.635
140505: 28.60
140506: 28.58
140507: 28.76
140508: 29.05
140509: 29.00
140512: 28.99
140513: 29.115
140514: 28.71X
140515: 28.735
140516: 28.81
140519: 28.90
140520: 28.815
140521: 29.035
140522: 29.235
140523: 29.065
140526: 29.03
140527: 28.90
140528: 28.81
140529: 28.985
140530: 28.845
140602: 29.01
140603: 29.145
140604: 28.805
140605: 28.98
140606: 29.045
140609: 29.235
140610: 29.26
140611: 29.23
140612: 29.495
140613: 29.73
140616: 29.75
140617: 29.69
140618: 30.035
140619: 30.185
140620: 30.455
140623: 30.44
140624: 30.39
140625: 29.905
140626: 30.055
140627: 30.165
140630: 30.24
140701: 30.365
140702: 30.54
140703: 30.295
140704: 30.485
140707: 30.21
140708: 30.065
140709: 30.065
140710: 29.81
140711: 30.06
140714: 30.175
140715: 30.22
140716: 30.665
140717: 30.53
140718: 30.44
140721: 30.32
140722: 30.605
140723: 30.67
140724: 30.71
140725: 30.53
140728: 30.435
140729: 30.51
140730: 30.095
140731: 30.80
140801: 30.21
140804: 30.32
140805: 30.68
140806: 30.585
140807: 30.30
140808: 29.785
140811: 30.11
140812: 29.87
140813: 29.565X
140814: 29.675
140815: 29.67
140818: 30.04
140819: 30.365
140820: 30.12
140821: 30.09
140822: 30.03
140825: 30.115
140826: 30.43
140827: 30.51
140828: 30.71
140829: 30.735
140901: 31.02
140902: 30.67
140903: 30.665
140904: 30.92
140905: 30.825
140908: 30.40
140909: 30.095
140910: 30.285
140911: 30.16
140912: 29.97
140915: 29.96
140916: 30.22
140917: 30.215
140918: 30.44
140919: 30.58
140922: 30.565
140923: 30.27
140924: 30.345
140925: 29.995
140926: 30.04
140929: 30.205
140930: 30.325
141001: 29.985
141002: 29.08
141003: 29.255
141006: 29.16
141007: 29.025
141008: 28.92
141009: 28.555
141010: 27.84
141013: 27.78
141014: 27.345
141015: 26.44
141016: 25.905
141017: 27.115
141020: 26.56
141021: 27.42
141022: 27.725
141023: 28.00
141024: 27.875
141027: 27.705
141028: 27.835
141029: 28.22
141030: 28.275
141031: 28.49
141103: 28.105
141104: 27.27
141105: 27.68
141106: 27.83
141107: 28.48
141110: 28.54
141111: 28.27
141112: 28.17
141113: 27.42
141114: 27.58
141117: 27.705
141118: 27.90
141119: 27.81
141120: 28.205
141121: 28.855
141124: 28.63
141125: 28.34
141126: 28.585
141127: 27.435
</td><td  valign=top>&nbsp;&nbsp;</td></tr></table>

<script src="http://www.google-analytics.com/urchin.js" type="text/javascript"></script>
<script type="text/javascript">_uacct = "UA-2183389-1";urchinTracker();</script>
</body></html>
";}