a:3:{s:4:"time";i:1417023909;s:3:"ttl";i:315360000;s:4:"data";s:2689:"140226: 62.57
140227: 61.78
140228: 62.15
140303: 60.96
140304: 62.24
140305: 62.01
140306: 62.01
140307: 61.34
140310: 60.81
140311: 60.88
140312: 59.84
140313: 59.56
140314: 59.21
140317: 60.02
140318: 60.67
140319: 60.75
140320: 59.96
140321: 59.59
140324: 59.65
140325: 60.43
140326: 60.91
140327: 61.24
140328: 61.79
140331: 61.79
140401: 62.06
140402: 62.35
140403: 62.33
140404: 62.43
140407: 62.60
140408: 62.61
140409: 63.03
140410: 63.30
140411: 62.49
140414: 61.75
140415: 61.87
140416: 62.11
140417: 63.12
140422: 63.26
140423: 63.24
140424: 63.91
140425: 63.43
140428: 64.15
140429: 60.70X
140430: 60.57
140502: 61.14
140505: 61.48
140506: 61.68
140507: 61.84
140508: 62.94
140509: 62.34
140512: 62.64
140513: 63.14
140514: 63.07
140515: 62.63
140516: 62.55
140519: 62.50
140520: 61.70
140521: 62.13
140522: 62.61
140523: 63.81
140526: 63.86
140527: 64.42
140528: 64.94
140529: 65.44
140530: 65.37
140602: 65.85
140603: 65.50
140604: 65.36
140605: 65.63
140606: 66.59
140609: 66.81
140610: 66.91
140611: 67.03
140612: 66.99
140613: 66.28
140616: 66.26
140617: 66.07
140618: 66.13
140619: 66.85
140620: 67.94
140623: 67.48
140624: 67.78
140625: 67.79
140626: 67.90
140627: 67.99
140630: 67.90
140701: 68.97
140702: 68.95
140703: 68.92
140704: 68.27
140707: 67.56
140708: 67.27
140709: 67.81
140710: 67.80
140711: 68.13
140714: 68.46
140715: 67.95
140716: 68.58
140717: 68.69
140718: 68.83
140721: 68.85
140722: 69.50
140723: 69.88
140724: 69.95
140725: 67.90
140728: 67.56
140729: 67.90
140730: 67.76
140731: 66.51
140801: 66.33
140804: 66.15
140805: 66.41
140806: 65.80
140807: 66.21
140808: 65.79
140811: 66.38
140812: 67.00
140813: 66.81
140814: 66.76
140815: 66.44
140818: 67.00
140819: 67.68
140820: 67.74
140821: 69.31
140822: 69.33
140825: 69.87
140826: 70.29
140827: 70.96
140828: 70.11
140829: 70.05
140901: 70.00
140902: 69.70
140903: 69.93
140904: 70.06
140905: 70.01
140908: 69.54
140909: 69.23
140910: 69.11
140911: 69.19
140912: 68.77
140915: 68.36
140916: 67.44
140917: 67.20
140918: 67.40
140919: 66.68
140922: 66.95
140923: 66.45
140924: 66.02
140925: 65.39
140926: 65.66
140929: 65.08
140930: 65.20
141001: 64.56
141002: 63.52
141003: 63.56
141006: 63.60
141007: 62.57
141008: 62.26
141009: 62.30
141010: 62.30
141013: 62.14
141014: 61.61
141015: 60.58
141016: 60.56
141017: 61.19
141020: 61.14
141021: 63.14
141022: 63.96
141023: 64.51
141024: 64.49
141027: 63.85
141028: 64.52
141029: 64.99
141030: 64.64
141031: 65.40
141103: 65.01
141104: 65.50
141105: 65.87
141106: 65.62
141107: 64.45
141110: 64.88
141111: 64.86
141112: 64.00
141113: 63.90
141114: 63.95
141117: 64.26
141118: 64.00
141119: 63.85
141120: 62.77
141121: 62.83
141124: 62.43
141125: 62.28
";}