a:3:{s:4:"time";i:1417122352;s:3:"ttl";i:315360000;s:4:"data";s:4010:"<!DOCTYPE html PUBLIC "-//W3C//DTD XHTML 1.0 Transitional//EN" "http://www.w3.org/TR/xhtml1/DTD/xhtml1-transitional.dtd">
<html xmlns="http://www.w3.org/1999/xhtml" xml:lang="nl" lang="nl">
<html><head><title>Slotkoersen Euro/Taiwan&nbsp;dol
</title></head>
<body><table border=0 width=100%>
<tr><td width=50%>
<pre>140228: 41.591333
140303: 41.820663
140304: 41.717984
140305: 41.653900
140306: 41.546348
140307: 41.659226
140310: 41.976273
140311: 42.067040
140312: 42.017226
140313: 42.124598
140314: 42.227490
140317: 42.147639
140318: 42.188215
140319: 42.381757
140320: 42.406123
140321: 42.264344
140324: 42.181635
140325: 42.103864
140326: 42.113221
140327: 42.060626
140328: 42.039063
140331: 41.906685
140401: 41.986653
140402: 41.986653
140403: 41.782012
140404: 41.682659
140407: 41.444949
140408: 41.510289
140409: 41.467436
140410: 41.434927
140411: 41.612389
140414: 41.774957
140415: 41.751866
140416: 41.676447
140417: 41.705656
140422: 41.699431
140423: 41.866365
140424: 41.960929
140425: 41.883118
140428: 41.896270
140429: 41.911468
140430: 41.676056
140502: 41.830096
140505: 41.813778
140506: 41.793980
140507: 41.925282
140508: 41.944666
140509: 41.888366
140512: 41.516787
140513: 41.620828
140514: 41.421240
140515: 41.374271
140516: 41.239244
140519: 41.287459
140520: 41.381401
140521: 41.357927
140522: 41.261915
140523: 41.216531
140526: 41.068866
140527: 41.050562
140528: 41.096980
140529: 40.997090
140530: 40.815557
140602: 40.843118
140603: 40.932426
140604: 41.014340
140605: 40.967869
140606: 40.967869
140609: 40.935162
140610: 40.829568
140611: 40.641850
140612: 40.638247
140613: 40.561485
140616: 40.640749
140617: 40.651786
140618: 40.783645
140619: 40.695896
140620: 40.856154
140623: 40.797403
140624: 40.774317
140625: 40.817930
140626: 40.819376
140627: 40.710754
140630: 40.675613
140701: 40.817674
140702: 40.913189
140703: 40.777028
140704: 40.756499
140707: 40.640825
140708: 40.668413
140709: 40.643811
140710: 40.724809
140711: 40.752290
140714: 40.671617
140715: 40.813269
140716: 40.834201
140717: 40.581548
140718: 40.609070
140721: 40.582593
140722: 40.508343
140723: 40.416763
140724: 40.307836
140725: 40.359724
140728: 40.270748
140729: 40.248576
140730: 40.228734
140731: 40.175937
140801: 40.276264
140804: 40.279829
140805: 40.327344
140806: 40.149321
140807: 40.075041
140808: 40.155255
140811: 40.096032
140812: 40.138152
140813: 40.042972
140814: 40.082846
140815: 40.036509
140818: 40.067993
140819: 40.105747
140820: 40.064773
140821: 39.871942
140822: 39.781696
140825: 39.765456
140826: 39.545127
140827: 39.517042
140828: 39.301958
140829: 39.407110
140901: 39.398361
140902: 39.357731
140903: 39.324604
140904: 39.295798
140905: 38.948055
140908: 38.729967
140909: 38.793416
140910: 38.621089
140911: 38.782401
140912: 38.863380
140915: 38.878289
140916: 38.963386
140917: 39.005551
140918: 39.142581
140919: 39.006222
140922: 38.806513
140923: 38.948744
140924: 38.936208
140925: 38.700512
140926: 38.608353
140929: 38.609709
140930: 38.763378
141001: 38.321852
141002: 38.372699
141003: 38.463696
141006: 38.444099
141007: 38.152217
141008: 38.324865
141009: 38.385754
141010: 38.702920
141013: 38.513661
141014: 38.609794
141015: 38.645154
141016: 38.489306
141017: 38.859686
141020: 38.918189
141021: 38.778986
141022: 38.790631
141023: 38.611754
141024: 38.529848
141027: 38.480901
141028: 38.580605
141029: 38.644773
141030: 38.661520
141031: 38.241095
141103: 38.293147
141104: 38.190607
141105: 38.227497
141106: 38.263015
141107: 38.246341
141110: 37.875740
141111: 38.196123
141112: 38.223956
141113: 38.157011
141114: 38.169888
141117: 38.323930
141118: 38.342756
141119: 38.443082
141120: 38.762536
141121: 38.704600
141124: 38.332556
141125: 38.455224
141126: 38.472247
141127: 38.556727
</td><td  valign=top>&nbsp;&nbsp;</td></tr></table>

<script src="http://www.google-analytics.com/urchin.js" type="text/javascript"></script>
<script type="text/javascript">_uacct = "UA-2183389-1";urchinTracker();</script>
</body></html>
";}