a:3:{s:4:"time";i:1417023924;s:3:"ttl";i:315360000;s:4:"data";s:2561:"140226: 8.60
140227: 8.60
140228: 8.55
140303: 8.50
140304: 8.50
140305: 8.502
140306: 8.62
140307: 8.70
140310: 8.53
140311: 8.45
140312: 8.40
140313: 8.34
140314: 8.221
140317: 8.302
140318: 8.23
140319: 8.231
140320: 8.449
140321: 8.231
140324: 8.435
140325: 8.236
140326: 8.23
140327: 8.30
140328: 8.30
140331: 8.281
140401: 8.388
140402: 8.442
140403: 8.34
140404: 8.601
140407: 8.602
140408: 8.60
140409: 8.90
140410: 9.00
140411: 8.627
140414: 8.80
140415: 8.66
140416: 8.66
140417: 8.66
140422: 9.00
140423: 9.18
140424: 9.185
140425: 9.00
140428: 9.20
140429: 9.20
140430: 9.20
140502: 9.20
140505: 9.20
140506: 9.20
140507: 8.801
140508: 9.20
140509: 9.20
140512: 9.20
140513: 9.21
140514: 9.20
140515: 9.205
140516: 9.25
140519: 9.20
140520: 9.20
140521: 9.205
140522: 9.20
140523: 9.25
140526: 9.20
140527: 9.30
140528: 9.30
140529: 9.30
140530: 9.30
140602: 9.30
140603: 9.30
140604: 9.051
140605: 9.30
140606: 9.50
140609: 9.40
140610: 9.40
140611: 9.301
140612: 9.30
140613: 9.30
140616: 9.30
140617: 9.30
140618: 9.69
140619: 9.35
140620: 9.30
140623: 9.35
140624: 9.21
140625: 9.24
140626: 9.20
140627: 9.30
140630: 9.30
140701: 9.30
140702: 9.331
140703: 9.50
140704: 9.40
140707: 9.316
140708: 9.50
140709: 9.30
140710: 9.30
140711: 9.30
140714: 9.30
140715: 9.30
140716: 9.34
140717: 9.497
140718: 9.35
140721: 9.30
140722: 9.30
140723: 9.30
140724: 9.30
140725: 9.30
140728: 9.30
140729: 9.30
140730: 9.30
140731: 9.40
140801: 9.50
140804: 9.30
140805: 9.30
140806: 9.30
140807: 9.79
140808: 9.65
140811: 9.70
140812: 9.75
140813: 9.60
140814: 9.601
140815: 9.651
140818: 9.70
140819: 9.60
140820: 9.701
140821: 9.60
140822: 9.70
140825: 9.61
140826: 9.898
140827: 9.651
140828: 9.601
140829: 9.60
140901: 10.10
140902: 10.40
140903: 10.50
140904: 10.205
140905: 10.205
140908: 10.695
140909: 10.55
140910: 10.55
140911: 10.55
140912: 10.55
140915: 10.55
140916: 10.55
140917: 10.55
140918: 10.55
140919: 10.55
140922: 10.55
140923: 10.55
140924: 10.55
140925: 10.55
140926: 9.60
140929: 10.00
140930: 10.00
141001: 9.62
141002: 9.62
141003: 9.85
141006: 9.60
141007: 9.85
141008: 9.55
141009: 9.50
141010: 9.60
141013: 9.60
141014: 9.60
141015: 9.371
141016: 9.31
141017: 9.739
141020: 9.31
141021: 9.45
141022: 9.25
141023: 9.24
141024: 9.25
141027: 9.162
141028: 9.674
141029: 9.53
141030: 9.60
141031: 9.222
141103: 9.25
141104: 9.256
141105: 9.293
141106: 9.397
141107: 9.75
141110: 9.401
141111: 9.40
141112: 9.50
141113: 9.52
141114: 9.35
141117: 9.366
141118: 9.747
141119: 9.328
141120: 9.36
141121: 9.49
141124: 9.49
141125: 9.50
";}