a:3:{s:4:"time";i:1417023920;s:3:"ttl";i:315360000;s:4:"data";s:2688:"140226: 15.00
140227: 15.00
140228: 15.00
140303: 15.00
140304: 15.00
140305: 15.00
140306: 15.00
140307: 15.00
140310: 15.00
140311: 15.00
140312: 15.00
140313: 15.00
140314: 15.00
140317: 15.00
140318: 15.00
140319: 15.00
140320: 15.00
140321: 15.00
140324: 15.62
140325: 15.62
140326: 15.62
140327: 15.62
140328: 15.62
140331: 15.62
140401: 15.62
140402: 15.62
140403: 15.62
140404: 15.62
140407: 15.62
140408: 15.62
140409: 15.62
140410: 15.62
140411: 15.62
140414: 15.62
140415: 15.62
140416: 15.62
140417: 15.62
140422: 15.62
140423: 15.62
140424: 15.62
140425: 15.62
140428: 15.62
140429: 15.62
140430: 15.62
140502: 15.62
140505: 15.62
140506: 15.62
140507: 15.62
140508: 15.62
140509: 15.62
140512: 15.62
140513: 15.62
140514: 15.62
140515: 15.62
140516: 15.62
140519: 15.62
140520: 15.62
140521: 15.62
140522: 15.62
140523: 15.62
140526: 15.62
140527: 15.62
140528: 15.62
140529: 15.62
140530: 15.62
140602: 15.62
140603: 15.62
140604: 15.62
140605: 15.62
140606: 15.62
140609: 15.62
140610: 15.62
140611: 15.62
140612: 15.62
140613: 15.62
140616: 15.62
140617: 15.62
140618: 15.62
140619: 15.62
140620: 15.62
140623: 15.62
140624: 15.62
140625: 15.62
140626: 15.62
140627: 15.62
140630: 15.62
140701: 15.62
140702: 15.62
140703: 15.62
140704: 15.62
140707: 15.62
140708: 15.62
140709: 15.62
140710: 15.62
140711: 15.62
140714: 15.62
140715: 15.62
140716: 15.62
140717: 15.62
140718: 15.62
140721: 15.62
140722: 15.62
140723: 15.62
140724: 15.62
140725: 15.62
140728: 15.62
140729: 15.62
140730: 15.62
140731: 15.62
140801: 15.62
140804: 15.62
140805: 15.62
140806: 15.62
140807: 15.62
140808: 15.62
140811: 15.62
140812: 15.62
140813: 15.62
140814: 15.62
140815: 15.62
140818: 15.62
140819: 15.62
140820: 15.62
140821: 15.62
140822: 15.62
140825: 15.62
140826: 15.62
140827: 15.62
140828: 15.62
140829: 15.62
140901: 15.62
140902: 15.62
140903: 15.62
140904: 15.62
140905: 15.62
140908: 15.62
140909: 15.62
140910: 15.62
140911: 15.62
140912: 15.62
140915: 15.62
140916: 15.62
140917: 15.62
140918: 15.62
140919: 15.62
140922: 15.62
140923: 15.62
140924: 15.62
140925: 15.62
140926: 15.62
140929: 15.62
140930: 15.62
141001: 15.62
141002: 15.62
141003: 15.62
141006: 15.62
141007: 15.62
141008: 15.62
141009: 15.62
141010: 15.62
141013: 15.62
141014: 15.62
141015: 15.62
141016: 15.62
141017: 15.62
141020: 15.62
141021: 15.62
141022: 15.62
141023: 17.22
141024: 17.22
141027: 17.22
141028: 17.22
141029: 17.22
141030: 17.22
141031: 17.22
141103: 17.22
141104: 17.22
141105: 17.22
141106: 17.22
141107: 17.22
141110: 17.22
141111: 17.22
141112: 17.22
141113: 17.22
141114: 17.22
141117: 17.22
141118: 17.22
141119: 17.22
141120: 17.22
141121: 17.22
141124: 17.22
141125: 17.22
";}