a:3:{s:4:"time";i:1417122266;s:3:"ttl";i:315360000;s:4:"data";s:3201:"<!DOCTYPE html PUBLIC "-//W3C//DTD XHTML 1.0 Transitional//EN" "http://www.w3.org/TR/xhtml1/DTD/xhtml1-transitional.dtd">
<html xmlns="http://www.w3.org/1999/xhtml" xml:lang="nl" lang="nl">
<html><head><title>Slotkoersen KPN
</title></head>
<body><table border=0 width=100%>
<tr><td width=50%>
<pre>140228: 2.585
140303: 2.527
140304: 2.577
140305: 2.587
140306: 2.64
140307: 2.616
140310: 2.63
140311: 2.66
140312: 2.67
140313: 2.666
140314: 2.595
140317: 2.637
140318: 2.69
140319: 2.683
140320: 2.65
140321: 2.663
140324: 2.551
140325: 2.538
140326: 2.511
140327: 2.487
140328: 2.565
140331: 2.565
140401: 2.59
140402: 2.611
140403: 2.53
140404: 2.516
140407: 2.516
140408: 2.477
140409: 2.505
140410: 2.485
140411: 2.435
140414: 2.416
140415: 2.361
140416: 2.412
140417: 2.467
140422: 2.496
140423: 2.497
140424: 2.511
140425: 2.464
140428: 2.448
140429: 2.513
140430: 2.562
140502: 2.637
140505: 2.61
140506: 2.60
140507: 2.60
140508: 2.573
140509: 2.583
140512: 2.644
140513: 2.644
140514: 2.664
140515: 2.623
140516: 2.647
140519: 2.669
140520: 2.653
140521: 2.632
140522: 2.639
140523: 2.672
140526: 2.694
140527: 2.729
140528: 2.731
140529: 2.701
140530: 2.711
140602: 2.666
140603: 2.634
140604: 2.637
140605: 2.629
140606: 2.759
140609: 2.736
140610: 2.759
140611: 2.736
140612: 2.723
140613: 2.748
140616: 2.723
140617: 2.769
140618: 2.759
140619: 2.736
140620: 2.718
140623: 2.683
140624: 2.675
140625: 2.68
140626: 2.604
140627: 2.658
140630: 2.661
140701: 2.638
140702: 2.587
140703: 2.594
140704: 2.533
140707: 2.461
140708: 2.417
140709: 2.453
140710: 2.38
140711: 2.369
140714: 2.37
140715: 2.316
140716: 2.41
140717: 2.391
140718: 2.372
140721: 2.398
140722: 2.399
140723: 2.369
140724: 2.387
140725: 2.36
140728: 2.315
140729: 2.282
140730: 2.388
140731: 2.384
140801: 2.35
140804: 2.377
140805: 2.45
140806: 2.488
140807: 2.525
140808: 2.522
140811: 2.536
140812: 2.478
140813: 2.508
140814: 2.472
140815: 2.444
140818: 2.453
140819: 2.483
140820: 2.494
140821: 2.513
140822: 2.494
140825: 2.518
140826: 2.497
140827: 2.517
140828: 2.484
140829: 2.525
140901: 2.545
140902: 2.545
140903: 2.567
140904: 2.581
140905: 2.557
140908: 2.561
140909: 2.561
140910: 2.527
140911: 2.531
140912: 2.501
140915: 2.445
140916: 2.455
140917: 2.478
140918: 2.462
140919: 2.497
140922: 2.495
140923: 2.44
140924: 2.429
140925: 2.43
140926: 2.485
140929: 2.521
140930: 2.537
141001: 2.49
141002: 2.415
141003: 2.485
141006: 2.509
141007: 2.472
141008: 2.402
141009: 2.384
141010: 2.347
141013: 2.293
141014: 2.334
141015: 2.236
141016: 2.179
141017: 2.23
141020: 2.268
141021: 2.319
141022: 2.283
141023: 2.314
141024: 2.392
141027: 2.395
141028: 2.506
141029: 2.548
141030: 2.592
141031: 2.617
141103: 2.603
141104: 2.55
141105: 2.595
141106: 2.553
141107: 2.564
141110: 2.553
141111: 2.60
141112: 2.591
141113: 2.595
141114: 2.586
141117: 2.632
141118: 2.681
141119: 2.689
141120: 2.678
141121: 2.688
141124: 2.586
141125: 2.623
141126: 2.648
141127: 2.706
</td><td  valign=top>&nbsp;&nbsp;</td></tr></table>

<script src="http://www.google-analytics.com/urchin.js" type="text/javascript"></script>
<script type="text/javascript">_uacct = "UA-2183389-1";urchinTracker();</script>
</body></html>
";}