a:3:{s:4:"time";i:1417023913;s:3:"ttl";i:315360000;s:4:"data";s:2732:"140226: 34.74
140227: 34.00
140228: 34.28
140303: 32.61
140304: 33.80
140305: 34.08
140306: 34.90
140307: 34.42
140310: 34.48
140311: 34.46
140312: 34.75
140313: 34.32
140314: 34.49
140317: 34.84
140318: 34.90
140319: 35.50
140320: 35.43
140321: 36.40
140324: 36.50
140325: 38.16
140326: 39.10
140327: 38.37
140328: 38.78
140331: 39.09
140401: 39.18
140402: 39.18
140403: 39.23
140404: 39.33
140407: 38.20
140408: 37.30
140409: 36.90
140410: 37.765
140411: 37.07
140414: 36.765
140415: 37.10
140416: 37.07
140417: 37.23
140422: 38.595
140423: 39.07
140424: 39.36
140425: 39.33
140428: 40.00
140429: 40.55
140430: 40.90
140502: 41.78
140505: 41.72
140506: 41.35
140507: 41.09
140508: 40.81
140509: 40.05
140512: 40.20
140513: 39.56
140514: 39.515X
140515: 39.305
140516: 37.62
140519: 37.99
140520: 37.10
140521: 37.345
140522: 37.265
140523: 37.425
140526: 37.625
140527: 39.33
140528: 39.48
140529: 39.45
140530: 40.00
140602: 40.10
140603: 39.55
140604: 41.19
140605: 40.91
140606: 40.85
140609: 40.87
140610: 40.60
140611: 40.69
140612: 40.705
140613: 39.74
140616: 39.34
140617: 39.795
140618: 40.28
140619: 40.60
140620: 41.48
140623: 40.94
140624: 40.91
140625: 40.965
140626: 41.20
140627: 41.36
140630: 41.815
140701: 42.74
140702: 43.10
140703: 43.225
140704: 43.22
140707: 42.76
140708: 42.69
140709: 42.06
140710: 40.05
140711: 40.09
140714: 40.28
140715: 40.01
140716: 40.59
140717: 40.00
140718: 40.105
140721: 41.04
140722: 40.65
140723: 40.93
140724: 41.64
140725: 40.915
140728: 40.57
140729: 40.39
140730: 40.34
140731: 40.275
140801: 39.07
140804: 39.055
140805: 44.80
140806: 42.50
140807: 42.50
140808: 40.19
140811: 41.46
140812: 41.85
140813: 41.35
140814: 41.065
140815: 41.19
140818: 41.535
140819: 41.635
140820: 41.40
140821: 42.00
140822: 41.34
140825: 41.62
140826: 42.05
140827: 42.05
140828: 41.59
140829: 41.435
140901: 41.405
140902: 41.62
140903: 41.21
140904: 40.955
140905: 40.965
140908: 41.04
140909: 40.90
140910: 41.045
140911: 40.995
140912: 41.145
140915: 40.34
140916: 39.45
140917: 39.105
140918: 40.075
140919: 40.35
140922: 39.30
140923: 39.045
140924: 38.72
140925: 38.37
140926: 38.50
140929: 38.35
140930: 38.38
141001: 37.365
141002: 36.345
141003: 36.95
141006: 36.25
141007: 35.41
141008: 38.20
141009: 37.36
141010: 36.655
141013: 35.15
141014: 35.125
141015: 34.015
141016: 33.78
141017: 37.32
141020: 37.57
141021: 38.625
141022: 38.85
141023: 39.375
141024: 39.185
141027: 39.29
141028: 40.20
141029: 35.31
141030: 32.765
141031: 31.90
141103: 32.01
141104: 33.13
141105: 33.23
141106: 33.90
141107: 33.55
141110: 34.32
141111: 34.47
141112: 34.335
141113: 34.29
141114: 33.20
141117: 33.50
141118: 34.25
141119: 33.54
141120: 32.86
141121: 32.545
141124: 31.995
141125: 31.57
";}