a:3:{s:4:"time";i:1417122320;s:3:"ttl";i:315360000;s:4:"data";s:3271:"<!DOCTYPE html PUBLIC "-//W3C//DTD XHTML 1.0 Transitional//EN" "http://www.w3.org/TR/xhtml1/DTD/xhtml1-transitional.dtd">
<html xmlns="http://www.w3.org/1999/xhtml" xml:lang="nl" lang="nl">
<html><head><title>Slotkoersen Nedap
</title></head>
<body><table border=0 width=100%>
<tr><td width=50%>
<pre>140228: 30.10
140303: 29.165
140304: 30.02
140305: 29.85
140306: 30.355
140307: 30.00
140310: 29.70
140311: 30.30
140312: 30.155
140313: 29.90
140314: 30.10
140317: 30.05
140318: 30.10
140319: 30.40
140320: 30.25
140321: 30.40
140324: 30.76
140325: 30.40
140326: 30.52
140327: 30.70
140328: 30.20
140331: 30.79
140401: 30.79
140402: 31.20
140403: 32.00
140404: 32.95
140407: 32.00X
140408: 31.50
140409: 31.605
140410: 31.70
140411: 31.20
140414: 31.20
140415: 30.50
140416: 31.35
140417: 32.045
140422: 32.05
140423: 32.175
140424: 32.50
140425: 32.05
140428: 32.05
140429: 32.05
140430: 32.015
140502: 32.50
140505: 32.55
140506: 32.22
140507: 32.03
140508: 32.47
140509: 32.155
140512: 32.325
140513: 32.00
140514: 32.00
140515: 32.00
140516: 32.05
140519: 32.02
140520: 31.45
140521: 31.15
140522: 31.80
140523: 31.65
140526: 31.745
140527: 31.50
140528: 31.65
140529: 31.65
140530: 31.45
140602: 30.88
140603: 31.00
140604: 31.00
140605: 31.25
140606: 31.445
140609: 31.50
140610: 31.495
140611: 31.50
140612: 31.45
140613: 31.30
140616: 31.00
140617: 31.09
140618: 31.33
140619: 30.99
140620: 30.50
140623: 30.185
140624: 30.20
140625: 30.13
140626: 30.20
140627: 30.15
140630: 30.03
140701: 30.025
140702: 30.01
140703: 30.20
140704: 30.20
140707: 30.25
140708: 29.50
140709: 29.555
140710: 28.88
140711: 29.10
140714: 29.15
140715: 29.30
140716: 29.635
140717: 29.435
140718: 29.38
140721: 29.50
140722: 29.50
140723: 29.41
140724: 29.515
140725: 29.835
140728: 29.45
140729: 29.40
140730: 29.30
140731: 29.40
140801: 29.30
140804: 29.145
140805: 28.95
140806: 28.90
140807: 28.955
140808: 28.105
140811: 28.375
140812: 28.475
140813: 28.80
140814: 28.60
140815: 28.86
140818: 28.50
140819: 28.50
140820: 28.50
140821: 29.70
140822: 29.895
140825: 29.90
140826: 29.85
140827: 29.80
140828: 30.00
140829: 29.29
140901: 29.935
140902: 30.00
140903: 29.655
140904: 29.50
140905: 29.70
140908: 29.80
140909: 29.50
140910: 29.25
140911: 29.72
140912: 29.29
140915: 29.74
140916: 29.155
140917: 29.16
140918: 29.74
140919: 29.745
140922: 29.40
140923: 29.35
140924: 29.25
140925: 29.66
140926: 29.50
140929: 29.75
140930: 29.50
141001: 29.40
141002: 29.21
141003: 29.65
141006: 29.50
141007: 29.065
141008: 28.965
141009: 29.105
141010: 28.55
141013: 28.955
141014: 28.20
141015: 27.00
141016: 26.99
141017: 26.995
141020: 26.995
141021: 27.385
141022: 27.925
141023: 27.93
141024: 27.74
141027: 27.74
141028: 27.655
141029: 27.89
141030: 27.70
141031: 27.70
141103: 27.23
141104: 27.15
141105: 27.35
141106: 28.37
141107: 28.30
141110: 28.48
141111: 28.975
141112: 28.90
141113: 28.86
141114: 27.07
141117: 27.395
141118: 27.525
141119: 27.945
141120: 27.35
141121: 27.20
141124: 26.895
141125: 26.86
141126: 27.06
141127: 26.95
</td><td  valign=top>&nbsp;&nbsp;</td></tr></table>

<script src="http://www.google-analytics.com/urchin.js" type="text/javascript"></script>
<script type="text/javascript">_uacct = "UA-2183389-1";urchinTracker();</script>
</body></html>
";}