a:3:{s:4:"time";i:1417598427;s:3:"ttl";i:315360000;s:4:"data";s:67818:"<!DOCTYPE html PUBLIC "-//W3C//DTD HTML 4.01//EN" "http://www.w3.org/TR/html4/strict.dtd">
<html lang="en-GB">
<head>
<title>Greatbatch, Inc. Common Stock Share Price | GB- Yahoo! UK &amp; Ireland Finance</title>
<meta http-equiv="Content-Type" content="text/html; charset=utf-8"><meta name="description" xml:space="default" content="The latest Greatbatch, Inc. Common Stock share price from Yahoo! Finance UK. Find Greatbatch, Inc. Common Stock share price, news, last trades, change, detailed charts, historical prices and more."><meta name="keywords" content="Greatbatch, Inc. Common Stock, GB, Greatbatch, Inc. Common Stock share price, GB share price, yahoo finance uk"><meta property="fb:app_id" content="118155468215844"><meta property="fb:admins" content="503762770,100001149693905"><meta property="og:type" content="company"><meta property="og:site_name" content="Yahoo! Finance"><meta property="og:title" content="Greatbatch, Inc."><meta property="og:image" content="https://s.yimg.com/lq/p/fi/31/09/00.jpg"><meta property="og:url" content="https://uk.finance.yahoo.com/q?s=GB"><meta property="og:description" content="The latest Greatbatch, Inc. Common Stock share price from Yahoo! Finance UK. Find Greatbatch, Inc. Common Stock share price, news, last trades, change, detailed charts, historical prices and more."><link rel="canonical" href="https://uk.finance.yahoo.com/q?s=GB">
<link rel="stylesheet" href="https://s.yimg.com/zz/combo?kx/yucs/uh2/uh/295/css/yunivhead-min.css&amp;kx/yucs/uh2/uh/295/css/logo-min.css&amp;kx/ucs/avatar/css/17/avatar-min.css&amp;kx/yucs/uh2/mail-link/85/css/mailcount_v2-min.css&amp;kx/yucs/uh2/mail-link/85/css/mail_preview-min.css&amp;kx/ucs/search/css/190/search_all-min.css&amp;kx/ucs/search/css/190/search_buttons-min.css&amp;kx/yucs/uh2/uh/295/css/yunivhead_https-min.css&amp;kx/yucs/uh_common/meta/3/css/meta-min.css&amp;bm/lib/fi/common/p/d/static/css/2.0.356971/2.0.0/mini/yfi_quote_summary_lego_concat.css&amp;bm/lib/fi/common/p/d/static/css/2.0.356971/2.0.0/mini/yfi_symbol_suggest.css&amp;bm/lib/fi/common/p/d/static/css/2.0.356971/2.0.0/mini/yui_helper.css&amp;bm/lib/fi/common/p/d/static/css/2.0.356971/2.0.0/mini/yfi_theme_teal.css&amp;bm/lib/fi/common/p/d/static/css/2.0.356971/2.0.0/mini/yfi_follow_quote.css&amp;bm/lib/fi/common/p/d/static/css/2.0.356971/2.0.0/mini/yfi_follow_stencil.css" type="text/css"><script language="javascript">
	ll_js = new Array();
    </script>
</head>

<body id="yfi_quote_summary_page" class="intl-uk  gsg-0"><!--
    	    Begin : Page level configs for rapid 
	    Configuring modules for a page in one place because having a lot of inline scripts will not be good for performance
	--><script type="text/javascript">
	    window.RAPID_ULT ={
		tracked_mods:{
		    'navigation':'Navigation',
		    'marketindices' : 'Market Indices',
		    'yfi_investing_nav' : 'Left nav',
		    'yfi_rt_quote_summary' : 'Quote Summary Bar',
		    'yfi_related_tickers' : 'Related Tickers',
		    'searchQuotes':'Quote Bar',
		    'yfi_summary_chart' : 'Baby chart on QSP',
		    'yfi_tradenow' : 'Trade Now',
		    'yfi_compare_broker_btn' : 'Compare Broker',
		    'yfi_tech_ticker' : 'Exclusives',
		    'yfi_headlines' : 'Headlines',
		    'yfi_press_releases' : 'Press Releases',
		    'yfi_comparison' : 'Comparison',
		    'yfi_key_stats' : 'Key Statistics',
		    'yfi_analysts' : 'Analysts',
		    'yfi_business_summary' : 'Business Summary',
		    'yfi_toolbox' : 'Toolbox',
		    'yfi_rel_videos' : 'Related Videos',
		    'yfi_ft' : 'Footer'
		},
		page_params:{
		    'pstcat' : 'Quotes',
		    'pt' : 'Quote Leaf Pages',
		    'pstth' : 'Quote Summary Page'
		}
	    }
	</script><script type="text/javascript">
        ll_js.push ( {
        'file' : 'ss/rapid-3.18.3.js',
        'combo' : '1',
        'success_callback' : function() { 
            if(window.RAPID_ULT) {
                var conf = {
                    compr_type:'deflate', 
                    tracked_mods:window.RAPID_ULT.tracked_mods, 
                    keys:window.RAPID_ULT.page_params, 
                    spaceid:1186050006,
                    client_only:0,
                    webworker_file:"\/__rapid-worker-1.1.js",
                    nofollow_class:'rapid-nf',
                    test_id:'',
                    ywa: {
                        project_id:1000399386979,
                        document_group:"",
                        document_name:'GB',
                        host:'y3.analytics.yahoo.com'
                    }
                };
                YAHOO.i13n.YWA_CF_MAP = {"act":19,"ct":20,"hpset":11,"intl":12,"lang":13,"mcode":24,"mid":21,"n":33,"outcm":22,"pkg":23,"pstaid":10,"pstcat":8,"pt":9,"so":32,"src_pty":36,"tar":28,"test":14,"tn":34,"tntw":17,"version":18,"woe":35};
                YAHOO.i13n.YWA_ACTION_MAP = {"hswipe":36,"nav_clicked":21,"secvw":1};
                YAHOO.i13n.YWA_OUTCOME_MAP = {};
                window.rapidTracker = new YAHOO.i13n.Rapid(conf); //Making rapiTracker a global variable because it might be needed by other module js
            }
        }
    });
	</script>
<div id="yfi_hd"><div class="yfi_doc yog-hd" id="yog-hd"><div class=""><style>/* customizable */
#yUnivHead{}
#yUnivHead .yuhead-bullet-down{background-position:right -119px;}

/* font color */
#yUnivHead {color:#fff;}
#yUnivHead a{color:#fff;}
#yUnivHead a:hover{color:#fff;}

#yuhead-hd #yuhead-mepanel-cont #yuhead-mepanel li.yuhead-me{border-color:#fff;}
#yuhead-hd #yuhead-com-links-cont #yuhead-com-links li.yuhead-com-link-item{border-color:#fff;}
.yuhead-logo h2 a{color:#fff;}

/* promo color */
#yUnivHead #yuhead-promo .yucs-promo-label{color:#fff;}
#yUnivHead #yuhead-promo a{color:#fff;}
#yUnivHead #yuhead-promo a:hover{color:#fff;}

/* background, border, gradients */
#yUnivHead {
    background:transparent;
}
/* trending promo background - match to header top background */
#yUnivHead .yucs-trending-anim .yucs-trending-anim-fade {
	background:transparent;
}
/*logos*/
#yUnivHead .yuhead-logo h2 {background-position:-350px top;}
/*  #yUnivHead.yucs-en-nz .yuhead-logo h2 {background-position:0px -120px;} */
#yUnivHead .yuhead-logo h2.small {background-position:0px -360px;}</style><div id="yUnivHead" class="yucs-en-gb" data-lang="en-gb" data-property="finance" data-flight="1417598423" data-uhvc="/;_ylt=AjKBSFI1TNIoMh3t98PZ8z3Wr7FG"> <div id="yucs-disclaimer" class="yucs-disclaimer yucs-activate yucs-hide yucs-property-finance yucs-fcb- " data-dsstext="Want a better search experience? {dssLink}Set your Search to Yahoo{linkEnd}" data-dsstext-mobile="Search Less, Find More" data-dsstext-mobile-ok="OK" data-dsstext-mobile-set-search="Set Search to Yahoo" data-ylt-link="https://uk.search.yahoo.com/searchset;_ylt=AofcuqrVQ1PP1vY5yWgxuDPWr7FG?pn=" data-ylt-dssbarclose="/;_ylt=AobCWDyeSOx1M.ey4qQAnTTWr7FG" data-ylt-dssbaropen="/;_ylt=Akdocjmk68DagUu5Wqz7IZPWr7FG" data-linktarget="_top" data-lang="en-gb" data-property="finance" data-device="Desktop" data-close-txt="Close this window" data-maybelater-txt = "Maybe later" data-killswitch = "0" data-host="uk.finance.yahoo.com" data-spaceid="" data-pn="lUtLba9HTma" data-pn-en-ca-mobile="5jFFs70zz9h" data-pn-de-de-mobile="xM8aRb7W./p" data-pn-es-es-mobile="B2/Ex02H9eD" data-pn-fr-fr-mobile="PaoS7inhEBW" data-pn-en-in-mobile="Tbz5kgi/Npj" data-pn-it-it-mobile="r55kkER0w3d" data-pn-en-us-mobile="lUtLba9HTma" data-pn-en-sg-mobile="Yc/nCVT0WDS" data-pn-en-gb-mobile="5S36PMDFH4P" data-pn-en-us-tablet="2O81/e6R0bk" data-news-search-yahoo-com="iNthRCZB22Y" data-answers-search-yahoo-com="ukx2r5lTr9j" data-finance-search-yahoo-com="kPs2oaUN.qr" data-images-search-yahoo-com="CDoFk5wipkl" data-video-search-yahoo-com="aKV2Dkf6xgK" data-sports-search-yahoo-com="cSF0z5BCugR" data-shopping-search-yahoo-com="0Shz3VqxRlk" data-shopping-yahoo-com="0Shz3VqxRlk" data-us-qa-trunk-news-search-yahoo-com ="iNthRCZB22Y" data-dss="1"></div>  <div id="yucs-eprivacy" class="yucs-eprivacy yucs-activate hide" data-nagtext="By using Yahoo you agree that Yahoo and {thirdPartiesLink}partners{linkEnd} may use {cookieLink}Cookies{linkEnd} for personalisation and other purposes" data-ylt-cookielink="https://us.lrd.yahoo.com/_ylt=AjssDYEOXMuafTUReXwch7bWr7FG/SIG=123t0j069/EXP=1418808023/**http%3A//info.yahoo.com/privacy/uk/yahoo/cookies/" data-ylt-aimlink="https://us.lrd.yahoo.com/_ylt=Ap58aw1c2FVgjr7P7S.ypQzWr7FG/SIG=12q1or0df/EXP=1418808023/**https%3A//info.yahoo.com/privacy/uk/yahoo/opt_out/targeting/details.html" data-ylt-thirdPartieslink="https://us.lrd.yahoo.com/_ylt=ArLek8IdJUqSkL1zNQXs3TjWr7FG/SIG=1280upklc/EXP=1418808023/**http%3A//info.yahoo.com/privacy/uk/yahoo/thirdparties/" data-ylt-nagbaropen="/;_ylt=Av93r4Mifwak_BBcCvq3oTPWr7FG" data-ylt-nagbarclose="/;_ylt=Ahy2ESNL0yekN4fizV9S.dLWr7FG" data-autohide="false" data-linktarget="_top" data-close-txt="Close this window"></div> <a href="#yuhead-search" class="yucs-skipto-search yucs-activate">Skip to search.</a>  <div id="yuhead-hd" class="yuhead-clearfix"> <div id="yuhead-mepanel-cont"> <ul id="yuhead-mepanel" class="yucs-toolbar yucs-activate" aria-label="User Services"><li class="yuhead-me yuhead-nodivide yuhead-nopad"> <a class="yuhead-signup" href="https://us.lrd.yahoo.com/_ylt=Ahf.V3urJ1npJuQjaJdHQ4PWr7FG/SIG=14n80bn8r/EXP=1418808023/**https%3A//edit.yahoo.com/config/eval_register%3F.src=quote%26.intl=uk%26.lang=en-GB%26.done=https%3A//uk.finance.yahoo.com/q%253fs=GB" target="_top" rel="nofollow"> <em>New User?</em> Register</a></li><li class="yuhead-me"> <a href="https://login.yahoo.com/config/login;_ylt=AriVgjeEauqqS3QMA4hadA3Wr7FG?.src=quote&.intl=uk&.lang=en-GB&.done=https://uk.finance.yahoo.com/q%3fs=GB" target="_top" rel="nofollow"> <em>Sign In</em></a></li><li class="yuhead-me"><a href="https://help.yahoo.com/l/uk/yahoo/finance/index.html;_ylt=Am_357Xgb6t9JYkshhAV8mzWr7FG" rel="nofollow" target="_top">Help</a></li></ul>   </div> <div id="yuhead-promo"><a style="font-weight:bold;"href="https://us.lrd.yahoo.com/_ylt=Aqyiv2du6QtUNG9M9ywX9SnWr7FG/SIG=11qhg2htg/EXP=1418808023/**http%3A//uk.mobile.yahoo.com/newsdigest/" target="_top" rel="nofollow">Get the News Digest app</a></div> <div id="yuhead-com-links-cont"> <ul id="yuhead-com-links" class="yucs-toolbar yucs-activate" aria-label="Yahoo Services">  <li class="yuhead-com-link-item yucs-mailpreview-ancestor"> <a class="sp yltasis yuhead-ico-mail" href="https://us.lrd.yahoo.com/_ylt=AumKz_jrvScEakUkhmJoSTnWr7FG/SIG=1271utlqq/EXP=1418808023/**https%3A//uk.mail.yahoo.com/%3F.intl=uk%26.lang=en-GB" rel="nofollow" target="_top">Mail</a><ul class="yucs-mail-preview-panel hide" data-uri-scheme="http" data-uri-path="ucs.query.yahoo.com/v1/console/yql" data-mail-txt="Mail" data-mail-view="Go to Mail" data-mail-help-txt="Help" data-mail-help-url="http://help.yahoo.com/l/uk/yahoo/mail/ymail/" data-mail-loading-txt="Loading..." data-languagetag="en-gb" data-mrd-crumb="5JJtkXH0yXD" data-authstate="signedout" data-middleauth-signin-text="Click here to view your mail" data-popup-login-url="https://login.yahoo.com/config/login_verify2?.pd=c%3DOIVaOGq62e5hAP8Tv..nr5E3&.src=sc" data-middleauthtext="You have {count} new messages." data-yltmessage-link="https://us.lrd.yahoo.com/_ylt=Ald0cORIF3WWxY.C6IEzK6bWr7FG/SIG=132frs1ek/EXP=1418808023/**http%3A//mrd.mail.yahoo.com/msg%3Fmid=%7BmsgID%7D%26fid=Inbox%26src=uh%26.crumb=" data-yltviewall-link="https://us.lrd.yahoo.com/_ylt=AqC0gKJrPFzBy6EAJh80zhnWr7FG/SIG=11eq50jjn/EXP=1418808023/**https%3A//uk.mail.yahoo.com/" data-yltpanelshown="/;_ylt=AtnGm00joKNETaJ9tvUsdz7Wr7FG"></ul></li><!-- my link --><li id="yuhead-com-home"><a class="sp yuhead-ico-home" href="https://us.lrd.yahoo.com/_ylt=Amc_RJ_QEOhkCPngkuigya_Wr7FG/SIG=119ljjjgj/EXP=1418808023/**https%3A//uk.yahoo.com/" rel="nofollow" target="_top">Yahoo</a></li> </ul> </div> </div> <div id="yuhead-bd" class="yuhead-clearfix"> <div class="yuhead-logo"> <style> .yuhead-logo h2{ width:350px; height:38px; background-image:url(https://s.yimg.com/rz/d/yahoo_finance_en-GB_s_f_pw_351x40_finance.png
); _background-image:url(https://s.yimg.com/rz/d/yahoo_finance_en-GB_s_f_pw_351x40_finance.gif
); } .yuhead-logo a{ width:350px; height:38px; } .yuhead-logo div.yuhead-comarketing { width:350px; } .yog-tablet #yUnivHead h2 { background-position: -350px 5px !important; } html[lang='en-AU'] .yog-tablet #yUnivHead .yuhead-logo h2 { background-position: -350px 5px !important; } html[lang='en-NZ'] .yog-tablet #yUnivHead .yuhead-logo h2 { background-position: -350px 5px !important; } .yog-smartphone #yUnivHead h2 { background-position: -265px 0; background-size: 534px; margin-left: 26%; } .yog-tablet .yuhead-logo h2{ background-repeat: repeat-x; } .yog-tablet.yog-version-v2 #yUnivHead h2 { background-position: center !important; } .yog-tablet #yUnivHead .yuhead-logo h2 { height: 40px !important; } .yog-rtl.yog-smartphone #yUnivHead .yuhead-logo h2 { background-position: -352px 0; !important; background-size: 536px !important; margin-left: 30% !important; } html[lang='ar'] .yog-rtl.yog-smartphone #yUnivHead .yuhead-logo h2 { background-position: -386px 0; !important; } .yog-smartphone #yUnivHead h2.yuhead-music { background-position: 0 0 !important; width: 260px !important; } html[lang='en-US'] .yog-smartphone #yUnivHead h2 { background-size: auto 21px !important; background-position: -350px 0; } html[lang='pt-BR'] .yog-smartphone #yUnivHead h2.yuhead-sports { background-position: -265px 0 !important; background-size: 534px; margin-left: 17%; } html[lang='ar'] .yog-smartphone #yUnivHead h2.yuhead-omg { background-position: -383px 0 !important; background-size: 605px; margin-left: 0; width: auto; } html[lang='en-PH'] .yog-tablet #yUnivHead .yuhead-logo h2 { height: 47px !important; } html[lang='en-PH'] .yog-smartphone #yUnivHead h2 { width: 255px; } </style> <h2 class="yuhead-finance yuhead-standard"> <a href="https://us.lrd.yahoo.com/_ylt=AjImTnY75G70sb4zsnmNVifWr7FG/SIG=11hj9f0oj/EXP=1418808023/**https%3A//uk.finance.yahoo.com/" target="_top" tabindex="-1"> Yahoo UK & Ireland Finance </a> </h2> <div id="yucs-disclaimer-md" class="yucs-disclaimer-md yucs-activate yucs-hide Desktop  yucs-property-finance yucs-fcb-" data-dsstext="Want a better search experience? {dssLink}Set your Search to Yahoo{linkEnd}" data-dsstext-mobile="Search Less, Find More" data-dsstext-mobile-ok="OK" data-dsstext-mobile-set-search="Set Search to Yahoo" data-ylt-link="https://uk.search.yahoo.com/searchset;_ylt=ArJ8MNPqxkp6t9F0GZnTZWTWr7FG?pn=" data-ylt-dssbarclose="/;_ylt=At74LAQYB3vFOa52zoL4xhHWr7FG" data-ylt-dssbaropen="/;_ylt=Aix7jyjgullvEqWLrZTo.QXWr7FG" data-linktarget="_top" data-lang="en-gb" data-property="finance" data-device="Desktop" data-close-txt="Close this window" data-maybelater-txt = "Maybe later" data-killswitch = "0" data-dss="1"></div><script typ="text/javascript" src="https://s.yimg.com/kx/yucs/uh3/disclaimer/274/js/disclaimer_seed-min.js"></script> </div> <div id="yuhead-search"> <div id="yuhead-sform-cont" class="yuhead-s-web yuhead-search-form"> <form role="search" class="yucs-search yucs-activate" target="_top" action="https://uk.search.yahoo.com/search;_ylt=An..BajUmRW8LU6liDl0CDDWr7FG" method="get"><table role="presentation"> <tbody role="presentation"><tr role="presentation"><td class="yucs-form-input" role="presentation"> <label for="yuhead-sform-searchfield"> <span>Search</span> </label> <input autocomplete="off" type="text" class="sp yuhead-ico-mglass yuhead-search-hint yucs-search-field" name="p" data-sh="Search"  data-gosurl="" id="yuhead-sform-searchfield" data-pubid="" /></td><td NOWRAP class="yucs-form-btn" role="presentation"><div class="yucs-btn-wrap"> <button class="yucs-sweb-btn" type="submit">Search Web</button></div> </td> </tr> </tbody></table><input type="hidden" id="fr" name="fr" value="ush1-finance" /></form> </div> </div>  </div>               <!-- meta --><div id="yucs-meta" data-authstate="signedout" data-cobrand="standard" data-crumb="bHWWI/mrJoq" data-mc-crumb="niAGpmYnBuT" data-gta="6nF72SCqnJ6" data-device="desktop" data-experience="" data-firstname="" data-flight="1417598423" data-forcecobrand="standard" data-guid="" data-host="uk.finance.yahoo.com" data-https="1" data-languagetag="en-gb" data-property="finance" data-protocol="" data-shortfirstname="" data-shortuserid="" data-status="active" data-spaceid="" data-test_id="" data-userid="" data-stickyheader="true" data-headercollapse='' ></div><!-- /meta --></div></div><script type="text/javascript">
		var yfi_dd = 'finance.yahoo.com';
		
			ll_js.push({
			'file':'https://s.yimg.com/zz/combo?kx/ucs/common/js/140/setup-min.js&kx/ucs/sts/js/442/skip-min.js&kx/yucs/uh2/uh/295/js/timestamp_library-min.js&kx/ucs/menu_utils/js/164/menu_utils_v2-min.js&kx/yucs/uh2/uh/295/js/aria_toolbar-min.js&kx/ucs/username/js/43/user_menu-min.js&kx/ucs/help/js/41/help_menu-min.js&kx/ucs/utility_link/js/20/utility_menu-min.js&kx/yucs/uh2/uh/295/js/logo_debug-min.js&kx/yucs/uh3/disclaimer/328/js/disclaimer_seed-min.js&kx/yucs/uh2/eu-eprivacy/35/js/eu_eprivacy_seed-min.js&kx/ucs/common/js/131/jsonp-super-cached-min.js&kx/ucs/avatar/js/30/avatar-min.js&kx/yucs/uh2/mail-link/85/js/mailcount_v2-min.js&kx/ucs/search/js/226/search-min.js&kx/ucs/search/js/210/search_text_dir-min.js&kx/yucs/uh2/uh/295/js/activate_library-min.js&kx/yucs/uhc/meta/55/js/meta-min.js'
			});
		
              if(window.LH) {
                  LH.init({spaceid:'1186050006'});
              }
	</script><script type="text/javascript">
                if(typeof YAHOO == "undefined"){YAHOO={};}
                if(typeof YAHOO.Finance == "undefined"){YAHOO.Finance={};}
                if(typeof YAHOO.Finance.ComscoreConfig == "undefined"){YAHOO.Finance.ComscoreConfig={};}
                YAHOO.Finance.ComscoreConfig={ "config" : [
                        {
                        c5: "1186050006",
                        c7: "https://uk.finance.yahoo.com/q?s=GB"
                        }
                ] }
                

                ll_js.push({
                            'file': 'bm/lib/fi/common/p/d/static/js/2.0.356971/2.0.0/mini/yfi_comscore.js',
                            'combo' : '1'
                });
        </script><noscript><img src="https://sb.scorecardresearch.com/p?c1=2&amp;c2=7241469&amp;c4=http://uk.finance.yahoo.com/q?s=GB&amp;c5=1186050006&amp;cv=2.0&amp;cj=1"></noscript><style type="text/css">
              .yfi-price-change-up{
                color:#008800
               }
                    
              .yfi-price-change-down{
                color:#cc0000
               }
            </style></div></div><div class="ad_in_head"><div class="yfi_doc"><div style="text-align:center;"></div>

</div></div><div id="y-nav"><div id="navigation" class="yom-mod yom-nav" role="navigation"><div class="bd"><div class="nav"><div class="y-nav-pri-legobg"><div id="y-nav-pri" class="nav-stack nav-0 yfi_doc"><ul class="yog-grid" id="y-main-nav"><li id="home"><div class="level1"><a href="/"><span>Home</span></a><div class="arrow"><em></em></div><div class="pointer"></div><ul class="nav-sub"><li><a href="/currencies/converter/">Currency Converter</a></li><li><a href="/video/">Video</a></li><li><a href="/news/editors/">From The Newsroom</a></li><li><a href="/news/glossary/">Financial Glossary</a></li><li><a href="/real-cost-of/">How Do I Afford?</a></li><li><a href="/news/autumn-statement/">Autumn Statement</a></li><li><a href="/every-penny-counts/">Every Penny Counts</a></li></ul></div></li><li id="investing"><div class="level1"><a href="/investing"><span>Investing</span></a><div class="arrow"><em></em></div><div class="pointer"></div><ul class="nav-sub"><li><a href="/gainers?e=l">Market Movers</a></li><li><a href="/indices?e=london">Indices</a></li><li><a href="/currencies/investing.html">Currency Investor</a></li></ul></div></li><li id="news%2520%2526%2520opinion"><div class="level1"><a href="/news/"><span>News &amp; Opinion</span></a><div class="arrow"><em></em></div><div class="pointer"></div><ul class="nav-sub"><li><a href="/news/category-earnings/">Earnings</a></li><li><a href="/news/index/">All Topics</a></li><li><a href="/news/category-small-caps/">Small Caps</a></li><li><a href="/news/category-economy/">Economy</a></li><li><a href="/news/category-market-movers/">Market Movers</a></li><li><a href="/news/category-upgrades-downgrades/">Upgrades & Downgrades</a></li><li><a href="/news/category-newspaper-tips-round-up/">Newspaper Tips</a></li><li><a href="/news/ireland/">Ireland</a></li><li><a href="/news/rssindex/">RSS Feeds</a></li><li><a href="/news/budget/">UK Budget 2014</a></li></ul></div></li><li class="nav-fin-portfolios"><div class="level1"><a id="yfmya" href="/portfolios/"><span>My Portfolios</span></a><div class="arrow"><em></em></div><div class="pointer"></div><ul class="nav-sub"><li><a href="/portfolios/">Sign in to access My Portfolios</a></li></ul></div></li><li id="personal%2520finance"><div class="level1"><a href="/news/personal-finance-home"><span>Personal Finance</span></a><div class="arrow"><em></em></div><div class="pointer"></div><ul class="nav-sub"><li><a href="/news/personal-finance-loans/">Loans</a></li><li><a href="/news/personal-finance-credit-cards/">Credit Cards</a></li><li><a href="/news/personal-finance-insurance/">Insurance</a></li><li><a href="/news/personal-finance-savings/">Savings</a></li><li><a href="/news/personal-finance-mortgages/">Mortgages</a></li><li><a href="/news/personal-finance-pensions-retirement/">Pensions</a></li><li><a href="/news/personal-finance-banks/">Bank Accounts</a></li><li><a href="https://www.dianomi.com/partner/yahoo/brochures.epl?partner=96">Money Guides</a></li><li><a href="http://yahoo.lovemoney.com/">Compare Products</a></li><li><a href="/news/personal-finance-household/">Household</a></li></ul></div></li><li id="property"><div class="level1"><a href="/property/"><span>Property</span></a><div class="arrow"><em></em></div><div class="pointer"></div><ul class="nav-sub"><li><a href="/property/photos/">Photos</a></li></ul></div></li><li id="small%2520business"><div class="level1"><a href="/small-business/"><span>Small Business</span></a><div class="arrow"><em></em></div><div class="pointer"></div><ul class="nav-sub"><li><a href="/small-business/sage-business-section/">Sage Business Section</a></li></ul></div></li></ul></div></div>       </div></div></div><script>
        
        (function(el) {
            function focusHandler(e){
                if (e && e.target){
                    e.target == document ? null : e.target;
                    document.activeElement = e.target;
                }
            }
            // Handle !IE browsers that do not support the .activeElement property
            if(!document.activeElement){
                if (document.addEventListener){ 
                    document.addEventListener("focus", focusHandler, true);
                }
            }
        })(document);
        
        </script><div class="y-nav-legobg"><div class="yfi_doc"><div id="y-nav-sec" class="clear"><div id="searchQuotes" class="ticker-search mod" mode="search"><div class="hd"></div><div class="bd"><form id="quote" name="quote" action="/q"><h2 class="yfi_signpost">Search for share prices</h2><label for="txtQuotes">Search for share prices</label><input id="txtQuotes" name="s" value="" type="text" autocomplete="off" placeholder="Enter Symbol"><input id="get_quote_logic_opt" name="ql" value="1" type="hidden" autocomplete="off"><div id="yfi_quotes_submit"><span><span><span><input type="submit" value="Look Up" id="btnQuotes" class="rapid-nf"></span></span></span></div></form></div><div class="ft"><!-- this is required only for the yoda pages, /page/settings/@page is available only on yoda pages --><div class="report_issue"><a href="https://yahoo.uservoice.com/forums/170325-uk-ireland-finance/category/84962-data-accuracy" class="Fz-xs" target="_blank">Report an Issue</a></div><div class="strmg_bar_top streaming_toggle"><div id="yfi_pg_settings_icon">Streaming</div><div id="yfi_streaming_ticker_panel"><div id="yfi_streaming_quotes" class="yfi_streaming_quotes_p"> </div><div id="ticker_onoff"><span>Ticker Tape: </span><input type="hidden" name="tton" id="yfi_tt_on" value="1"><a onclick="tptoggleOnoffText(0); return false;" class="rapid-nf"><span id="tt_on" style="display:inline;">On</span></a><a onclick="tptoggleOnoffText(1); return false;" class="rapid-nf"><span id="tt_off" style="display:none;">Off</span></a></div></div></div><div class="mkt_time"><p><span id="yfs_market_time">Wed 3 Dec 2014 09:20 - UK Markets close in 7 hrs 10 mins</span></p></div></div></div></div></div></div></div>
<div id="yfi_doc"><div id="yfi_bd">
<!-- SpaceID=1186050006 loc=NT1 noad --><!-- fac-gd2-noad --><!-- gd2-status-2 --><!--QYZ CMS_NONE_AVAIL,,10.200.18.120;;NT1;1186050006;2;--><script language=javascript>
if(window.xzq_d==null)window.xzq_d=new Object();
window.xzq_d['sm9RCQrIEuY-']='(as$12502trn1,aid$sm9RCQrIEuY-,cr$-1,ct$25,at$HR,eob$gd1_match_id=-1:ypos=NT1)';
</script><noscript><img width=1 height=1 alt="" src="https://csc.beap.bc.yahoo.com/yi?bv=1.0.0&bs=(136sulmn9(gid$4ixz4jE4OC6syknOVH7V1wNPODQuMlR.1df__wyA,st$1417598423175000,si$3223532,sp$1186050006,pv$1,v$2.0))&t=JR_3-DR_3&al=(as$12502trn1,aid$sm9RCQrIEuY-,cr$-1,ct$25,at$HR,eob$gd1_match_id=-1:ypos=NT1)"></noscript><div id="marketindices">&nbsp;<span><a href="/q?s=%5EFTSE">FTSE 100</a></span>&nbsp;<span id="yfs_pp0_^ftse"><img width="10" height="14" style="margin-right:-2px;" border="0" src="https://s.yimg.com/os/mit/media/m/base/images/transparent-1093278.png" class="neg_arrow" alt="Down"> <b class="
                yfi-price-change-down
            ">0.17%</b></span></div>
<div id="yfi_investing_nav"><div class="hd"><h2>More On GB</h2></div><div class="bd"><h3>Quotes</h3><ul><li class="selected">Summary</li><li><a href="/q/ecn?s=GB">Order Book</a></li><li><a href="/q/op?s=GB">Options</a></li><li><a href="/q/hp?s=GB">Historical Prices</a></li></ul><h3>Derivatives</h3><ul><li class="deselected">Warrants</li><li class="deselected">Investment Products</li></ul><h3>Charts</h3><ul><li><a href="/echarts?s=GB#symbol=GB;range=1d">Interactive</a></li><li><a href="/q/bc?s=GB">Basic Chart</a></li><li><a href="/q/ta?s=GB">Basic Tech. Analysis</a></li></ul><h3>News &amp; Info</h3><ul><li class="deselected">Headlines</li><li><a href="/q/ce?s=GB">Company Events</a></li><li><a href="/mb/GB/">Message Boards</a></li><li><a href="/marketpulse/GB">Market Pulse</a></li></ul><h3>Company</h3><ul><li><a href="/q/pr?s=GB">Profile</a></li><li><a href="/q/ks?s=GB">Key Statistics</a></li><li><a href="/q/sec?s=GB">SEC Filings</a></li><li><a href="/q/co?s=GB">Competitors</a></li><li><a href="/q/in?s=GB">Industry</a></li><li><a href="/q/ct?s=GB">Components</a></li></ul><h3>Analyst Coverage</h3><ul><li><a href="/q/ao?s=GB">Analyst Opinion</a></li><li><a href="/q/ae?s=GB">Analyst Estimates</a></li></ul><h3>Ownership</h3><ul><li><a href="/q/mh?s=GB">Major Holders</a></li><li><a href="/q/it?s=GB">Insider Transactions</a></li><li><a href="/q/ir?s=GB">Insider Roster</a></li></ul><h3>Financials</h3><ul><li><a href="/q/is?s=GB&amp;annual">Income Statement</a></li><li><a href="/q/bs?s=GB&amp;annual">Balance Sheet</a></li><li><a href="/q/cf?s=GB&amp;annual">Cash Flow</a></li></ul></div><div class="ft"></div></div><div id="yfi_investing_content"><div class="yui-g bb-0"><script>
	    document.domain='finance.yahoo.com';
	</script><div id="yfi_broker_buttons"><div id="yfi_broker_buttons_original" class="clearfix"><!-- SpaceID=1186050006 loc=FB2 noad --><!-- fac-gd2-noad --><!-- gd2-status-2 --><!--QYZ CMS_NONE_AVAIL,,10.200.18.120;;FB2;1186050006;2;--><script language=javascript>
if(window.xzq_d==null)window.xzq_d=new Object();
window.xzq_d['ArxQCQrIEuY-']='(as$1254j7ae0,aid$ArxQCQrIEuY-,cr$-1,ct$25,at$HR,eob$gd1_match_id=-1:ypos=FB2)';
</script><noscript><img width=1 height=1 alt="" src="https://csc.beap.bc.yahoo.com/yi?bv=1.0.0&bs=(136sulmn9(gid$4ixz4jE4OC6syknOVH7V1wNPODQuMlR.1df__wyA,st$1417598423175000,si$3223532,sp$1186050006,pv$1,v$2.0))&t=JR_3-DR_3&al=(as$1254j7ae0,aid$ArxQCQrIEuY-,cr$-1,ct$25,at$HR,eob$gd1_match_id=-1:ypos=FB2)"></noscript><!-- SpaceID=1186050006 loc=FB2 noad --><!-- fac-gd2-noad --><!-- gd2-status-2 --><!--QYZ CMS_NONE_AVAIL,,10.200.18.120;;FB2;1186050006;2;--><script language=javascript>
if(window.xzq_d==null)window.xzq_d=new Object();
window.xzq_d['eNJQCQrIEuY-']='(as$125jtm39r,aid$eNJQCQrIEuY-,cr$-1,ct$25,at$HR,eob$gd1_match_id=-1:ypos=FB2)';
</script><noscript><img width=1 height=1 alt="" src="https://csc.beap.bc.yahoo.com/yi?bv=1.0.0&bs=(136sulmn9(gid$4ixz4jE4OC6syknOVH7V1wNPODQuMlR.1df__wyA,st$1417598423175000,si$3223532,sp$1186050006,pv$1,v$2.0))&t=JR_3-DR_3&al=(as$125jtm39r,aid$eNJQCQrIEuY-,cr$-1,ct$25,at$HR,eob$gd1_match_id=-1:ypos=FB2)"></noscript><!-- SpaceID=1186050006 loc=FB2 noad --><!-- fac-gd2-noad --><!-- gd2-status-2 --><!--QYZ CMS_NONE_AVAIL,,10.200.18.120;;FB2;1186050006;2;--><script language=javascript>
if(window.xzq_d==null)window.xzq_d=new Object();
window.xzq_d['7uhQCQrIEuY-']='(as$125b9me4e,aid$7uhQCQrIEuY-,cr$-1,ct$25,at$HR,eob$gd1_match_id=-1:ypos=FB2)';
</script><noscript><img width=1 height=1 alt="" src="https://csc.beap.bc.yahoo.com/yi?bv=1.0.0&bs=(136sulmn9(gid$4ixz4jE4OC6syknOVH7V1wNPODQuMlR.1df__wyA,st$1417598423175000,si$3223532,sp$1186050006,pv$1,v$2.0))&t=JR_3-DR_3&al=(as$125b9me4e,aid$7uhQCQrIEuY-,cr$-1,ct$25,at$HR,eob$gd1_match_id=-1:ypos=FB2)"></noscript><!-- SpaceID=1186050006 loc=FB2 noad --><!-- fac-gd2-noad --><!-- gd2-status-2 --><!--QYZ CMS_NONE_AVAIL,,10.200.18.120;;FB2;1186050006;2;--><script language=javascript>
if(window.xzq_d==null)window.xzq_d=new Object();
window.xzq_d['ZP9QCQrIEuY-']='(as$125l7k61m,aid$ZP9QCQrIEuY-,cr$-1,ct$25,at$HR,eob$gd1_match_id=-1:ypos=FB2)';
</script><noscript><img width=1 height=1 alt="" src="https://csc.beap.bc.yahoo.com/yi?bv=1.0.0&bs=(136sulmn9(gid$4ixz4jE4OC6syknOVH7V1wNPODQuMlR.1df__wyA,st$1417598423175000,si$3223532,sp$1186050006,pv$1,v$2.0))&t=JR_3-DR_3&al=(as$125l7k61m,aid$ZP9QCQrIEuY-,cr$-1,ct$25,at$HR,eob$gd1_match_id=-1:ypos=FB2)"></noscript></div><div id="yfi_broker_banners" class="clearfix yfi-broker-banners"><div class="banner-strip"></div></div></div></div><div class="rtq_div"><div class="yui-g"><div class="yfi_rt_quote_summary" id="yfi_rt_quote_summary"><div class="hd"><div class="title"><h2>Greatbatch, Inc. (GB)</h2> <span class="rtq_exch"><span class="rtq_dash">-</span>NYSE  </span><span class="wl_sign"></span></div></div><div class="yfi_rt_quote_summary_rt_top sigfig_promo_0"><div> <span class="time_rtq_ticker"><span id="yfs_l84_gb">49.62</span></span> <span class="down_r time_rtq_content"><span id="yfs_c10_gb">   0.09</span><span id="yfs_p20_gb">(0.18%)</span> </span><span class="time_rtq"> <span id="yfs_t53_gb">2 Dec 21:02</span></span></div><div></div></div><div id="yfi_toolbox_mini_rtq"><span class="fb-like-button"></span><script type="text/javascript">
                            ll_js.push({
                                'script':function(){
                                    YUI().use('node', function (Y) {
                                        var iframe = Y.Node.create('<iframe src="https://www.facebook.com/plugins/like.php?href=http://uk.finance.yahoo.com%2Fq%3Fs%3DGB&amp;layout=button_count&amp;show_faces=false&amp;action=like&amp;font=arial&amp;colorscheme=light&amp;height=21&amp;width=100&amp;locale=en_GB" scrolling="no" frameborder="0" allowTransparency="true" style="height:21px; width:95px;"></iframe>');
                                        Y.one(".fb-like-button").append(iframe);
                                    });
                                }
                            });
                        </script><span class="add-to-portfolio-button"><a class="add-to-portfolio-icon" href="http://edit.finance.yahoo.com/ec?.src=quote&amp;.intl=uk&amp;.sym=GB&amp;.done=http%3A%2F%2Fuk.finance.yahoo.com%2Fq%3Fs%3DGB"><span>Add to Portfolio</span></a></span></div></div></div></div><div class="yui-u first yfi-start-content"><div class="yfi_quote_summary"><div id="yfi_quote_summary_data" class="rtq_table"><table id="table1"><tr><th scope="row" width="48%">Prev Close:</th><td class="yfnc_tabledata1">49.71</td></tr><tr><th scope="row" width="48%">Open:</th><td class="yfnc_tabledata1">49.71</td></tr><tr><th scope="row" width="48%">Bid:</th><td class="yfnc_tabledata1"><span id="yfs_b00_gb">45.01</span><small> x <span id="yfs_b60_gb">100</span></small></td></tr><tr><th scope="row" width="48%">Ask:</th><td class="yfnc_tabledata1"><span id="yfs_a00_gb">49.64</span><small> x <span id="yfs_a50_gb">400</span></small></td></tr><tr><th scope="row" width="48%">1y Target Est:</th><td class="yfnc_tabledata1">56.60</td></tr><tr><th scope="row" width="48%">Beta:</th><td class="yfnc_tabledata1">1.88</td></tr><tr><th scope="row" width="54%">Earnings Date:</th><td class="yfnc_tabledata1">23 Feb - 27 Feb (Est.)</td></tr></table><table id="table2"><tr><th scope="row" width="48%">Day's Range:</th><td class="yfnc_tabledata1"><span><span id="yfs_g53_gb">48.89</span></span> - <span><span id="yfs_h53_gb">50.19</span></span></td></tr><tr><th scope="row" width="48%">52wk Range:</th><td class="yfnc_tabledata1"><span>37.98</span> - <span>51.64</span></td></tr><tr><th scope="row" width="48%">Volume:</th><td class="yfnc_tabledata1"><span id="yfs_v53_gb">83,902</span></td></tr><tr><th scope="row" width="48%">Avg Vol <span class="small">(3m)</span>:</th><td class="yfnc_tabledata1">135,720</td></tr><tr><th scope="row" width="48%">Market Cap:</th><td class="yfnc_tabledata1"><span id="yfs_j10_gb">1.24b</span></td></tr><tr><th scope="row" width="48%">P/E <span class="small">(ttm)</span>:</th><td class="yfnc_tabledata1">25.21</td></tr><tr><th scope="row" width="48%">EPS <span class="small">(ttm)</span>:</th><td class="yfnc_tabledata1">1.97</td></tr><tr class="end"><th scope="row" width="48%">Div &amp; Yield:</th><td class="yfnc_tabledata1">N/A (N/A) </td></tr></table></div></div><div class="yfi_trade_now"><a href="http://yhoo.it/rlHC7p"><img src="https://s.yimg.com/lq/i/us/fi/gr/partner_logos/tradenow_uk.gif" title="Trade Now" alt="Trade Now"></a></div><div class="yui-g" id="yfi_related_tickers">People viewing <b>GB</b> also viewed:<span> <a href="/q?s=FB&amp;reco=1"><strong>FB</strong></a> <a href="/q?s=AAPL&amp;reco=1"><strong>AAPL</strong></a></span></div><div id="ecn_warning" class="lalign-0">Quotes delayed, except where indicated otherwise. Currency in USD.<style>
		    #yfi_quote_summary_page #ecn_warning {
		        border:none !important;
			padding-left:0 !important;
			margin:5px 0 13px !important;
		    }
		    </style></div><div id="yfi_headlines" class="yfi_quote_headline"><div class="hd"><h2 class="inline">Headlines</h2></div><div class="bd"><ul><li class="nothing">No Headlines available for GB at this time.</li></ul></div><div class="ft"></div></div></div><div class="yui-u rr" style="width:300px;float:left;"><div class="yfi_summary_chart" style="float:none;" id="yfi_summary_chart"><div class="chart"><a href="echarts?s=GB#symbol=GB;range=1d"><img src="https://chart.finance.yahoo.com/t?s=GB&amp;lang=en-GB&amp;region=GB&amp;width=300&amp;height=180" alt="Greatbatch, Inc. (GB)" width="300" height="180"></a><div id="display_links" class="display_links"><ul><li><a href="/echarts?s=GB#symbol=GB;range=1d">1d</a></li><li><a href="/echarts?s=GB#symbol=GB;range=5d">5d</a></li><li><a href="/echarts?s=GB#symbol=GB;range=1m">1m</a></li><li><a href="/echarts?s=GB#symbol=GB;range=3m">3m</a></li><li><a href="/echarts?s=GB#symbol=GB;range=6m">6m</a></li><li><a href="/echarts?s=GB#symbol=GB;range=1y">1y</a></li><li><a href="/echarts?s=GB#symbol=GB;range=2y">2y</a></li><li><a href="/echarts?s=GB#symbol=GB;range=5y">5y</a></li><li><a href="/echarts?s=GB#symbol=GB;range=my">max</a></li><li><a href="/echarts?s=GB#symbol=GB;range="></a></li></ul><a href="http://edit.finance.yahoo.com/e5a?.vk=s&amp;amp;.intl=uk&amp;amp;.done=http://uk.finance.yahoo.com/q?s=GB">customise chart</a></div></div></div><!--ADS:LOCATION=LREC--><div id="yfi_ads_lrec"><div style="min-height:265px; _height:265px; width:300px;margin:0pt auto;"><!-- APT Vendor: Right Media, Format: Standard Graphical -->
<SCRIPT TYPE="text/javascript" src="//ads.yahoo.com/st?ad_type=ad&K=1&T=3&ad_size=300x250&site=167888&section_code=293233532&cb=1417598423.219355&publisher_blob=${RS}|4ixz4jE4OC6syknOVH7V1wNPODQuMlR.1df__wyA|1186050006|LREC|1417598423.219355|${SECURE-DARLA}&yud=smpv%3d3%26ed%3dzxE1dF31xQzMnXQidpJpWNtPOVyg0bJDLmA-&pub_url=http%3A%2F%2Fuk.finance.yahoo.com"></SCRIPT><!--https://clicks.beap.bc.yahoo.com/yc/YnY9MS4wLjAmYnM9KDE3ZzgxMjdpayhnaWQkNGl4ejRqRTRPQzZzeWtuT1ZIN1Yxd05QT0RRdU1sUi4xZGZfX3d5QSxzdCQxNDE3NTk4NDIzMTc1MDAwLHNpJDMyMjM1MzIsc3AkMTE4NjA1MDAwNixjciQyODQ3Mjc4MDMyLHYkMi4wLGFpZCQyaFZSQ1FySUV1WS0sY3QkMjUseWJ4JHZ6cWI2R3BEd0h3T1RIUE1yd0NtOXcsYmkkMjI1NzQ1NTMyLG1tZSQyNjg5Njc4MzA5ODA4MjE2NDI3LGxuZyRlbi1nYixyJDAseW9vJDEsYWdwJDI5MzIzMzUzMixhcCRMUkVDKSk/1/*--><script>var url = ""; if(url && url.search("http") != -1){new Image().src = url;}</script><!--QYZ 225745532,2847278032,10.200.18.120;;LREC;1186050006;1;--><script language=javascript>
if(window.xzq_d==null)window.xzq_d=new Object();
window.xzq_d['2hVRCQrIEuY-']='(as$12qbgpu7o,aid$2hVRCQrIEuY-,bi$225745532,cr$2847278032,ct$25,at$HR,eob$gd1_match_id=-1:ypos=LREC)';
</script><noscript><img width=1 height=1 alt="" src="https://csc.beap.bc.yahoo.com/yi?bv=1.0.0&bs=(136sulmn9(gid$4ixz4jE4OC6syknOVH7V1wNPODQuMlR.1df__wyA,st$1417598423175000,si$3223532,sp$1186050006,pv$1,v$2.0))&t=JR_3-DR_3&al=(as$12qbgpu7o,aid$2hVRCQrIEuY-,bi$225745532,cr$2847278032,ct$25,at$HR,eob$gd1_match_id=-1:ypos=LREC)"></noscript></div></div><span id="yfs_ad_" ></span><span id="yfs_ad_" ></span><div id="yfi_comparison" class="yfi_suplimental_datum"><div class="hd"><h2>Comparison</h2></div><div class="bd"><table><thead><tr><th class="name" scope="col">Symbol</th><th class="percent_change" scope="col">% Chg</th><th scope="col">Mkt Cap</th></tr></thead><tbody><tr><td class="name highlight_row">GB</td><td class="highlight_row"><span id="yfs_pp0_gb"><img width="10" height="14" style="margin-right:-2px;" border="0" src="https://s.yimg.com/os/mit/media/m/base/images/transparent-1093278.png" class="neg_arrow" alt="Down"> <b class="
                yfi-price-change-down
            ">0.18%</b></span></td><td class="highlight_row"><span id="yfs_j10_gb">1.24b</span></td></tr><tr><td class="name"><a href="/q?s=EW" title="Edwards Lifesciences Corp.">EW</a></td><td></td><td><span id="yfs_j10_ew">14.16b</span></td></tr><tr><td class="name"><a href="/q?s=HEII" title="HEI Inc.">HEII</a></td><td></td><td><span id="yfs_j10_heii">2.22m</span></td></tr><tr><td class="name"><a href="/q?s=MDT" title="Medtronic, Inc.">MDT</a></td><td></td><td><span id="yfs_j10_mdt">73.16b</span></td></tr></tbody></table></div><div class="ft"><a href="q/co?s=GB">&#187; More Competitors</a></div></div><div id="yfi_key_stats" class="yfi_suplimental_datum"><div class="hd"><h2>Key Statistics</h2></div><div class="bd"><table><tr><th scope="row" width="50%">Forward P/E <small>(1 yr)</small>:</th><td class="yfnc_tabledata1">19.08</td></tr><tr><th scope="row" width="50%">P/S <small>(ttm)</small>:</th><td class="yfnc_tabledata1">1.79</td></tr><tr><th scope="row" width="50%">Ex-Dividend Date:</th><td class="yfnc_tabledata1">N/A</td></tr></table></div><div class="ft"><a href="/q/ks?s=GB">&#187; More Key Statistics</a></div></div><div id="yfi_analysts" class="yfi_suplimental_datum"><div class="hd"><h2>Analysts</h2></div><div class="bd"><table><tr><th scope="row" width="50%">Annual EPS Est<small>
                      (Dec-14)
                    </small>:</th><td class="yfnc_tabledata1">2.36</td></tr><tr><th scope="row" width="50%">Quarterly EPS Est<small>
                      (Dec-14)
                    </small>:</th><td class="yfnc_tabledata1">0.59</td></tr><tr><th scope="row" width="50%">Mean Recommendation*:</th><td class="yfnc_tabledata1">2.0</td></tr><tr><th scope="row" width="50%">PEG Ratio <small>(5 yr expected)</small>:</th><td class="yfnc_tabledata1">1.94</td></tr></table></div><div class="ft"><p>* (Strong Buy) 1.0 - 5.0 (Sell)</p><a href="/q/ao?s=GB">Analyst Opinion</a> | 
                        <a href="/q/ae?s=GB">Estimates</a></div></div><div id="yfi_business_summary"><div class="hd"><h2>Business Summary</h2></div><div class="bd">Greatbatch, Inc. is engaged in implantable medical and electrochem solutions businesses. It operates in two segments: Greatbatch Medical and QiG Group. <a href="/q/pr?s=GB" class="view_more">more</a></div><div class="ft"><a href="/q/pr?s=GB">Company Profile</a> | <a href="/q/in?s=GB">Industry</a></div></div><span id="yfs_ad_" ></span><div id="yfi_toolbox" class="yfi_suplimental_datum"><div class="hd"><h2>Toolbox</h2></div><div class="bd"><ul><li class="save"><a href="http://download.finance.yahoo.com/d/quotes.csv?s=GB&amp;f=sl1d1t1c1ohgv&amp;e=.csv">Download Data (delayed)</a></li><li class="report"><a href="http://yahoo.ar.wilink.com/?ticker=GB&amp;mkt_code=YAHSUMQTA">Download Annual Report</a></li><li class="mobile"><a href="http://uk.mobile.yahoo.com/finance">Updates on your phone</a></li></ul></div><div class="ft"></div></div><span id="yfs_ad_" ></span><span id="yfs_ad_" ></span></div></div><div class="yfi_ad_s"><!--ADS:LOCATION=S--><span id="yfs_ad_S" ><!-- APT Vendor: Right Media, Format: Standard Graphical -->
<script type="text/javascript" src="//ads.yahoo.com/st?ad_type=ad&K=1&ad_size=728x90&site=1198936&section_code=240274032&cb=1417598423.220592&publisher_blob=${RS}|4ixz4jE4OC6syknOVH7V1wNPODQuMlR.1df__wyA|1186050006|S|1417598423.220592|${SECURE-DARLA}&yud=smpv%3d3%26ed%3dzxE1dF31xQzMnXQidpJpWNtPOVyg0bJDLmA-&pub_url=http%3A%2F%2Fuk.finance.yahoo.com"></script> <!--https://clicks.beap.bc.yahoo.com/yc/YnY9MS4wLjAmYnM9KDE3ZDNjb2hlYShnaWQkNGl4ejRqRTRPQzZzeWtuT1ZIN1Yxd05QT0RRdU1sUi4xZGZfX3d5QSxzdCQxNDE3NTk4NDIzMTc1MDAwLHNpJDMyMjM1MzIsc3AkMTE4NjA1MDAwNixjciQyNzQxMzEwMDMyLHYkMi4wLGFpZCRQRmxSQ1FySUV1WS0sY3QkMjUseWJ4JHZ6cWI2R3BEd0h3T1RIUE1yd0NtOXcsYmkkMTg5ODA4NTMyLG1tZSQyNTQwNzU0NjEzNzg2MjQ4MDg1LGxuZyRlbi1nYixyJDAseW9vJDEsYWdwJDI0MDI3NDAzMixhcCRTKSk/1/*--><script>var url = ""; if(url && url.search("http") != -1){new Image().src = url;}</script><!--QYZ 189808532,2741310032,10.200.18.120;;S;1186050006;1;--><script language=javascript>
if(window.xzq_d==null)window.xzq_d=new Object();
window.xzq_d['PFlRCQrIEuY-']='(as$12q3hsgj4,aid$PFlRCQrIEuY-,bi$189808532,cr$2741310032,ct$25,at$HR,eob$gd1_match_id=-1:ypos=S)';
</script><noscript><img width=1 height=1 alt="" src="https://csc.beap.bc.yahoo.com/yi?bv=1.0.0&bs=(136sulmn9(gid$4ixz4jE4OC6syknOVH7V1wNPODQuMlR.1df__wyA,st$1417598423175000,si$3223532,sp$1186050006,pv$1,v$2.0))&t=JR_3-DR_3&al=(as$12q3hsgj4,aid$PFlRCQrIEuY-,bi$189808532,cr$2741310032,ct$25,at$HR,eob$gd1_match_id=-1:ypos=S)"></noscript></span></div></div>
</div>
<div id="yfi_ticker_container" class="yfi_ticker_container"><div id="yfi_stock_ticker"><div id="yfi_stock_ticker_settings_icon"></div><div id="yfi_stock_ticker_close_icon"></div><canvas id="stock_ticker" width="910" height="21">Your browser doesn't support canvas</canvas></div><div id="yfi_stock_ticker_settings" class="hide yfi_st_settings"><div class="yfi_ticker_hd"><em class="default">SETTINGS</em></div><div class="yfi_ticker_bd"><form method="post" action="#" id="ttpanel"><input type="hidden" name="userSignedIn" id="yfi_user_signed_in" value="1"><input type="hidden" name="ustreaming" id="ustreaming" value="0"><input type="hidden" name="userPreferences" id="yfi_user_preferences" value="1"><fieldset><legend>Scrolling</legend><input type="hidden" name="ttScroll" id="yfi_tt_scroll" value="0"><input type="radio" name="isPaused" id="yfi_ticker_resume" value="0" checked><label for="yfi_ticker_resume" class="first">On</label><input type="radio" name="isPaused" id="yfi_ticker_pause" value="1"><label for="yfi_ticker_pause" class="first">Off</label></fieldset><fieldset><legend>Speed</legend><input type="radio" name="scrollingSpeed" id="yfi_ticker_speed1" value="0" checked><label for="yfi_ticker_speed1" class="first">Slow</label><input type="radio" name="scrollingSpeed" id="yfi_ticker_speed2" value="1"><label for="yfi_ticker_speed2" class="first">Med</label><input type="radio" name="scrollingSpeed" id="yfi_ticker_speed3" value="2"><label for="yfi_ticker_speed3" class="first">Fast</label></fieldset><fieldset><legend for="tickerList">Display</legend><input type="hidden" name="ttDisplay" id="yfi_tt_display" value="0"><select id="tickerList"><option id="yfi_ticker_rq" selected>My Recent Quotes</option><option id="yfi_ticker_ms">Market Summary</option></select></fieldset><fieldset><legend>Price</legend><input type="radio" name="tickerChange" id="yfi_ticker_change1" value="0" checked><label for="yfi_ticker_change1" class="first">Change</label><input type="radio" name="tickerChange" id="yfi_ticker_change2" value="1"><label for="yfi_ticker_change2" class="first">% Change</label></fieldset><button type="submit" id="submitStSettings">Save</button><a href="http://feedback.help.yahoo.com/feedback.php?.src=FINANCE&amp;.from=tickertape&amp;.done=http://uk.finance.yahoo.com/q?s=GB" id="tt_submit_feedback" target="_blank">Submit Feedback</a></form></div></div></div><div id="yfi_ft"><div id="y-footer"><div class="footer_copyright"><div class="yfi_doc"><div class="footer_legal"><!--ADS:LOCATION=FOOT--><p>
  
  Copyright &copy; 2014 Yahoo! Inc.
  
  <a href="https://clicks.beap.bc.yahoo.com/yc/YnY9MS4wLjAmYnM9KDE3dGc1ZGc5ZShnaWQkNGl4ejRqRTRPQzZzeWtuT1ZIN1Yxd05QT0RRdU1sUi4xZGZfX3d5QSxzdCQxNDE3NTk4NDIzMTc1MDAwLHNpJDMyMjM1MzIsc3AkMTE4NjA1MDAwNixjciQyMjQ1MjYyMDMyLHYkMi4wLGFpZCRucHhSQ1FySUV1WS0sY3QkMjUseWJ4JHZ6cWI2R3BEd0h3T1RIUE1yd0NtOXcsYmkkOTg0MDgwMzIsbW1lJDIxNjU0MjE3MTY3NTQ2NDcxNjQsbG5nJGVuLWdiLHIkMCxyZCQxMTdwOHMxOGwseW9vJDEsYWdwJDEwMzM2MDAzMixhcCRGT09UQykp/0/*http://info.yahoo.com/privacy/uk/yahoo/">
    Privacy Policy
  </a>
  -
  
  <a href="https://clicks.beap.bc.yahoo.com/yc/YnY9MS4wLjAmYnM9KDE3dGFibWYwaChnaWQkNGl4ejRqRTRPQzZzeWtuT1ZIN1Yxd05QT0RRdU1sUi4xZGZfX3d5QSxzdCQxNDE3NTk4NDIzMTc1MDAwLHNpJDMyMjM1MzIsc3AkMTE4NjA1MDAwNixjciQyMjQ1MjYyMDMyLHYkMi4wLGFpZCRucHhSQ1FySUV1WS0sY3QkMjUseWJ4JHZ6cWI2R3BEd0h3T1RIUE1yd0NtOXcsYmkkOTg0MDgwMzIsbW1lJDIxNjU0MjE3MTY3NTQ2NDcxNjQsbG5nJGVuLWdiLHIkMSxyZCQxMW5iZWVmamMseW9vJDEsYWdwJDEwMzM2MDAzMixhcCRGT09UQykp/0/*http://info.yahoo.com/privacy/uk/yahoo/relevantads.html">
    About Our Ads
  </a>
  -
  
  <a href="https://clicks.beap.bc.yahoo.com/yc/YnY9MS4wLjAmYnM9KDE3dDVyY2NlaChnaWQkNGl4ejRqRTRPQzZzeWtuT1ZIN1Yxd05QT0RRdU1sUi4xZGZfX3d5QSxzdCQxNDE3NTk4NDIzMTc1MDAwLHNpJDMyMjM1MzIsc3AkMTE4NjA1MDAwNixjciQyMjQ1MjYyMDMyLHYkMi4wLGFpZCRucHhSQ1FySUV1WS0sY3QkMjUseWJ4JHZ6cWI2R3BEd0h3T1RIUE1yd0NtOXcsYmkkOTg0MDgwMzIsbW1lJDIxNjU0MjE3MTY3NTQ2NDcxNjQsbG5nJGVuLWdiLHIkMixyZCQxMThscnF2ajgseW9vJDEsYWdwJDEwMzM2MDAzMixhcCRGT09UQykp/0/*http://uk.docs.yahoo.com/info/terms.html">
    Terms of Service
  </a>
  -
  
  <a href="https://clicks.beap.bc.yahoo.com/yc/YnY9MS4wLjAmYnM9KDE3dHMybXA2YShnaWQkNGl4ejRqRTRPQzZzeWtuT1ZIN1Yxd05QT0RRdU1sUi4xZGZfX3d5QSxzdCQxNDE3NTk4NDIzMTc1MDAwLHNpJDMyMjM1MzIsc3AkMTE4NjA1MDAwNixjciQyMjQ1MjYyMDMyLHYkMi4wLGFpZCRucHhSQ1FySUV1WS0sY3QkMjUseWJ4JHZ6cWI2R3BEd0h3T1RIUE1yd0NtOXcsYmkkOTg0MDgwMzIsbW1lJDIxNjU0MjE3MTY3NTQ2NDcxNjQsbG5nJGVuLWdiLHIkMyxyZCQxMWo2a2EyYXYseW9vJDEsYWdwJDEwMzM2MDAzMixhcCRGT09UQykp/0/*http://help.yahoo.com/l/uk/yahoo/finance/index.html">
    Help
  </a>
  -
  
  <a href="https://clicks.beap.bc.yahoo.com/yc/YnY9MS4wLjAmYnM9KDE3dHA3aDdpOShnaWQkNGl4ejRqRTRPQzZzeWtuT1ZIN1Yxd05QT0RRdU1sUi4xZGZfX3d5QSxzdCQxNDE3NTk4NDIzMTc1MDAwLHNpJDMyMjM1MzIsc3AkMTE4NjA1MDAwNixjciQyMjQ1MjYyMDMyLHYkMi4wLGFpZCRucHhSQ1FySUV1WS0sY3QkMjUseWJ4JHZ6cWI2R3BEd0h3T1RIUE1yd0NtOXcsYmkkOTg0MDgwMzIsbW1lJDIxNjU0MjE3MTY3NTQ2NDcxNjQsbG5nJGVuLWdiLHIkNCxyZCQxMWwxazduZWUseW9vJDEsYWdwJDEwMzM2MDAzMixhcCRGT09UQykp/0/*http://help.yahoo.com/l/uk/yahoo/finance/general.html">
    Report Problems
  </a>
  - 
  <font size=2>
    Yahoo! News Network
  </font>
  
</p><!--QYZ 98408032,2245262032,10.200.18.120;;FOOTC;1186050006;1;--><script language=javascript>
if(window.xzq_d==null)window.xzq_d=new Object();
window.xzq_d['npxRCQrIEuY-']='(as$12p6gq6pd,aid$npxRCQrIEuY-,bi$98408032,cr$2245262032,ct$25,at$HR,eob$gd1_match_id=-1:ypos=PP.FOOT-FOOTC)';
</script><noscript><img width=1 height=1 alt="" src="https://csc.beap.bc.yahoo.com/yi?bv=1.0.0&bs=(136sulmn9(gid$4ixz4jE4OC6syknOVH7V1wNPODQuMlR.1df__wyA,st$1417598423175000,si$3223532,sp$1186050006,pv$1,v$2.0))&t=JR_3-DR_3&al=(as$12p6gq6pd,aid$npxRCQrIEuY-,bi$98408032,cr$2245262032,ct$25,at$HR,eob$gd1_match_id=-1:ypos=PP.FOOT-FOOTC)"></noscript><!-- SpaceID=1186050006 loc=AGOF noad --><!-- fac-gd2-noad --><!-- gd2-status-2 --><!--QYZ CMS_NONE_AVAIL,,10.200.18.120;;AGOF;1186050006;2;--><script language=javascript>
if(window.xzq_d==null)window.xzq_d=new Object();
window.xzq_d['FLNRCQrIEuY-']='(as$125biain5,aid$FLNRCQrIEuY-,cr$-1,ct$25,at$HR,eob$gd1_match_id=-1:ypos=AGOF)';
</script><noscript><img width=1 height=1 alt="" src="https://csc.beap.bc.yahoo.com/yi?bv=1.0.0&bs=(136sulmn9(gid$4ixz4jE4OC6syknOVH7V1wNPODQuMlR.1df__wyA,st$1417598423175000,si$3223532,sp$1186050006,pv$1,v$2.0))&t=JR_3-DR_3&al=(as$125biain5,aid$FLNRCQrIEuY-,cr$-1,ct$25,at$HR,eob$gd1_match_id=-1:ypos=AGOF)"></noscript><!-- SpaceID=1186050006 loc=AUD noad --><!-- fac-gd2-noad --><!-- gd2-status-2 --><!--QYZ CMS_NONE_AVAIL,,10.200.18.120;;AUD;1186050006;2;--><script language=javascript>
if(window.xzq_d==null)window.xzq_d=new Object();
window.xzq_d['islRCQrIEuY-']='(as$125aj518c,aid$islRCQrIEuY-,cr$-1,ct$25,at$HR,eob$gd1_match_id=-1:ypos=AUD)';
</script><noscript><img width=1 height=1 alt="" src="https://csc.beap.bc.yahoo.com/yi?bv=1.0.0&bs=(136sulmn9(gid$4ixz4jE4OC6syknOVH7V1wNPODQuMlR.1df__wyA,st$1417598423175000,si$3223532,sp$1186050006,pv$1,v$2.0))&t=JR_3-DR_3&al=(as$125aj518c,aid$islRCQrIEuY-,cr$-1,ct$25,at$HR,eob$gd1_match_id=-1:ypos=AUD)"></noscript><!-- SpaceID=1186050006 loc=BCN1 noad --><!-- fac-gd2-noad --><!-- gd2-status-2 --><!--QYZ CMS_NONE_AVAIL,,10.200.18.120;;BCN1;1186050006;2;--><script language=javascript>
if(window.xzq_d==null)window.xzq_d=new Object();
window.xzq_d['AOBRCQrIEuY-']='(as$125pjdfm8,aid$AOBRCQrIEuY-,cr$-1,ct$25,at$HR,eob$gd1_match_id=-1:ypos=BCN1)';
</script><noscript><img width=1 height=1 alt="" src="https://csc.beap.bc.yahoo.com/yi?bv=1.0.0&bs=(136sulmn9(gid$4ixz4jE4OC6syknOVH7V1wNPODQuMlR.1df__wyA,st$1417598423175000,si$3223532,sp$1186050006,pv$1,v$2.0))&t=JR_3-DR_3&al=(as$125pjdfm8,aid$AOBRCQrIEuY-,cr$-1,ct$25,at$HR,eob$gd1_match_id=-1:ypos=BCN1)"></noscript><!-- SpaceID=1186050006 loc=NUGG noad --><!-- fac-gd2-noad --><!-- gd2-status-2 --><!--QYZ CMS_NONE_AVAIL,,10.200.18.120;;NUGG;1186050006;2;--><script language=javascript>
if(window.xzq_d==null)window.xzq_d=new Object();
window.xzq_d['dvZRCQrIEuY-']='(as$125v94dcf,aid$dvZRCQrIEuY-,cr$-1,ct$25,at$HR,eob$gd1_match_id=-1:ypos=NUGG)';
</script><noscript><img width=1 height=1 alt="" src="https://csc.beap.bc.yahoo.com/yi?bv=1.0.0&bs=(136sulmn9(gid$4ixz4jE4OC6syknOVH7V1wNPODQuMlR.1df__wyA,st$1417598423175000,si$3223532,sp$1186050006,pv$1,v$2.0))&t=JR_3-DR_3&al=(as$125v94dcf,aid$dvZRCQrIEuY-,cr$-1,ct$25,at$HR,eob$gd1_match_id=-1:ypos=NUGG)"></noscript><!-- SpaceID=1186050006 loc=RMBT noad --><!-- fac-gd2-noad --><!-- gd2-status-2 --><!--QYZ CMS_NONE_AVAIL,,10.200.18.120;;RMBT;1186050006;2;--><script language=javascript>
if(window.xzq_d==null)window.xzq_d=new Object();
window.xzq_d['7AxSCQrIEuY-']='(as$125ata7ko,aid$7AxSCQrIEuY-,cr$-1,ct$25,at$HR,eob$gd1_match_id=-1:ypos=RMBT)';
</script><noscript><img width=1 height=1 alt="" src="https://csc.beap.bc.yahoo.com/yi?bv=1.0.0&bs=(136sulmn9(gid$4ixz4jE4OC6syknOVH7V1wNPODQuMlR.1df__wyA,st$1417598423175000,si$3223532,sp$1186050006,pv$1,v$2.0))&t=JR_3-DR_3&al=(as$125ata7ko,aid$7AxSCQrIEuY-,cr$-1,ct$25,at$HR,eob$gd1_match_id=-1:ypos=RMBT)"></noscript><!-- SpaceID=1186050006 loc=SIP noad --><!-- fac-gd2-noad --><!-- gd2-status-2 --><!--QYZ CMS_NONE_AVAIL,,10.200.18.120;;SIP;1186050006;2;--><script language=javascript>
if(window.xzq_d==null)window.xzq_d=new Object();
window.xzq_d['YiNSCQrIEuY-']='(as$125t55hrv,aid$YiNSCQrIEuY-,cr$-1,ct$25,at$HR,eob$gd1_match_id=-1:ypos=SIP)';
</script><noscript><img width=1 height=1 alt="" src="https://csc.beap.bc.yahoo.com/yi?bv=1.0.0&bs=(136sulmn9(gid$4ixz4jE4OC6syknOVH7V1wNPODQuMlR.1df__wyA,st$1417598423175000,si$3223532,sp$1186050006,pv$1,v$2.0))&t=JR_3-DR_3&al=(as$125t55hrv,aid$YiNSCQrIEuY-,cr$-1,ct$25,at$HR,eob$gd1_match_id=-1:ypos=SIP)"></noscript></div><div class="footer_legal"></div><div class="footer_disclaimer"><p>Quotes are <strong>real-time</strong> for NASDAQ, NYSE, and NYSE MKT. See also delay times for <a href="http://help.yahoo.com/l/us/yahoo/finance/quotes/fitadelay.html">other exchanges</a>. All information provided "as is" for informational purposes only, not intended for trading purposes or advice. Neither Yahoo! nor any of independent providers is liable for any informational errors, incompleteness, or delays, or for any actions taken in reliance on information contained herein. By accessing the Yahoo! site, you agree not to redistribute the information found therein. Real-Time continuous streaming quotes are available through our <a href="http://billing.finance.yahoo.com/realtime_quotes/signup?.src=quote&amp;.refer=quote">premium service.</a> You may turn streaming quotes on or off.</p><p>Fundamental company data provided by <a href="http://www.capitaliq.com">Capital IQ</a>. Historical chart data and daily updates provided by <a href="http://www.csidata.com">Commodity Systems, Inc. (CSI)</a>. International historical chart data, daily updates, fund summary, fund performance, dividend data and Morningstar Index data provided by <a href="http://www.morningstar.com/">Morningstar, Inc.</a> Real-Time quotes provided by <a href="http://batstrading.com">BATS Exchange</a>. US Financials data provided by <a href="http://www.edgar-online.com/">Edgar Online</a> and all other Financials provided by <a href="http://www.capitaliq.com">Capital IQ</a>. International historical chart data, daily updates, fundAnalyst estimates data provided by <a href="http://thomsonreuters.com/">Thomson Financial Network</a>. All data povided by Thomson Financial Network is based solely upon research information provided by third party analysts. Yahoo! has not reviewed, and in no way endorses the validity of such data. Yahoo! and ThomsonFN shall not be liable for any actions taken in reliance thereon.</p></div></div></div></div></div>
<div id="spaceid" style="display:none;">1186050006</div><script type="text/javascript">
                if(typeof YAHOO == "undefined"){YAHOO={};}
                if(typeof YAHOO.Finance == "undefined"){YAHOO.Finance={};}
                if(typeof YAHOO.Finance.SymbolSuggestConfig == "undefined"){YAHOO.Finance.SymbolSuggestConfig=[];}

                    YAHOO.Finance.SymbolSuggestConfig.push({
                        dsServer:'https://s.yimg.com/aq/autoc',
                        dsRegion:'GB',
                        dsLang:'en-GB',
                        dsFooter:'<div class="moreresults"><a class="[[tickdquote]]" href="https://uk.finance.yahoo.com/lookup?s=[[link]]">Show all results for [[tickdquote]]</a></div><div class="tip"><em>Tip:</em> Use comma (,) to separate multiple quotes. <a href="http://help.yahoo.com/l/uk/yahoo/finance/basics/quotelookup.html">Learn more...</a></div>',
                        acInputId:'txtQuotes',
                        acInputFormId:'quote',
                        acContainerId:'quoteContainer',
                        acModId:'mediaquotessearch',
			acInputFocus:'0'
                    });
				</script><script type="text/javascript" src="https://s.yimg.com/bm/combo?fi/common/p/d/static/js/2.0.356971/2.0.0/mini/yui-min-3.5.1.js&amp;fi/common/p/d/static/js/2.0.356971/yui_2.8.0/build/yuiloader-dom-event/2.0.0/mini/yuiloader-dom-event.js&amp;fi/common/p/d/static/js/2.0.356971/yui_2.8.0/build/container/2.0.0/mini/container.js&amp;fi/common/p/d/static/js/2.0.356971/yui_2.8.0/build/datasource/2.0.0/mini/datasource.js&amp;fi/common/p/d/static/js/2.0.356971/yui_2.8.0/build/autocomplete/2.0.0/mini/autocomplete.js&amp;fi/common/p/d/static/js/2.0.356971/2.0.0/mini/ylc_1.9.js&amp;fi/common/p/d/static/js/2.0.356971/2.0.0/mini/yfi_loader.js&amp;fi/common/p/d/static/js/2.0.356971/2.0.0/mini/yfi_symbol_suggest.js&amp;fi/common/p/d/static/js/2.0.356971/2.0.0/mini/yfi_init_symbol_suggest.js&amp;fi/common/p/d/static/js/2.0.356971/2.0.0/mini/yfi_nav_topnav_init.js&amp;fi/common/p/d/static/js/2.0.356971/2.0.0/mini/yfi_nav_topnav.js&amp;fi/common/p/d/static/js/2.0.356971/2.0.0/mini/yfi_nav_portfolio.js&amp;fi/common/p/d/static/js/2.0.356971/yui_2.8.0/build/get/2.0.0/mini/get.js&amp;fi/common/p/d/static/js/2.0.356971/2.0.0/mini/yfi_lazy_load.js"></script><script language="javascript">
	YUI.YUICfg = {"base":"https:\/\/s.yimg.com\/","comboBase":"https:\/\/s.yimg.com\/zz\/combo?","combine":true,"allowRollup":true,"maxURLLength":"2000"}
	YUI.YUICfg.root = 'yui:'+YUI.version+'/build/';
	YUI.applyConfig(YUI.YUICfg); 
    </script><!--ADS:LOCATION=RICH--><!-- SpaceID=1186050006 loc=RICH noad --><!-- fac-gd2-noad --><!-- gd2-status-2 --><!--QYZ CMS_NONE_AVAIL,,10.200.18.120;;RICH;1186050006;2;--><script language=javascript>
if(window.xzq_d==null)window.xzq_d=new Object();
window.xzq_d['KIZRCQrIEuY-']='(as$125haa9qe,aid$KIZRCQrIEuY-,cr$-1,ct$25,at$HR,eob$gd1_match_id=-1:ypos=RICH)';
</script><noscript><img width=1 height=1 alt="" src="https://csc.beap.bc.yahoo.com/yi?bv=1.0.0&bs=(136sulmn9(gid$4ixz4jE4OC6syknOVH7V1wNPODQuMlR.1df__wyA,st$1417598423175000,si$3223532,sp$1186050006,pv$1,v$2.0))&t=JR_3-DR_3&al=(as$125haa9qe,aid$KIZRCQrIEuY-,cr$-1,ct$25,at$HR,eob$gd1_match_id=-1:ypos=RICH)"></noscript><span id="yfs_params_vcr" style="display:none">{"yrb_token" : "YFT_MARKET_WILL_CLOSE", "tt" : "1417598423", "s" : "gb", "k" : "a00,a50,b00,b20,b30,b60,c10,c60,c63,c64,c81,c82,c85,c86,g00,g53,h00,h53,j10,l10,l84,l85,l86,l90,o40,o50,p20,p40,p43,p44,t10,t50,t53,t54,v00,v53,z08,z09", "o" : "ew,heii,mdt,^ftse,^FTSE,^FTMC,^FTAI,GBPUSD=X,GBPEUR=X,^gspc,^dji", "j" : "c10,c63,j10,l10,l84,p20,p43,t10,t53,v00", "e" : "1", "version" : "1.0", "market" : {"NAME" : "", "ID" : "uk_market", "TZ" : "GMT", "TZOFFSET" : "0", "open" : "", "close" : "", "flags" : {}} , "market_status_yrb" : "YFT_MARKET_WILL_CLOSE" , "portfolio" : { "fd" : { "txns" : [ ]},"dd" : "","pc" : "","pcs" : ""}, "SINGLE_QUOTE_PAGE" : { "symbol" : "GB","name" : "Greatbatch, Inc. Common Stock"}, "STREAMER_SERVER" : "//streamerapi.finance.yahoo.com", "DOC_DOMAIN" : "finance.yahoo.com", "localize" : "0" , "throttleInterval" : "1000" , "arrowAsChangeSign" : "true" , "up_arrow_icon" : "https://s.yimg.com/lq/i/us/fi/03rd/up_g.gif" , "down_arrow_icon" : "https://s.yimg.com/lq/i/us/fi/03rd/down_r.gif" , "up_color" : "green" , "down_color" : "red" , "pass_market_id" : "0" , "mu" : "1" , "lang" : "en-GB" , "region" : "GB" , "ticker_currency_sym" : "USD" }</span><span style="display:none" id="yfs_enable_chrome">1</span><input type="hidden" id=".yficrumb" name=".yficrumb" value=""><script type="text/javascript">
				ll_js.push({
				    'file':'bm/lib/fi/common/p/d/static/js/2.0.356971/2.0.0/mini/yfs_concat.js&bm/lib/fi/common/p/d/static/js/2.0.356971/translations/2.0.0/mini/yfs_l10n_en-GB.js',
				    'combo' : '1',
				    'success_callback' : function() {
				        YAHOO.Finance.Streaming.init();
				    }
				});

			</script><script type="text/javascript"> 	 
		if(typeof YAHOO.Finance.TickerTapeConfig == "undefined"){YAHOO.Finance.TickerTapeConfig={};}
                YAHOO.Finance.TickerTapeConfig={ "config" : [
                        { 'mstickers': "^FTSE,^FTMC,^FTAI,GBPUSD=X,GBPEUR=X,^gspc,^dji",
                          'mstickersdn': "'FTSE 100','FTSE 250','AIM','GBP/USD','GBP/EUR','S&P 500','Dow Jones'"
			}
                ] }
                

                ll_js.push({
                            'file': 'bm/lib/fi/common/p/d/static/js/2.0.356971/2.0.0/mini/yfi_ticker.js',
                            'combo' : '1'
                });
	        var appleDevicePattern = new RegExp("(iPad|iPhone|iPod)"); 	 
	        if ( navigator.userAgent.match( appleDevicePattern ) ) { 	 
	                 YAHOO.util.Dom.setStyle('yfi_stock_ticker','position','static'); 	 
	        } else { 	 
	  		// Do nothing 
	        } 	 
	        </script><script type="text/javascript">
		// set side nav height
		(function() {
			var nav = YAHOO.util.Dom.get("yfi_investing_nav");
			if (nav) {
				var content = YAHOO.util.Dom.get("yfi_investing_content");
				if (nav.offsetHeight < content.offsetHeight) {
					nav.style.height = content.offsetHeight + "px";
				}
			}
		}());		
	</script><span id="yfs_ad_" ></span><script>
        //init LH if
        if (window.location.href.indexOf('showaft=') != -1 || Math.floor(Math.random()*100) <= 3 ){
		var aft_beacon_callback = function() {

		    if (window.LH !== undefined) {

		        if ( !window.LH.isInitialized) {
		            window.LH.init(
		            {
		    	        spaceid:'1186050006', //your space id goes here
			        serverip:'',
			        pvid:'',
			        crumb:''
		            });
			}

		        if (window.LH.isInitialized && window.YAFT !== undefined) {
			//UH might initilized LH or above cases satisfied. Now configure YAFT

			    window.LH.tag("b", 
			    {
			        val: '' //set your bucket id
			    });
	
			    var show_report = (window.location.href.indexOf('showaft=') != -1) ? 1 : 0;
			    var aft_mods = [],
			    	each_mod = '';
			    var mods = window.RAPID_ULT.tracked_mods; //Reusing the module list from rapid
			    for (each_mod in mods) {
			      aft_mods.push(each_mod)
			    }

			    window.YAFT.init(
			    {
			        modules: aft_mods,
			        modulesExclude: ['yfi_ft'],
			        canShowVisualReport: show_report, //make it configurable and 1 for YNET users 
			        maxWaitTime: 5000 // make it configurable
			    }, function (data, error) {
			        if (!error) {

				    window.LH.record('AFT', {
				        name: 'AFT', type: 'mark', startTime: Math.round(data.aft), duration: 0
				    });
				    window.LH.record('VIC', {
				        name: 'VIC', type: 'mark', startTime: Math.round(data.visuallyComplete), duration: 0
				    });
				    //this is for darla ads
				    if ( window.___adLT___ !== undefined && window.___adLT___.length && window.___adLT___.length > 0) {
				        for (var __i__ = 0; __i__ < ___adLT___.length; __i__++) {
				    	    window.LH.record(___adLT___[__i__][0], {
				    	        name: ___adLT___[__i__][0], type: 'mark', startTime: ___adLT___[__i__][1], duration: 0
					    });
				        }
				    }
				    //finally fire all LH beacons
				    window.LH.beacon( {
				        clearMarks:false, clearMeasures: false, clearCustomEntries: true, clearTags: false
				    });
			        }
			    });

		        }
		    }
                }
		
		YAHOO.util.Get.script('https://s.yimg.com/zz/combo?aj/lh-0.9.js&os/mit/media/p/content/content-aft-min-8acb8a6.js', {
		    onSuccess: aft_beacon_callback
		});
            }
</script></body>
</html>
<!-- xslt1.finance.ir2.yahoo.com uncompressed/chunked Wed Dec  3 09:20:23 UTC 2014 -->
<script language=javascript>
(function(){window.xzq_p=function(R){M=R};window.xzq_svr=function(R){J=R};function F(S){var T=document;if(T.xzq_i==null){T.xzq_i=new Array();T.xzq_i.c=0}var R=T.xzq_i;R[++R.c]=new Image();R[R.c].src=S}window.xzq_sr=function(){var S=window;var Y=S.xzq_d;if(Y==null){return }if(J==null){return }var T=J+M;if(T.length>P){C();return }var X="";var U=0;var W=Math.random();var V=(Y.hasOwnProperty!=null);var R;for(R in Y){if(typeof Y[R]=="string"){if(V&&!Y.hasOwnProperty(R)){continue}if(T.length+X.length+Y[R].length<=P){X+=Y[R]}else{if(T.length+Y[R].length>P){}else{U++;N(T,X,U,W);X=Y[R]}}}}if(U){U++}N(T,X,U,W);C()};function N(R,U,S,T){if(U.length>0){R+="&al="}F(R+U+"&s="+S+"&r="+T)}function C(){window.xzq_d=null;M=null;J=null}function K(R){xzq_sr()}function B(R){xzq_sr()}function L(U,V,W){if(W){var R=W.toString();var T=U;var Y=R.match(new RegExp("\\\\(([^\\\\)]*)\\\\)"));Y=(Y[1].length>0?Y[1]:"e");T=T.replace(new RegExp("\\\\([^\\\\)]*\\\\)","g"),"("+Y+")");if(R.indexOf(T)<0){var X=R.indexOf("{");if(X>0){R=R.substring(X,R.length)}else{return W}R=R.replace(new RegExp("([^a-zA-Z0-9$_])this([^a-zA-Z0-9$_])","g"),"$1xzq_this$2");var Z=T+";var rv = f( "+Y+",this);";var S="{var a0 = '"+Y+"';var ofb = '"+escape(R)+"' ;var f = new Function( a0, 'xzq_this', unescape(ofb));"+Z+"return rv;}";return new Function(Y,S)}else{return W}}return V}window.xzq_eh=function(){if(E||I){this.onload=L("xzq_onload(e)",K,this.onload,0);if(E&&typeof (this.onbeforeunload)!=O){this.onbeforeunload=L("xzq_dobeforeunload(e)",B,this.onbeforeunload,0)}}};window.xzq_s=function(){setTimeout("xzq_sr()",1)};var J=null;var M=null;var Q=navigator.appName;var H=navigator.appVersion;var G=navigator.userAgent;var A=parseInt(H);var D=Q.indexOf("Microsoft");var E=D!=-1&&A>=4;var I=(Q.indexOf("Netscape")!=-1||Q.indexOf("Opera")!=-1)&&A>=4;var O="undefined";var P=2000})();
</script><script language=javascript>
if(window.xzq_svr)xzq_svr('https://csc.beap.bc.yahoo.com/');
if(window.xzq_p)xzq_p('yi?bv=1.0.0&bs=(136sulmn9(gid$4ixz4jE4OC6syknOVH7V1wNPODQuMlR.1df__wyA,st$1417598423175000,si$3223532,sp$1186050006,pv$1,v$2.0))&t=JR_3-DR_3');
if(window.xzq_s)xzq_s();
</script><noscript><img width=1 height=1 alt="" src="https://csc.beap.bc.yahoo.com/yi?bv=1.0.0&bs=(136sulmn9(gid$4ixz4jE4OC6syknOVH7V1wNPODQuMlR.1df__wyA,st$1417598423175000,si$3223532,sp$1186050006,pv$1,v$2.0))&t=JR_3-DR_3"></noscript><script>(function(c){var d="https://",a=c&&c.JSON,e="ypcdb",g=document,b;function j(n,q,p,o){var m,r;try{m=new Date();m.setTime(m.getTime()+o*1000);g.cookie=[n,"=",encodeURIComponent(q),"; domain=",p,"; path=/; max-age=",o,"; expires=",m.toUTCString()].join("")}catch(r){}}function k(m){return function(){i(m)}}function i(n){var m,o;try{m=new Image();m.onerror=m.onload=function(){m.onerror=m.onload=null;m=null};m.src=n}catch(o){}}function f(o){var p="",n,s,r,q;if(o){try{n=o.match(/^https?:\/\/([^\/\?]*)(yahoo\.com|yimg\.com|flickr\.com|yahoo\.net|rivals\.com)(:\d+)?([\/\?]|$)/);if(n&&n[2]){p=n[2]}n=(n&&n[1])||null;s=n?n.length-1:-1;r=n&&s>=0?n[s]:null;if(r&&r!="."&&r!="/"){p=""}}catch(q){p=""}}return p}function l(B,n,q,m,p){var u,s,t,A,r,F,z,E,C,y,o,D,x,v=1000,w=v;try{b=location}catch(z){b=null}try{if(a){C=a.parse(p)}else{y=new Function("return "+p);C=y()}}catch(z){C=null}if(y){y=null}try{s=b.hostname;t=b.protocol;if(t){t+="//"}}catch(z){s=t=""}if(!s){try{A=g.URL||b.href||"";r=A.match(/^((http[s]?)\:[\/]+)?([^:\/\s]+|[\:\dabcdef\.]+)/i);if(r&&r[1]&&r[3]){t=r[1]||"";s=r[3]||""}}catch(z){t=s=""}}if(!s||!C||!t||!q){return}A=g.URL||b.href||"";E=f(A);if(!E||g.cookie.indexOf("ypcdb="+n)>-1){return}if(t===d){q=m}u=0;while(F=q[u++]){o=F.lastIndexOf("=");if(o!=-1){D=F.substr(1+o);x=C[D];if(x){setTimeout(k(t+F+x),w);w+=v}}}u=0;while(F=B[u++]){setTimeout(k(t+F),w);w+=v}setTimeout(function(){j(e,n,E,86400)},w)}function h(){l([],'b65dc0ff7bdf1bd5a3c7d19806a98ecc',['csync.flickr.com/csync?ver=2.1','csync.yahooapis.com/csync?ver=2.1','u2sb.interclick.com/beacon.gif?ver=2.1'],['cdnk.interclick.com/beacon.gif?ver=2.1','csync.flickr.com/csync?ver=2.1','csync.yahooapis.com/csync?ver=2.1'],'{"2.1":"&id=23351&value=ncvv9ccn7gyra%26o%3d3%26f%3dd0&optout=&timeout=1417598423&sig=11gkm2pdr"}')}if(c.addEventListener){c.addEventListener("load",h,false)}else{if(c.attachEvent){c.attachEvent("onload",h)}else{c.onload=h}}})(window);
</script>
<!-- c5.finance.ir2.yahoo.com uncompressed/chunked Wed Dec  3 09:20:23 UTC 2014 -->
";}