a:3:{s:4:"time";i:1417023933;s:3:"ttl";i:315360000;s:4:"data";s:2735:"140226: 24.00
140227: 25.095
140228: 25.05
140303: 24.285
140304: 24.405
140305: 24.395
140306: 24.45
140307: 24.465
140310: 24.35
140311: 24.335
140312: 24.20
140313: 23.63
140314: 23.80
140317: 24.995
140318: 25.10
140319: 25.00
140320: 25.00
140321: 24.88
140324: 24.85
140325: 24.90
140326: 24.80
140327: 24.90
140328: 24.705
140331: 24.85
140401: 24.98
140402: 24.99
140403: 24.90
140404: 25.05
140407: 24.90
140408: 24.995
140409: 25.245
140410: 25.09
140411: 25.05
140414: 24.94
140415: 25.00
140416: 24.65X
140417: 24.80
140422: 24.80
140423: 24.70
140424: 24.70
140425: 24.70
140428: 24.70
140429: 24.55
140430: 24.55
140502: 24.69
140505: 24.90
140506: 24.70
140507: 24.70
140508: 25.70
140509: 25.785
140512: 25.79
140513: 25.60
140514: 25.25
140515: 25.40
140516: 25.25
140519: 25.36
140520: 25.10
140521: 25.345
140522: 25.50
140523: 25.50
140526: 25.73
140527: 25.62
140528: 25.845
140529: 25.945
140530: 25.81
140602: 25.79
140603: 25.885
140604: 25.85
140605: 26.035
140606: 26.00
140609: 26.00
140610: 26.05
140611: 25.92
140612: 25.85
140613: 25.655
140616: 25.56
140617: 25.575
140618: 25.775
140619: 25.65
140620: 25.64
140623: 25.48
140624: 25.25
140625: 24.84
140626: 24.755
140627: 25.40
140630: 25.345
140701: 25.04
140702: 25.48
140703: 25.35
140704: 25.13
140707: 25.01
140708: 24.805
140709: 24.46
140710: 24.20
140711: 24.55
140714: 24.50
140715: 24.475
140716: 24.45
140717: 24.37
140718: 24.275
140721: 24.00
140722: 23.93
140723: 23.645
140724: 23.61
140725: 23.49
140728: 23.34
140729: 23.29
140730: 23.50
140731: 23.30
140801: 23.00
140804: 23.00
140805: 22.88
140806: 22.69
140807: 22.105
140808: 22.17
140811: 23.14
140812: 22.725
140813: 22.89
140814: 23.00
140815: 22.99
140818: 23.10
140819: 23.95
140820: 23.995
140821: 23.895
140822: 23.97
140825: 23.97
140826: 23.965
140827: 23.80
140828: 23.315
140829: 22.925
140901: 22.88
140902: 23.00
140903: 23.50
140904: 23.56
140905: 23.60
140908: 23.285
140909: 23.25
140910: 23.035
140911: 23.05
140912: 23.03
140915: 22.945
140916: 22.48
140917: 22.65
140918: 23.00
140919: 22.90
140922: 22.97
140923: 22.70
140924: 22.665
140925: 22.32
140926: 22.33
140929: 22.19
140930: 22.08
141001: 22.09
141002: 21.90
141003: 21.755
141006: 22.10
141007: 21.875
141008: 21.17
141009: 21.105
141010: 21.885
141013: 21.165
141014: 20.78
141015: 19.65
141016: 19.415
141017: 20.00
141020: 20.50
141021: 21.40
141022: 21.90
141023: 22.00
141024: 21.95
141027: 21.75
141028: 22.00
141029: 22.00
141030: 22.75
141031: 22.25
141103: 22.19
141104: 22.30
141105: 21.97
141106: 22.73
141107: 22.90
141110: 22.85
141111: 22.635
141112: 22.45
141113: 22.18
141114: 22.10
141117: 22.00
141118: 21.985
141119: 22.00
141120: 22.00
141121: 22.505
141124: 22.65
141125: 22.845
";}