a:3:{s:4:"time";i:1417023891;s:3:"ttl";i:315360000;s:4:"data";s:2689:"140226: 63.31
140227: 62.81
140228: 63.05
140303: 62.30
140304: 64.78
140305: 65.24
140306: 65.97
140307: 65.61
140310: 65.42
140311: 65.07
140312: 65.33
140313: 64.95
140314: 64.61
140317: 65.16
140318: 65.60
140319: 65.80
140320: 66.95
140321: 67.18
140324: 65.87
140325: 66.27
140326: 67.54
140327: 67.11
140328: 67.15
140331: 67.23
140401: 67.70
140402: 67.52
140403: 67.55
140404: 67.34
140407: 66.13
140408: 65.53
140409: 65.94
140410: 65.80
140411: 63.53
140414: 62.77
140415: 61.75
140416: 58.50
140417: 59.08
140422: 59.52
140423: 59.46
140424: 60.85
140425: 59.51X
140428: 59.24
140429: 59.69
140430: 59.43
140502: 58.54
140505: 58.06
140506: 57.57
140507: 58.00
140508: 58.89
140509: 58.57
140512: 59.43
140513: 59.62
140514: 59.35
140515: 58.80
140516: 59.03
140519: 59.41
140520: 59.42
140521: 60.10
140522: 60.88
140523: 61.06
140526: 61.43
140527: 62.72
140528: 62.61
140529: 62.61
140530: 62.96
140602: 63.33
140603: 63.52
140604: 63.64
140605: 64.16
140606: 65.19
140609: 65.65
140610: 65.86
140611: 66.48
140612: 66.30
140613: 66.02
140616: 66.85
140617: 67.34
140618: 68.35
140619: 68.44
140620: 69.61
140623: 67.92
140624: 68.57
140625: 67.90
140626: 67.35
140627: 67.62
140630: 68.01
140701: 69.08
140702: 68.60
140703: 70.25
140704: 70.68
140707: 70.42
140708: 69.24
140709: 68.70
140710: 68.14
140711: 67.42
140714: 67.04
140715: 66.96
140716: 64.87
140717: 64.00
140718: 63.67
140721: 64.81
140722: 65.01
140723: 64.75
140724: 64.44
140725: 63.14
140728: 62.73
140729: 62.20
140730: 70.88
140731: 70.76
140801: 69.20
140804: 67.87
140805: 68.33
140806: 68.79
140807: 68.75
140808: 67.65
140811: 69.00
140812: 68.31
140813: 68.20
140814: 68.04
140815: 67.85
140818: 69.22
140819: 70.01
140820: 69.74
140821: 70.51
140822: 70.73
140825: 72.14
140826: 72.52
140827: 72.34
140828: 72.55
140829: 72.81
140901: 73.57
140902: 75.81
140903: 74.95
140904: 76.25
140905: 75.48
140908: 75.59
140909: 75.48
140910: 75.30
140911: 75.83
140912: 76.95
140915: 77.25
140916: 77.29
140917: 77.49
140918: 78.89
140919: 78.70
140922: 78.02
140923: 76.80
140924: 78.17
140925: 77.77
140926: 78.56
140929: 78.56
140930: 78.82
141001: 77.50
141002: 75.80
141003: 78.10
141006: 77.83
141007: 75.90
141008: 74.59
141009: 74.84
141010: 71.84
141013: 71.93
141014: 73.90
141015: 70.20
141016: 71.29
141017: 72.78
141020: 71.92
141021: 72.77
141022: 73.86
141023: 74.30
141024: 74.68
141027: 74.98
141028: 76.28
141029: 76.15
141030: 77.02
141031: 79.45
141103: 79.61
141104: 78.40
141105: 79.79
141106: 82.00
141107: 79.79
141110: 81.30
141111: 81.76
141112: 81.65
141113: 81.92
141114: 81.59
141117: 82.15
141118: 82.74
141119: 84.08
141120: 84.06
141121: 85.21
141124: 83.11
141125: 83.00
";}