a:3:{s:4:"time";i:1417122297;s:3:"ttl";i:315360000;s:4:"data";s:3049:"<!DOCTYPE html PUBLIC "-//W3C//DTD XHTML 1.0 Transitional//EN" "http://www.w3.org/TR/xhtml1/DTD/xhtml1-transitional.dtd">
<html xmlns="http://www.w3.org/1999/xhtml" xml:lang="nl" lang="nl">
<html><head><title>Slotkoersen Eurocastle&nbsp;inv
</title></head>
<body><table border=0 width=100%>
<tr><td width=50%>
<pre>140228: 6.90
140303: 6.95
140304: 6.96
140305: 6.96
140306: 6.95
140307: 6.99
140310: 6.92
140311: 7.00
140312: 7.00
140313: 6.90
140314: 6.83
140317: 6.81
140318: 6.78
140319: 6.80
140320: 6.75
140321: 6.70
140324: 6.63
140325: 6.55
140326: 6.56
140327: 6.56
140328: 6.59
140331: 6.56
140401: 6.60
140402: 6.57
140403: 6.61
140404: 6.60
140407: 6.59
140408: 6.58
140409: 6.56
140410: 6.41
140411: 6.39
140414: 6.34
140415: 6.29
140416: 6.37
140417: 6.37
140422: 6.50
140423: 6.49
140424: 6.30
140425: 6.29
140428: 6.30
140429: 6.25
140430: 6.25
140502: 6.20
140505: 6.17
140506: 6.25
140507: 6.21
140508: 6.50
140509: 6.60
140512: 6.78
140513: 6.83
140514: 6.95
140515: 6.72
140516: 6.69
140519: 6.64
140520: 6.60
140521: 6.69
140522: 6.68
140523: 6.61
140526: 6.71
140527: 6.89
140528: 7.08
140529: 7.08
140530: 7.11
140602: 7.35
140603: 7.40
140604: 7.40
140605: 7.40
140606: 7.50
140609: 7.46
140610: 7.26
140611: 7.20
140612: 7.12
140613: 7.14
140616: 7.14
140617: 7.40
140618: 7.39
140619: 7.39
140620: 7.39
140623: 7.39
140624: 7.22
140625: 7.19
140626: 7.18
140627: 7.18
140630: 7.10
140701: 7.10
140702: 7.10
140703: 7.17
140704: 7.18
140707: 7.17
140708: 7.17
140709: 7.08
140710: 7.07
140711: 7.10
140714: 7.10
140715: 7.09
140716: 7.09
140717: 7.09
140718: 7.09
140721: 7.10
140722: 7.10
140723: 7.10
140724: 7.10
140725: 7.10
140728: 7.03
140729: 7.03
140730: 6.99
140731: 7.00
140801: 7.00
140804: 6.90
140805: 6.80
140806: 6.84
140807: 6.84
140808: 6.79
140811: 6.85
140812: 6.83
140813: 6.80
140814: 6.79
140815: 6.74
140818: 6.74
140819: 6.74
140820: 6.74
140821: 6.73
140822: 6.73
140825: 6.46
140826: 6.50
140827: 6.51
140828: 6.84
140829: 6.84
140901: 6.84
140902: 6.78
140903: 6.80
140904: 6.83
140905: 6.82
140908: 6.75
140909: 6.75
140910: 6.75
140911: 6.70
140912: 6.70
140915: 6.70
140916: 6.75
140917: 6.75
140918: 6.75
140919: 6.75
140922: 6.75
140923: 6.75
140924: 6.75
140925: 6.56
140926: 6.56
140929: 6.63
140930: 6.63
141001: 6.50
141002: 6.48
141003: 6.50
141006: 6.50
141007: 7.00
141008: 6.95
141009: 6.74
141010: 6.68
141013: 6.75
141014: 6.75
141015: 6.75
141016: 6.75
141017: 6.90
141020: 6.88
141021: 6.88
141022: 6.88
141023: 6.88
141024: 6.88
141027: 6.80
141028: 6.79
141029: 6.77
141030: 6.80
141031: 6.80
141103: 6.65
141104: 6.80
141105: 6.80
141106: 6.90
141107: 6.90
141110: 6.60
141111: 6.65
141112: 6.63
141113: 6.63
141114: 6.68
141117: 6.75
141118: 6.85
141119: 6.85
141120: 6.85
141121: 6.85
141124: 6.90
141125: 7.00
141126: 7.00
141127: 7.00
</td><td  valign=top>&nbsp;&nbsp;</td></tr></table>

<script src="http://www.google-analytics.com/urchin.js" type="text/javascript"></script>
<script type="text/javascript">_uacct = "UA-2183389-1";urchinTracker();</script>
</body></html>
";}