a:3:{s:4:"time";i:1417023975;s:3:"ttl";i:315360000;s:4:"data";s:3072:"140226: 1.66681
140227: 1.66884
140228: 1.67478
140303: 1.66633
140304: 1.66666
140305: 1.67207
140306: 1.67377
140307: 1.67191
140310: 1.66463
140311: 1.66159
140312: 1.66199
140313: 1.66243
140314: 1.66691
140317: 1.66350
140318: 1.65903
140319: 1.65376
140320: 1.65091
140321: 1.64867
140324: 1.64964
140325: 1.65301
140326: 1.65799
140327: 1.66089
140328: 1.66384
140331: 1.66639
140401: 1.66300
140402: 1.66229
140403: 1.65961
140404: 1.65714
140407: 1.66054
140408: 1.67491
140409: 1.67911
140410: 1.67821
140411: 1.67363
140414: 1.67276
140415: 1.67277
140416: 1.67975
140417: 1.67923
140422: 1.68252
140423: 1.67814
140424: 1.68024
140425: 1.68031
140428: 1.68078
140429: 1.68276
140430: 1.68715
140502: 1.68700
140505: 1.68690
140506: 1.69747
140507: 1.69544
140508: 1.69320
140509: 1.68480
140512: 1.68692
140513: 1.68248
140514: 1.67690
140515: 1.67911
140516: 1.68120
140519: 1.68151
140520: 1.68399
140521: 1.69009
140522: 1.68683
140523: 1.68308
140526: 1.68438
140527: 1.68083
140528: 1.67134
140529: 1.67156
140530: 1.67574
140602: 1.67461
140603: 1.67501
140604: 1.67382
140605: 1.68191
140606: 1.68048
140609: 1.67999
140610: 1.67564
140611: 1.67888
140612: 1.69185
140613: 1.69630
140616: 1.69811
140617: 1.69618
140618: 1.69928
140619: 1.70428
140620: 1.70154
140623: 1.70257
140624: 1.69857
140625: 1.69818
140626: 1.70249
140627: 1.70342
140630: 1.71067
140701: 1.71510
140702: 1.71656
140703: 1.71554
140704: 1.71580
140707: 1.71279
140708: 1.71306
140709: 1.71563
140710: 1.71342
140711: 1.71222
140714: 1.70834
140715: 1.71435
140716: 1.71363
140717: 1.71020
140718: 1.70863
140721: 1.70751
140722: 1.70654
140723: 1.70436
140724: 1.69879
140725: 1.69736
140728: 1.69836
140729: 1.69384
140730: 1.68997
140731: 1.69179
140801: 1.68287
140804: 1.68599
140805: 1.68842
140806: 1.68539
140807: 1.68330
140808: 1.67778
140811: 1.67865
140812: 1.68122
140813: 1.66911
140814: 1.66861
140815: 1.66921
140818: 1.67282
140819: 1.66180
140820: 1.65939
140821: 1.65791
140822: 1.65743
140825: 1.65791
140826: 1.65412
140827: 1.65768
140828: 1.65872
140829: 1.66020
140901: 1.66090
140902: 1.64704
140903: 1.64618
140904: 1.63286
140905: 1.63320
140908: 1.61085
140909: 1.61095
140910: 1.62125
140911: 1.62241
140912: 1.62632
140915: 1.62349
140916: 1.62637
140917: 1.62807
140918: 1.63941
140919: 1.62912
140922: 1.63657
140923: 1.63906
140924: 1.63369
140925: 1.63152
140926: 1.62540
140929: 1.62410
140930: 1.62119
141001: 1.61801
141002: 1.61408
141003: 1.59677
141006: 1.60792
141007: 1.60959
141008: 1.61709
141009: 1.61193
141010: 1.60698
141013: 1.60904
141014: 1.59108
141015: 1.60128
141016: 1.60889
141017: 1.60893
141020: 1.61657
141021: 1.61128
141022: 1.60498
141023: 1.60328
141024: 1.60857
141027: 1.61173
141028: 1.61326
141029: 1.60140
141030: 1.60064
141031: 1.59953
141103: 1.59761
141104: 1.59974
141105: 1.59731
141106: 1.58308
141107: 1.58693
141110: 1.58440
141111: 1.59176
141112: 1.57830
141113: 1.57096
141114: 1.56680
141117: 1.56377
141118: 1.56339
141119: 1.56826
141120: 1.56938
141121: 1.56542
141124: 1.57069
141125: 1.57046
";}