a:3:{s:4:"time";i:1417023968;s:3:"ttl";i:315360000;s:4:"data";s:2688:"140226: 22.84
140227: 22.84
140228: 22.84
140303: 22.84
140304: 22.84
140305: 22.84
140306: 22.84
140307: 21.45
140310: 21.45
140311: 21.45
140312: 21.45
140313: 21.45
140314: 21.35
140317: 21.35
140318: 21.35
140319: 21.35
140320: 21.35
140321: 21.35
140324: 21.35
140325: 22.00
140326: 22.51
140327: 22.27
140328: 22.27
140331: 22.01
140401: 22.01
140402: 22.01
140403: 22.01
140404: 22.01
140407: 22.01
140408: 22.01
140409: 22.01
140410: 22.01
140411: 22.01
140414: 22.01
140415: 22.25
140416: 22.25
140417: 22.25
140422: 23.10
140423: 23.10
140424: 23.40
140425: 23.10
140428: 23.10
140429: 23.10
140430: 23.10
140502: 23.10
140505: 23.10
140506: 23.10
140507: 22.04
140508: 22.04
140509: 22.04
140512: 22.04
140513: 22.04
140514: 23.00
140515: 24.50
140516: 24.50
140519: 24.50
140520: 24.50
140521: 24.50
140522: 24.45
140523: 24.50
140526: 25.56
140527: 25.56
140528: 24.80
140529: 24.85
140530: 24.59
140602: 25.00
140603: 24.50
140604: 24.50
140605: 24.50
140606: 24.65
140609: 24.65
140610: 24.95
140611: 24.95
140612: 26.10
140613: 26.10
140616: 26.10
140617: 24.95
140618: 24.95
140619: 24.95
140620: 24.95
140623: 24.95
140624: 24.95
140625: 24.95
140626: 24.95
140627: 24.95
140630: 24.95
140701: 24.95
140702: 25.00
140703: 25.00
140704: 25.00
140707: 25.00
140708: 25.00
140709: 25.00
140710: 25.00
140711: 25.07
140714: 25.07
140715: 25.07
140716: 26.00
140717: 25.00
140718: 25.00
140721: 25.55
140722: 25.55
140723: 25.55
140724: 25.55
140725: 25.55
140728: 25.35
140729: 25.35
140730: 25.30
140731: 25.30
140801: 25.30
140804: 25.00
140805: 25.00
140806: 25.00
140807: 25.00
140808: 25.00
140811: 25.00
140812: 25.00
140813: 25.10
140814: 25.10
140815: 24.24
140818: 24.16
140819: 24.16
140820: 24.16
140821: 24.16
140822: 24.16
140825: 24.16
140826: 25.10
140827: 25.10
140828: 25.10
140829: 25.10
140901: 25.10
140902: 25.10
140903: 25.10
140904: 25.10
140905: 25.09
140908: 25.09
140909: 24.41
140910: 24.39
140911: 24.39
140912: 25.10
140915: 25.10
140916: 25.10
140917: 25.20
140918: 25.20
140919: 24.87
140922: 24.87
140923: 24.87
140924: 24.87
140925: 24.87
140926: 24.87
140929: 24.50
140930: 24.78
141001: 24.78
141002: 24.78
141003: 24.78
141006: 25.31
141007: 24.65
141008: 24.65
141009: 24.65
141010: 23.38
141013: 23.38
141014: 22.79
141015: 22.70
141016: 22.70
141017: 22.70
141020: 22.70
141021: 22.70
141022: 22.70
141023: 22.70
141024: 23.85
141027: 23.85
141028: 23.85
141029: 24.42
141030: 24.42
141031: 24.42
141103: 24.04
141104: 24.65
141105: 24.99
141106: 24.90
141107: 24.90
141110: 24.90
141111: 24.90
141112: 24.55
141113: 25.00
141114: 25.80
141117: 25.80
141118: 26.91
141119: 26.91
141120: 26.91
141121: 26.91
141124: 26.91
141125: 27.50
";}