a:3:{s:4:"time";i:1417023979;s:3:"ttl";i:315360000;s:4:"data";s:3072:"140226: 48.8654
140227: 49.1823
140228: 49.3454
140303: 49.5839
140304: 50.1513
140305: 49.9520
140306: 49.5446
140307: 49.5925
140310: 50.2625
140311: 50.2625
140312: 50.4707
140313: 50.5593
140314: 50.8096
140317: 50.7635
140318: 50.9442
140319: 50.7621
140320: 50.4146
140321: 49.9628
140324: 50.1804
140325: 49.9167
140326: 49.7042
140327: 48.9521
140328: 49.0484
140331: 49.0519
140401: 48.9680
140402: 48.2596
140403: 48.6826
140404: 48.8834
140407: 48.6435
140408: 48.6159
140409: 48.8600
140410: 49.2911
140411: 49.2266
140414: 49.4994
140415: 49.8232
140416: 49.6836
140417: 49.8860
140422: 49.2978
140423: 49.2185
140424: 49.2820
140425: 49.3175
140428: 49.6969
140429: 49.8219
140430: 49.5064
140502: 49.3188
140505: 49.3188
140506: 49.7361
140507: 49.5070
140508: 49.4120
140509: 48.7642
140512: 48.7642
140513: 48.4759
140514: 48.0073
140515: 47.6173
140516: 47.5674
140519: 47.6999
140520: 47.6416
140521: 47.3995
140522: 47.3171
140523: 46.8507
140526: 46.8350
140527: 46.4266
140528: 46.7712
140529: 47.0161
140530: 47.1145
140602: 47.2677
140603: 47.5463
140604: 47.6296
140605: 47.8253
140606: 47.4908
140609: 47.3211
140610: 46.8746
140611: 46.7269
140612: 46.4764
140613: 46.4764
140616: 46.4764
140617: 46.8085
140618: 47.2121
140619: 47.1715
140620: 46.6960
140623: 46.8821
140624: 46.6478
140625: 46.2212
140626: 46.1576
140627: 46.0226
140630: 45.8251
140701: 46.1827
140702: 46.8335
140703: 46.8398
140704: 46.6863
140707: 46.6870
140708: 46.9448
140709: 46.8122
140710: 46.4146
140711: 46.1649
140714: 46.3328
140715: 46.6835
140716: 46.7910
140717: 46.6299
140718: 47.0702
140721: 47.5505
140722: 47.5048
140723: 47.3758
140724: 46.8718
140725: 47.1702
140728: 47.2206
140729: 47.4799
140730: 47.8635
140731: 47.8958
140801: 47.4699
140804: 47.8244
140805: 47.8671
140806: 48.0490
140807: 48.2432
140808: 48.4947
140811: 48.7722
140812: 48.2856
140813: 48.2402
140814: 48.4110
140815: 48.1416
140818: 48.1231
140819: 48.2398
140820: 48.2133
140821: 48.1924
140822: 48.1686
140825: 47.8548
140826: 47.6641
140827: 47.7282
140828: 47.6177
140829: 47.9520
140901: 48.6315
140902: 48.9677
140903: 49.0193
140904: 49.0213
140905: 48.3786
140908: 47.7806
140909: 47.9789
140910: 47.7118
140911: 48.0636
140912: 48.2484
140915: 48.6647
140916: 49.1958
140917: 50.0582
140918: 49.6923
140919: 49.4592
140922: 49.5379
140923: 49.6193
140924: 49.6912
140925: 49.3145
140926: 48.8449
140929: 49.3386
140930: 49.9540
141001: 49.9817
141002: 50.0554
141003: 49.9484
141006: 50.2021
141007: 50.0775
141008: 50.2017
141009: 50.5091
141010: 50.9585
141013: 51.0538
141014: 51.0798
141015: 51.5141
141016: 51.7829
141017: 52.1504
141020: 52.5253
141021: 52.1198
141022: 52.6468
141023: 52.1388
141024: 52.4424
141027: 52.9065
141028: 53.2342
141029: 53.8693
141030: 54.3393
141031: 54.6378
141103: 52.7219
141104: 52.7219
141105: 52.7219
141106: 55.6234
141107: 56.5450
141110: 59.3153
141111: 57.2418
141112: 57.0494
141113: 57.8575
141114: 57.4235
141117: 58.9793
141118: 59.3081
141119: 58.6448
141120: 58.9090
141121: 58.5817
141124: 57.4377
141125: 55.5336
";}