a:3:{s:4:"time";i:1417023984;s:3:"ttl";i:315360000;s:4:"data";s:3456:"140226: 14.813461
140227: 14.664406
140228: 14.852477
140303: 14.975715
140304: 14.784277
140305: 14.661497
140306: 14.702493
140307: 14.891889
140310: 14.925317
140311: 15.040201
140312: 15.011687
140313: 14.987374
140314: 14.854644
140317: 15.007855
140318: 14.964403
140319: 15.031119
140320: 15.018047
140321: 15.031308
140324: 14.984671
140325: 14.844466
140326: 14.745740
140327: 14.532910
140328: 14.540381
140331: 14.507207
140401: 14.603802
140402: 14.610316
140403: 14.604315
140404: 14.457537
140407: 14.452662
140408: 14.437742
140409: 14.378779
140410: 14.532733
140411: 14.557570
140414: 14.535037
140415: 14.584087
140416: 14.599122
140417: 14.486573
140422: 14.548593
140423: 14.635228
140424: 14.693700
140425: 14.757711
140428: 14.714159
140429: 14.569324
140430: 14.598702
140502: 14.529871
140505: 14.633707
140506: 14.618605
140507: 14.546153
140508: 14.303385
140509: 14.241088
140512: 14.252806
140513: 14.135966
140514: 14.122904
140515: 14.268190
140516: 14.182406
140519: 14.196400
140520: 14.308884
140521: 14.192605
140522: 14.104023
140523: 14.049221
140526: 14.130999
140527: 14.254637
140528: 14.219890
140529: 14.166924
140530: 14.416391
140602: 14.532761
140603: 14.659373
140604: 14.645725
140605: 14.602229
140606: 14.442371
140609: 14.468874
140610: 14.504873
140611: 14.552606
140612: 14.457864
140613: 14.458881
140616: 14.593610
140617: 14.683716
140618: 14.490187
140619: 14.627301
140620: 14.495454
140623: 14.412434
140624: 14.477694
140625: 14.438694
140626: 14.490046
140627: 14.452511
140630: 14.564920
140701: 14.594080
140702: 14.692604
140703: 14.627516
140704: 14.625422
140707: 14.664636
140708: 14.539580
140709: 14.553119
140710: 14.558221
140711: 14.566794
140714: 14.543507
140715: 14.532865
140716: 14.435562
140717: 14.553908
140718: 14.401063
140721: 14.341655
140722: 14.239473
140723: 14.147961
140724: 14.174332
140725: 14.117432
140728: 14.195419
140729: 14.210583
140730: 14.289730
140731: 14.294417
140801: 14.340722
140804: 14.300616
140805: 14.387425
140806: 14.328856
140807: 14.387032
140808: 14.302167
140811: 14.225146
140812: 14.210758
140813: 14.127801
140814: 14.098129
140815: 14.192547
140818: 14.170801
140819: 14.182341
140820: 14.231966
140821: 14.222392
140822: 14.163069
140825: 14.135173
140826: 14.063200
140827: 13.993299
140828: 14.006378
140829: 14.012084
140901: 14.022770
140902: 14.107376
140903: 14.047489
140904: 13.896179
140905: 13.849383
140908: 13.943706
140909: 14.141279
140910: 14.120943
140911: 14.175429
140912: 14.272025
140915: 14.201008
140916: 14.132955
140917: 14.191035
140918: 14.319255
140919: 14.225613
140922: 14.338818
140923: 14.363749
140924: 14.226406
140925: 14.285712
140926: 14.239270
140929: 14.317461
140930: 14.254878
141001: 14.194691
141002: 14.160273
141003: 14.181703
141006: 14.184459
141007: 14.173720
141008: 14.065173
141009: 14.041686
141010: 14.037822
141013: 14.056399
141014: 14.004344
141015: 14.206325
141016: 14.228965
141017: 14.135078
141020: 14.103503
141021: 14.049974
141022: 13.911145
141023: 13.878147
141024: 13.849933
141027: 13.902152
141028: 13.814573
141029: 13.822483
141030: 13.711733
141031: 13.823123
141103: 13.827015
141104: 13.843757
141105: 13.916924
141106: 13.929979
141107: 14.029771
141110: 14.004244
141111: 13.986563
141112: 13.924892
141113: 13.984417
141114: 13.871707
141117: 13.857975
141118: 13.829674
141119: 13.874598
141120: 13.749505
141121: 13.566153
141124: 13.712942
141125: 13.677833
";}