a:3:{s:4:"time";i:1417023914;s:3:"ttl";i:315360000;s:4:"data";s:2618:"140226: 4.41
140227: 4.428
140228: 4.488
140303: 4.50
140304: 4.49
140305: 4.50
140306: 4.547
140307: 4.547
140310: 4.522
140311: 4.55
140312: 4.394
140313: 4.314
140314: 4.247
140317: 4.309
140318: 4.30
140319: 4.251
140320: 4.18
140321: 4.313
140324: 4.246
140325: 4.34
140326: 4.21
140327: 4.358
140328: 4.379
140331: 4.405
140401: 4.372
140402: 4.42
140403: 4.309
140404: 4.295
140407: 4.32
140408: 4.27
140409: 4.315
140410: 4.293
140411: 4.20
140414: 4.198
140415: 4.241
140416: 4.33
140417: 4.358
140422: 4.49
140423: 4.47
140424: 4.47
140425: 4.47
140428: 4.47
140429: 4.31X
140430: 4.364
140502: 4.381
140505: 4.34
140506: 4.335
140507: 4.331
140508: 4.45
140509: 4.54
140512: 4.549
140513: 4.568
140514: 4.571
140515: 4.533
140516: 4.502
140519: 4.57
140520: 4.54
140521: 4.57
140522: 4.59
140523: 4.585
140526: 4.583
140527: 4.57
140528: 4.57
140529: 4.584
140530: 4.627
140602: 4.717
140603: 4.729
140604: 4.80
140605: 4.86
140606: 5.005
140609: 5.04
140610: 5.011
140611: 4.908
140612: 4.899
140613: 4.80
140616: 4.781
140617: 4.784
140618: 4.753
140619: 4.886
140620: 4.739
140623: 4.751
140624: 4.76
140625: 4.783
140626: 4.60
140627: 4.608
140630: 4.60
140701: 4.577
140702: 4.667
140703: 4.745
140704: 4.702
140707: 4.755
140708: 4.669
140709: 4.747
140710: 4.78
140711: 4.74
140714: 4.783
140715: 4.75
140716: 4.847
140717: 4.692
140718: 4.628
140721: 4.527
140722: 4.464
140723: 4.509
140724: 4.513
140725: 4.50
140728: 4.485
140729: 4.522
140730: 4.514
140731: 4.375
140801: 4.235
140804: 4.23
140805: 4.15
140806: 4.11
140807: 4.328
140808: 4.20
140811: 4.238
140812: 4.149X
140813: 4.15
140814: 4.30
140815: 4.11
140818: 4.219
140819: 4.27
140820: 4.183
140821: 4.242
140822: 4.237
140825: 4.212
140826: 4.185
140827: 4.248
140828: 4.27
140829: 4.33
140901: 4.20
140902: 4.228
140903: 4.241
140904: 4.25
140905: 4.221
140908: 4.26
140909: 4.222
140910: 4.19
140911: 4.11
140912: 4.07
140915: 4.05
140916: 4.025
140917: 4.05
140918: 4.07
140919: 4.00
140922: 4.055
140923: 4.051
140924: 4.099
140925: 4.115
140926: 4.15
140929: 4.135
140930: 4.16
141001: 4.16
141002: 4.03
141003: 4.00
141006: 3.987
141007: 3.907
141008: 3.781
141009: 3.709
141010: 3.737
141013: 3.732
141014: 3.693
141015: 3.665
141016: 3.717
141017: 3.807
141020: 3.868
141021: 3.944
141022: 3.96
141023: 3.951
141024: 3.824
141027: 3.807
141028: 3.818
141029: 3.817
141030: 3.821
141031: 3.964
141103: 3.83
141104: 3.759
141105: 3.707
141106: 3.729
141107: 3.674
141110: 3.71
141111: 3.78
141112: 3.889
141113: 4.001
141114: 3.922
141117: 3.993
141118: 3.884
141119: 3.75
141120: 3.75
141121: 3.78
141124: 3.726
141125: 3.762
";}