a:3:{s:4:"time";i:1417122284;s:3:"ttl";i:315360000;s:4:"data";s:3199:"<!DOCTYPE html PUBLIC "-//W3C//DTD XHTML 1.0 Transitional//EN" "http://www.w3.org/TR/xhtml1/DTD/xhtml1-transitional.dtd">
<html xmlns="http://www.w3.org/1999/xhtml" xml:lang="nl" lang="nl">
<html><head><title>Slotkoersen Inverko
</title></head>
<body><table border=0 width=100%>
<tr><td width=50%>
<pre>140228: 0.254
140303: 0.246
140304: 0.246
140305: 0.255
140306: 0.267
140307: 0.272
140310: 0.264
140311: 0.269
140312: 0.269
140313: 0.268
140314: 0.267
140317: 0.266
140318: 0.262
140319: 0.262
140320: 0.264
140321: 0.263
140324: 0.264
140325: 0.263
140326: 0.261
140327: 0.295
140328: 0.268
140331: 0.28
140401: 0.279
140402: 0.282
140403: 0.281
140404: 0.283
140407: 0.278
140408: 0.272
140409: 0.271
140410: 0.266
140411: 0.259
140414: 0.258
140415: 0.255
140416: 0.254
140417: 0.251
140422: 0.25
140423: 0.25
140424: 0.249
140425: 0.25
140428: 0.247
140429: 0.25
140430: 0.244
140502: 0.25
140505: 0.245
140506: 0.244
140507: 0.25
140508: 0.245
140509: 0.245
140512: 0.243
140513: 0.254
140514: 0.253
140515: 0.258
140516: 0.256
140519: 0.25
140520: 0.248
140521: 0.25
140522: 0.244
140523: 0.251
140526: 0.251
140527: 0.254
140528: 0.251
140529: 0.255
140530: 0.255
140602: 0.253
140603: 0.254
140604: 0.253
140605: 0.252
140606: 0.253
140609: 0.249
140610: 0.254
140611: 0.252
140612: 0.254
140613: 0.258
140616: 0.253
140617: 0.25
140618: 0.248
140619: 0.249
140620: 0.25
140623: 0.25
140624: 0.247
140625: 0.252
140626: 0.25
140627: 0.249
140630: 0.249
140701: 0.247
140702: 0.247
140703: 0.246
140704: 0.245
140707: 0.24
140708: 0.24
140709: 0.222
140710: 0.219
140711: 0.217
140714: 0.215
140715: 0.204
140716: 0.20
140717: 0.187
140718: 0.198
140721: 0.193
140722: 0.19
140723: 0.19
140724: 0.192
140725: 0.196
140728: 0.19
140729: 0.193
140730: 0.185
140731: 0.179
140801: 0.176
140804: 0.192
140805: 0.181
140806: 0.161
140807: 0.16
140808: 0.15
140811: 0.16
140812: 0.159
140813: 0.155
140814: 0.158
140815: 0.175
140818: 0.23
140819: 0.22
140820: 0.198
140821: 0.217
140822: 0.215
140825: 0.208
140826: 0.214
140827: 0.211
140828: 0.217
140829: 0.213
140901: 0.188
140902: 0.181
140903: 0.171
140904: 0.172
140905: 0.174
140908: 0.17
140909: 0.172
140910: 0.174
140911: 0.173
140912: 0.172
140915: 0.168
140916: 0.164
140917: 0.165
140918: 0.166
140919: 0.161
140922: 0.165
140923: 0.164
140924: 0.16
140925: 0.172
140926: 0.172
140929: 0.173
140930: 0.171
141001: 0.167
141002: 0.161
141003: 0.162
141006: 0.162
141007: 0.164
141008: 0.156
141009: 0.142
141010: 0.146
141013: 0.133
141014: 0.14
141015: 0.136
141016: 0.129
141017: 0.133
141020: 0.131
141021: 0.135
141022: 0.167
141023: 0.162
141024: 0.157
141027: 0.155
141028: 0.152
141029: 0.156
141030: 0.167
141031: 0.15
141103: 0.131
141104: 0.126
141105: 0.129
141106: 0.126
141107: 0.136
141110: 0.15
141111: 0.154
141112: 0.145
141113: 0.148
141114: 0.149
141117: 0.139
141118: 0.14
141119: 0.137
141120: 0.136
141121: 0.135
141124: 0.136
141125: 0.134
141126: 0.135
141127: 0.135
</td><td  valign=top>&nbsp;&nbsp;</td></tr></table>

<script src="http://www.google-analytics.com/urchin.js" type="text/javascript"></script>
<script type="text/javascript">_uacct = "UA-2183389-1";urchinTracker();</script>
</body></html>
";}