a:3:{s:4:"time";i:1417023946;s:3:"ttl";i:315360000;s:4:"data";s:2689:"140226: 38.45
140227: 38.45
140228: 38.45
140303: 39.95
140304: 39.95
140305: 39.95
140306: 39.95
140307: 39.95
140310: 39.10
140311: 39.25
140312: 39.24
140313: 39.24
140314: 39.24
140317: 39.24
140318: 38.90
140319: 38.90
140320: 38.90
140321: 39.95
140324: 39.95
140325: 39.95
140326: 39.95
140327: 38.90
140328: 38.91
140331: 39.00
140401: 39.00
140402: 39.50
140403: 39.00
140404: 39.00
140407: 39.00
140408: 39.00
140409: 39.00
140410: 39.00
140411: 38.75
140414: 38.75
140415: 39.00
140416: 38.95
140417: 38.95
140422: 38.95
140423: 38.95X
140424: 39.00
140425: 39.00
140428: 39.00
140429: 38.00
140430: 37.90
140502: 37.50
140505: 37.50
140506: 37.50
140507: 37.50
140508: 37.55
140509: 38.95
140512: 38.95
140513: 38.95
140514: 38.70
140515: 38.05
140516: 38.05
140519: 38.00
140520: 38.10
140521: 38.00
140522: 38.00
140523: 38.00
140526: 38.00
140527: 38.00
140528: 38.50
140529: 38.50
140530: 38.30
140602: 38.30
140603: 38.30
140604: 37.40
140605: 37.40
140606: 38.50
140609: 38.50
140610: 38.50
140611: 38.50
140612: 38.50
140613: 38.50
140616: 38.50
140617: 38.50
140618: 38.50
140619: 38.50
140620: 38.50
140623: 38.50
140624: 38.50
140625: 38.45
140626: 38.45
140627: 38.45
140630: 38.45
140701: 38.45
140702: 38.45
140703: 38.45
140704: 38.45
140707: 38.30
140708: 38.30
140709: 38.30
140710: 38.30
140711: 38.30
140714: 38.30
140715: 38.30
140716: 38.00
140717: 38.00
140718: 38.00
140721: 38.00
140722: 38.00
140723: 38.00
140724: 38.00
140725: 38.00
140728: 38.00
140729: 38.00
140730: 38.00
140731: 38.00
140801: 38.00
140804: 38.00
140805: 38.00
140806: 38.00
140807: 38.00
140808: 38.00
140811: 38.00
140812: 38.00
140813: 38.00
140814: 30.06
140815: 37.50
140818: 37.50
140819: 38.00
140820: 38.00
140821: 38.00
140822: 37.95
140825: 37.00
140826: 37.00
140827: 37.00
140828: 37.00
140829: 36.00
140901: 36.00
140902: 36.00
140903: 36.00
140904: 37.00
140905: 37.00
140908: 35.01
140909: 35.01
140910: 36.70
140911: 36.70
140912: 36.70
140915: 36.70
140916: 36.70
140917: 36.70
140918: 36.70
140919: 36.70
140922: 36.70
140923: 36.70
140924: 36.70
140925: 36.70
140926: 36.70
140929: 36.70
140930: 36.70
141001: 36.70
141002: 36.70
141003: 37.00
141006: 37.00
141007: 36.75
141008: 36.75
141009: 36.75
141010: 37.00
141013: 37.00
141014: 37.00
141015: 37.00
141016: 37.00
141017: 35.11
141020: 35.10
141021: 35.10
141022: 35.10
141023: 35.05
141024: 35.05
141027: 35.05
141028: 34.90
141029: 34.90
141030: 34.10
141031: 34.10
141103: 33.00
141104: 33.00
141105: 33.00
141106: 33.00
141107: 32.05
141110: 31.05
141111: 32.75
141112: 32.00
141113: 32.00
141114: 32.00
141117: 32.00
141118: 32.00
141119: 32.00
141120: 32.11
141121: 32.26
141124: 33.98
141125: 33.98
";}