a:3:{s:4:"time";i:1417122271;s:3:"ttl";i:315360000;s:4:"data";s:3329:"<!DOCTYPE html PUBLIC "-//W3C//DTD XHTML 1.0 Transitional//EN" "http://www.w3.org/TR/xhtml1/DTD/xhtml1-transitional.dtd">
<html xmlns="http://www.w3.org/1999/xhtml" xml:lang="nl" lang="nl">
<html><head><title>Slotkoersen Wolters&nbsp;Kluwer
</title></head>
<body><table border=0 width=100%>
<tr><td width=50%>
<pre>140228: 20.93
140303: 20.365
140304: 20.675
140305: 20.58
140306: 20.645
140307: 20.70
140310: 20.46
140311: 20.325
140312: 20.20
140313: 20.00
140314: 19.81
140317: 20.12
140318: 20.09
140319: 20.085
140320: 20.08
140321: 20.005
140324: 19.845
140325: 19.905
140326: 20.21
140327: 20.355
140328: 20.44
140331: 20.48
140401: 20.57
140402: 20.42
140403: 20.395
140404: 20.425
140407: 20.32
140408: 20.01
140409: 20.25
140410: 20.225
140411: 20.02
140414: 19.92
140415: 19.875
140416: 20.225
140417: 20.67
140422: 21.015
140423: 20.81
140424: 20.825
140425: 19.935X
140428: 19.705
140429: 19.88
140430: 20.07
140502: 19.91
140505: 19.805
140506: 19.92
140507: 19.97
140508: 20.145
140509: 20.195
140512: 20.355
140513: 20.77
140514: 20.77
140515: 20.565
140516: 20.575
140519: 20.70
140520: 20.85
140521: 21.185
140522: 21.175
140523: 21.325
140526: 21.485
140527: 21.585
140528: 21.76
140529: 21.865
140530: 21.96
140602: 21.95
140603: 21.70
140604: 21.66
140605: 21.645
140606: 21.75
140609: 21.95
140610: 22.035
140611: 21.975
140612: 22.145
140613: 22.075
140616: 21.90
140617: 22.15
140618: 22.11
140619: 22.27
140620: 22.23
140623: 21.945
140624: 21.85
140625: 21.565
140626: 21.70
140627: 21.59
140630: 21.62
140701: 21.56
140702: 21.555
140703: 21.825
140704: 21.845
140707: 21.52
140708: 21.22
140709: 21.285
140710: 20.945
140711: 20.68
140714: 20.96
140715: 20.89
140716: 21.075
140717: 21.10
140718: 21.01
140721: 21.03
140722: 21.135
140723: 21.22
140724: 21.415
140725: 21.195
140728: 21.17
140729: 21.125
140730: 20.845
140731: 20.695
140801: 20.53
140804: 20.40
140805: 20.34
140806: 20.145
140807: 19.96
140808: 19.81
140811: 20.00
140812: 20.255
140813: 20.30
140814: 20.29
140815: 20.245
140818: 20.355
140819: 20.715
140820: 20.685
140821: 20.755
140822: 20.875
140825: 20.885
140826: 21.07
140827: 21.06
140828: 21.13
140829: 21.08
140901: 21.13
140902: 21.10
140903: 21.20
140904: 21.26
140905: 21.305
140908: 21.395
140909: 21.33
140910: 21.19
140911: 21.305
140912: 21.335
140915: 21.52
140916: 21.56
140917: 21.78
140918: 21.825
140919: 21.94
140922: 21.84
140923: 21.435
140924: 20.91
140925: 20.91
140926: 20.92
140929: 21.11
140930: 21.12
141001: 21.005
141002: 20.645
141003: 20.82
141006: 20.925
141007: 20.59
141008: 20.53
141009: 20.23
141010: 20.01
141013: 19.75
141014: 19.785
141015: 19.165
141016: 19.08
141017: 19.765
141020: 19.57
141021: 19.98
141022: 20.265
141023: 20.435
141024: 20.375
141027: 20.39
141028: 20.52
141029: 20.815
141030: 20.975
141031: 21.29
141103: 21.605
141104: 21.465
141105: 21.705
141106: 22.045
141107: 21.975
141110: 22.275
141111: 22.40
141112: 22.13
141113: 22.305
141114: 22.33
141117: 22.415
141118: 22.525
141119: 22.525
141120: 22.52
141121: 22.66
141124: 23.07
141125: 23.24
141126: 23.245
141127: 23.505
</td><td  valign=top>&nbsp;&nbsp;</td></tr></table>

<script src="http://www.google-analytics.com/urchin.js" type="text/javascript"></script>
<script type="text/javascript">_uacct = "UA-2183389-1";urchinTracker();</script>
</body></html>
";}