a:3:{s:4:"time";i:1417473478;s:3:"ttl";i:315360000;s:4:"data";s:5148:"Date,Open,High,Low,Close,Volume,Adj Close
2014-12-01,23.26,23.90,23.26,23.72,22000,23.72
2014-11-28,23.30,23.70,22.50,23.33,81100,23.33
2014-11-27,23.26,23.68,23.25,23.31,22700,23.31
2014-11-26,24.00,24.22,23.15,23.26,44700,23.26
2014-11-25,24.50,24.50,23.81,23.90,388800,23.90
2014-11-24,24.40,24.66,24.00,24.25,45600,24.25
2014-11-21,24.00,24.27,23.62,24.15,15600,24.15
2014-11-20,23.50,24.19,23.50,24.15,58300,24.15
2014-11-19,23.50,24.15,23.50,24.13,27900,24.13
2014-11-18,23.80,24.15,23.80,24.15,160000,24.15
2014-11-17,23.24,24.45,23.24,24.00,71700,24.00
2014-11-14,23.05,24.48,23.00,24.31,47500,24.31
2014-11-13,22.80,23.84,22.20,23.35,113100,23.35
2014-11-12,22.20,22.73,22.16,22.16,18000,22.16
2014-11-11,22.66,22.82,22.44,22.75,24900,22.75
2014-11-10,22.24,22.80,22.21,22.70,78000,22.70
2014-11-07,22.75,22.80,22.28,22.78,71100,22.78
2014-11-06,21.81,22.49,21.81,22.44,1600,22.44
2014-11-05,22.75,22.75,22.00,22.40,13300,22.40
2014-11-04,22.69,22.69,22.26,22.33,8000,22.33
2014-11-03,22.59,22.59,22.02,22.45,11300,22.45
2014-10-31,22.00,22.42,21.94,22.00,62100,22.00
2014-10-30,22.00,22.00,21.50,22.00,39300,22.00
2014-10-29,21.85,22.00,21.50,22.00,16500,22.00
2014-10-28,21.49,21.98,21.25,21.75,60700,21.75
2014-10-27,21.98,21.98,20.89,21.00,6900,21.00
2014-10-24,21.80,21.80,21.33,21.41,1000,21.41
2014-10-23,21.80,22.00,21.03,21.41,18600,21.41
2014-10-22,22.00,22.00,21.42,21.42,8200,21.42
2014-10-21,21.33,22.00,21.31,22.00,5800,22.00
2014-10-20,21.36,21.81,21.02,21.57,4100,21.57
2014-10-17,20.66,21.45,20.66,21.45,6200,21.45
2014-10-16,20.80,21.45,20.46,21.00,50100,21.00
2014-10-15,20.65,21.39,20.58,21.00,40100,21.00
2014-10-14,21.00,21.42,20.45,20.81,8800,20.81
2014-10-13,20.61,21.56,20.61,21.15,9600,21.15
2014-10-10,21.31,21.31,20.40,21.06,36400,21.06
2014-10-09,21.81,21.81,21.25,21.25,43800,21.25
2014-10-08,22.00,22.00,21.50,21.50,12900,21.50
2014-10-07,22.00,22.00,21.52,21.80,9300,21.80
2014-10-06,22.55,22.56,21.52,22.00,8300,22.00
2014-10-03,22.77,22.77,22.19,22.19,4700,22.19
2014-10-02,22.93,22.93,22.69,22.80,1900,22.80
2014-10-01,22.64,22.91,22.62,22.85,2100,22.85
2014-09-30,23.03,23.03,22.66,22.73,139100,22.73
2014-09-29,23.59,23.83,23.16,23.20,5900,23.20
2014-09-26,23.47,23.49,23.09,23.30,3800,23.30
2014-09-25,23.08,24.17,23.08,23.31,45400,23.31
2014-09-24,23.91,24.00,23.69,23.69,4400,23.69
2014-09-23,24.00,24.10,23.30,24.00,49800,24.00
2014-09-22,23.70,23.90,23.30,23.90,9500,23.90
2014-09-19,23.65,23.65,22.81,23.40,11500,23.40
2014-09-18,23.72,23.72,23.01,23.20,9700,23.20
2014-09-17,24.27,24.27,23.35,23.65,7700,23.65
2014-09-16,24.04,24.19,24.00,24.09,97900,24.09
2014-09-15,24.46,24.46,24.04,24.24,10400,24.24
2014-09-12,23.80,24.42,23.30,24.06,22500,24.06
2014-09-11,23.42,23.75,23.08,23.39,7400,23.39
2014-09-10,23.09,23.09,22.80,23.00,14600,23.00
2014-09-09,23.68,23.68,22.78,22.94,18600,22.94
2014-09-08,23.98,23.98,23.14,23.27,11600,23.27
2014-09-05,23.82,24.25,23.30,23.48,9500,23.48
2014-09-04,23.17,23.99,23.06,23.82,16300,23.82
2014-09-03,22.49,23.40,22.49,23.00,70800,23.00
2014-09-02,22.98,22.98,22.50,22.85,22000,22.85
2014-09-01,23.26,23.67,22.10,22.58,39600,22.58
2014-08-29,23.49,23.78,22.83,23.23,50400,23.23
2014-08-28,23.50,23.50,23.00,23.10,9200,23.10
2014-08-27,23.95,23.95,23.08,23.35,63500,23.35
2014-08-26,23.75,24.00,23.28,23.75,14200,23.75
2014-08-25,24.59,24.59,23.42,23.54,10400,23.54
2014-08-22,24.33,24.48,24.00,24.29,13700,24.29
2014-08-21,24.50,24.70,24.16,24.30,90300,24.30
2014-08-20,23.30,25.00,23.06,24.50,116300,24.50
2014-08-19,23.40,23.40,23.17,23.35,80000,23.35
2014-08-18,23.00,23.55,23.00,23.38,65300,23.38
2014-08-15,23.11,23.33,22.83,22.83,4800,22.83
2014-08-14,22.75,23.03,22.23,22.80,57400,22.80
2014-08-13,21.85,22.25,20.68,22.25,129900,22.25
2014-08-12,22.00,22.00,21.62,21.66,9900,21.66
2014-08-11,22.10,22.20,21.60,21.74,8900,21.74
2014-08-08,21.79,21.80,21.51,21.79,20500,21.79
2014-08-07,21.80,21.80,21.50,21.50,92000,21.50
2014-08-06,21.51,21.98,21.51,21.62,4100,21.62
2014-08-05,22.00,22.00,21.50,21.75,263600,21.75
2014-08-04,22.60,22.64,22.00,22.00,115300,22.00
2014-08-01,22.82,22.95,22.32,22.44,372900,22.44
2014-07-31,23.00,23.04,22.94,23.00,29700,23.00
2014-07-30,23.36,23.36,23.00,23.00,386500,23.00
2014-07-29,23.36,23.49,23.04,23.15,1400,23.15
2014-07-28,23.50,23.52,23.31,23.38,4500,23.38
2014-07-25,23.55,23.73,23.37,23.56,4500,23.56
2014-07-24,23.49,23.65,23.44,23.50,15400,23.50
2014-07-23,23.06,23.42,23.06,23.39,125900,23.39
2014-07-22,22.92,23.35,22.92,23.35,41400,23.35
2014-07-21,23.00,23.05,22.80,23.00,42300,23.00
2014-07-18,23.00,23.10,22.85,23.02,36500,23.02
2014-07-17,23.00,23.06,22.90,23.00,32900,23.00
2014-07-16,22.66,23.02,22.65,23.00,107600,23.00
2014-07-15,22.80,23.12,22.40,22.56,19500,22.56
2014-07-14,22.80,22.92,22.70,22.80,19600,22.80
2014-07-11,22.62,22.66,22.50,22.60,27400,22.60
2014-07-10,22.70,23.03,22.50,22.64,89200,22.64
2014-07-09,23.30,23.31,22.50,23.14,34700,23.14
2014-07-08,23.50,23.53,22.72,23.21,33500,23.21
2014-07-07,23.67,23.67,23.50,23.50,30700,23.50
2014-07-04,23.69,23.69,23.50,23.60,17100,23.60
2014-07-03,23.15,23.80,23.01,23.50,208600,23.50
2014-07-02,23.50,23.81,23.26,23.45,161300,23.45
";}