a:3:{s:4:"time";i:1417122319;s:3:"ttl";i:315360000;s:4:"data";s:3289:"<!DOCTYPE html PUBLIC "-//W3C//DTD XHTML 1.0 Transitional//EN" "http://www.w3.org/TR/xhtml1/DTD/xhtml1-transitional.dtd">
<html xmlns="http://www.w3.org/1999/xhtml" xml:lang="nl" lang="nl">
<html><head><title>Slotkoersen Hein-Hold
</title></head>
<body><table border=0 width=100%>
<tr><td width=50%>
<pre>140228: 46.865
140303: 45.78
140304: 46.80
140305: 46.515
140306: 46.505
140307: 46.295
140310: 46.00
140311: 45.795
140312: 44.705
140313: 44.47
140314: 44.39
140317: 44.11
140318: 44.34
140319: 43.33
140320: 43.13
140321: 43.705
140324: 43.90
140325: 44.86
140326: 45.365
140327: 46.05
140328: 47.11
140331: 46.865
140401: 47.13
140402: 47.015
140403: 47.445
140404: 47.78
140407: 47.93
140408: 48.025
140409: 48.005
140410: 48.065
140411: 47.365
140414: 47.725
140415: 48.00
140416: 47.545
140417: 47.275
140422: 47.71
140423: 47.335
140424: 46.755
140425: 46.245
140428: 46.185
140429: 46.405
140430: 46.00
140502: 46.10
140505: 45.875
140506: 45.805
140507: 45.98
140508: 46.475
140509: 46.595
140512: 47.25
140513: 47.78
140514: 48.06
140515: 48.75
140516: 49.24
140519: 49.31
140520: 48.635
140521: 48.54
140522: 48.705
140523: 48.64
140526: 48.575
140527: 48.225
140528: 47.965
140529: 48.40
140530: 48.41
140602: 48.15
140603: 48.00
140604: 47.855
140605: 48.00
140606: 47.51
140609: 47.68
140610: 48.02
140611: 48.92
140612: 48.85
140613: 48.88
140616: 48.905
140617: 48.935
140618: 48.78
140619: 48.61
140620: 47.625
140623: 48.03
140624: 48.165
140625: 47.88
140626: 47.495
140627: 47.265
140630: 48.015
140701: 48.655
140702: 49.155
140703: 49.30
140704: 49.055
140707: 48.77
140708: 49.08
140709: 48.80
140710: 48.095
140711: 48.055
140714: 48.505
140715: 48.085
140716: 48.68
140717: 48.405
140718: 48.68
140721: 48.36
140722: 48.86
140723: 49.04
140724: 48.855
140725: 48.705
140728: 48.34
140729: 48.96
140730: 48.21
140731: 47.64
140801: 47.065
140804: 47.15
140805: 47.28
140806: 47.47
140807: 47.27
140808: 46.275
140811: 47.26
140812: 47.45
140813: 47.545
140814: 47.74
140815: 47.805
140818: 47.935
140819: 48.56
140820: 51.72
140821: 51.63
140822: 51.22
140825: 51.88
140826: 51.97
140827: 52.29
140828: 51.92
140829: 52.53
140901: 52.55
140902: 52.70
140903: 52.78
140904: 53.10
140905: 52.74
140908: 53.00
140909: 53.57
140910: 53.40
140911: 53.30
140912: 52.98
140915: 54.57
140916: 54.21
140917: 53.84
140918: 53.75
140919: 53.15
140922: 53.26
140923: 52.94
140924: 53.04
140925: 52.43
140926: 52.64
140929: 52.09
140930: 52.37
141001: 52.22
141002: 51.60
141003: 51.59
141006: 51.69
141007: 51.30
141008: 51.30
141009: 51.54
141010: 50.79
141013: 50.08
141014: 50.07
141015: 48.98
141016: 48.065
141017: 49.145
141020: 48.865
141021: 49.77
141022: 49.68
141023: 49.74
141024: 49.40
141027: 50.08
141028: 50.24
141029: 50.98
141030: 51.19
141031: 51.69
141103: 51.25
141104: 51.12
141105: 51.58
141106: 51.75
141107: 51.73
141110: 51.97
141111: 52.44
141112: 52.51
141113: 52.59
141114: 52.41
141117: 52.65
141118: 52.68
141119: 52.87
141120: 53.47
141121: 53.74
141124: 54.18
141125: 54.09
141126: 54.10
141127: 54.42
</td><td  valign=top>&nbsp;&nbsp;</td></tr></table>

<script src="http://www.google-analytics.com/urchin.js" type="text/javascript"></script>
<script type="text/javascript">_uacct = "UA-2183389-1";urchinTracker();</script>
</body></html>
";}