a:3:{s:4:"time";i:1417023956;s:3:"ttl";i:315360000;s:4:"data";s:2688:"140226: 27.80
140227: 27.80
140228: 27.80
140303: 27.80
140304: 27.80
140305: 26.80
140306: 27.80
140307: 27.80
140310: 27.80
140311: 27.91
140312: 27.91
140313: 27.91
140314: 27.91
140317: 27.91
140318: 27.91
140319: 27.91
140320: 28.75
140321: 28.75
140324: 28.75
140325: 27.95
140326: 27.95
140327: 27.95
140328: 27.02
140331: 27.00
140401: 27.50
140402: 27.50
140403: 27.61
140404: 27.50
140407: 27.60
140408: 27.60
140409: 27.60
140410: 27.60
140411: 27.60
140414: 28.50
140415: 27.60
140416: 27.60
140417: 31.00
140422: 28.01
140423: 28.01
140424: 30.00
140425: 30.00
140428: 28.00
140429: 28.00
140430: 29.50
140502: 29.00
140505: 29.00
140506: 29.00
140507: 30.00
140508: 30.00
140509: 30.00
140512: 30.00
140513: 30.00
140514: 30.00
140515: 30.00
140516: 30.00
140519: 27.00
140520: 27.00
140521: 27.00
140522: 27.00
140523: 27.00
140526: 27.00
140527: 27.00
140528: 28.00
140529: 28.00
140530: 28.00
140602: 28.00
140603: 28.93
140604: 28.93
140605: 28.93
140606: 30.00
140609: 30.00
140610: 30.00
140611: 30.00
140612: 30.00
140613: 30.00
140616: 30.00
140617: 30.00
140618: 30.00
140619: 30.00
140620: 27.00
140623: 27.00
140624: 27.01
140625: 27.01
140626: 27.10
140627: 27.10
140630: 27.10
140701: 27.10
140702: 27.12
140703: 27.12
140704: 27.12
140707: 27.13
140708: 27.13
140709: 27.13
140710: 27.12
140711: 27.12
140714: 27.12
140715: 27.12
140716: 27.12
140717: 27.12
140718: 27.13
140721: 27.13
140722: 27.13
140723: 27.13
140724: 29.49
140725: 27.11
140728: 27.11
140729: 27.11
140730: 27.11
140731: 27.11
140801: 27.11
140804: 27.12
140805: 27.12
140806: 27.12
140807: 27.15
140808: 27.20
140811: 27.20
140812: 27.20
140813: 27.20
140814: 27.20
140815: 27.20
140818: 27.21
140819: 27.21
140820: 27.30
140821: 27.30
140822: 27.30
140825: 27.31
140826: 27.31
140827: 27.31
140828: 27.31
140829: 27.31
140901: 27.35
140902: 27.35
140903: 27.35
140904: 27.50
140905: 27.50
140908: 27.50
140909: 28.50
140910: 28.50
140911: 28.50
140912: 28.50
140915: 28.50
140916: 28.50
140917: 27.50
140918: 27.50
140919: 28.99
140922: 28.99
140923: 28.00
140924: 28.00
140925: 28.00
140926: 28.00
140929: 28.50
140930: 28.50
141001: 28.50
141002: 28.50
141003: 28.50
141006: 28.50
141007: 28.50
141008: 28.50
141009: 28.50
141010: 27.50
141013: 27.51
141014: 27.51
141015: 27.51
141016: 28.00
141017: 28.00
141020: 28.00
141021: 28.00
141022: 27.50
141023: 27.50
141024: 27.50
141027: 27.50
141028: 27.50
141029: 27.50
141030: 27.60
141031: 27.60
141103: 27.60
141104: 27.60
141105: 27.50
141106: 27.50
141107: 27.50
141110: 27.50
141111: 27.50
141112: 27.50
141113: 27.50
141114: 27.50
141117: 26.50
141118: 27.00
141119: 27.00
141120: 27.00
141121: 27.50
141124: 27.50
141125: 27.50
";}