a:3:{s:4:"time";i:1417122292;s:3:"ttl";i:315360000;s:4:"data";s:3044:"<!DOCTYPE html PUBLIC "-//W3C//DTD XHTML 1.0 Transitional//EN" "http://www.w3.org/TR/xhtml1/DTD/xhtml1-transitional.dtd">
<html xmlns="http://www.w3.org/1999/xhtml" xml:lang="nl" lang="nl">
<html><head><title>Slotkoersen Thunderbird($)
</title></head>
<body><table border=0 width=100%>
<tr><td width=50%>
<pre>140228: 0.74
140303: 0.76
140304: 0.75
140305: 0.75
140306: 0.75
140307: 0.75
140310: 0.73
140311: 0.73
140312: 0.73
140313: 0.73
140314: 0.72
140317: 0.74
140318: 0.75
140319: 0.84
140320: 0.85
140321: 0.90
140324: 0.88
140325: 0.90
140326: 0.90
140327: 0.85
140328: 0.90
140331: 0.92
140401: 0.91
140402: 0.90
140403: 0.90
140404: 0.93
140407: 0.93
140408: 0.92
140409: 0.92
140410: 0.92
140411: 0.92
140414: 0.90
140415: 0.91
140416: 0.92
140417: 0.92
140422: 0.92
140423: 0.92
140424: 0.92
140425: 0.91
140428: 0.89
140429: 0.88
140430: 0.86
140502: 0.87
140505: 0.86
140506: 0.86
140507: 0.85
140508: 0.86
140509: 0.90
140512: 0.88
140513: 0.90
140514: 0.87
140515: 0.87
140516: 0.87
140519: 0.87
140520: 0.87
140521: 0.87
140522: 0.87
140523: 0.89
140526: 0.89
140527: 0.89
140528: 0.89
140529: 0.89
140530: 0.89
140602: 0.89
140603: 0.89
140604: 0.89
140605: 0.89
140606: 0.83
140609: 0.84
140610: 0.84
140611: 0.84
140612: 0.82
140613: 0.82
140616: 0.81
140617: 0.80
140618: 0.77
140619: 0.71
140620: 0.71
140623: 0.78
140624: 0.78
140625: 0.78
140626: 0.78
140627: 0.78
140630: 0.70
140701: 0.73
140702: 0.74
140703: 0.74
140704: 0.74
140707: 0.72
140708: 0.72
140709: 0.74
140710: 0.74
140711: 0.74
140714: 0.75
140715: 0.75
140716: 0.72
140717: 0.72
140718: 0.72
140721: 0.72
140722: 0.71
140723: 0.65
140724: 0.65
140725: 0.65
140728: 0.65
140729: 0.65
140730: 0.64
140731: 0.67
140801: 0.65
140804: 0.64
140805: 0.64
140806: 0.62
140807: 0.60
140808: 0.60
140811: 0.62
140812: 0.62
140813: 0.62
140814: 0.62
140815: 0.62
140818: 0.62
140819: 0.60
140820: 0.60
140821: 0.60
140822: 0.60
140825: 0.61
140826: 0.61
140827: 0.61
140828: 0.51
140829: 0.50
140901: 0.49
140902: 0.49
140903: 0.49
140904: 0.45
140905: 0.45
140908: 0.41
140909: 0.41
140910: 0.41
140911: 0.39
140912: 0.34
140915: 0.35
140916: 0.35
140917: 0.43
140918: 0.42
140919: 0.42
140922: 0.38
140923: 0.40
140924: 0.40
140925: 0.40
140926: 0.37
140929: 0.35
140930: 0.32
141001: 0.45
141002: 0.39
141003: 0.39
141006: 0.39
141007: 0.39
141008: 0.39
141009: 0.40
141010: 0.40
141013: 0.37
141014: 0.37
141015: 0.39
141016: 0.39
141017: 0.39
141020: 0.39
141021: 0.40
141022: 0.40
141023: 0.42
141024: 0.42
141027: 0.39
141028: 0.42
141029: 0.43
141030: 0.43
141031: 0.43
141103: 0.43
141104: 0.40
141105: 0.40
141106: 0.37
141107: 0.37
141110: 0.38
141111: 0.38
141112: 0.38
141113: 0.37
141114: 0.37
141117: 0.37
141118: 0.37
141119: 0.37
141120: 0.36
141121: 0.40
141124: 0.40
141125: 0.39
141126: 0.39
141127: 0.39
</td><td  valign=top>&nbsp;&nbsp;</td></tr></table>

<script src="http://www.google-analytics.com/urchin.js" type="text/javascript"></script>
<script type="text/javascript">_uacct = "UA-2183389-1";urchinTracker();</script>
</body></html>
";}