a:3:{s:4:"time";i:1417023910;s:3:"ttl";i:315360000;s:4:"data";s:2777:"140226: 11.45
140227: 11.535
140228: 11.465
140303: 10.995
140304: 11.235
140305: 11.265
140306: 11.32
140307: 11.105
140310: 10.90
140311: 11.055
140312: 11.03
140313: 10.72
140314: 10.715
140317: 10.84
140318: 10.91
140319: 11.015
140320: 11.215
140321: 11.375
140324: 11.21
140325: 11.31
140326: 11.435
140327: 11.44
140328: 11.565
140331: 11.695
140401: 11.755
140402: 11.585
140403: 11.675
140404: 11.91
140407: 11.805
140408: 11.99
140409: 11.975
140410: 11.975
140411: 11.84
140414: 11.985
140415: 11.57
140416: 11.68
140417: 11.71
140422: 11.85
140423: 11.875
140424: 11.885
140425: 11.74
140428: 11.60
140429: 11.68
140430: 11.705
140502: 11.755
140505: 11.635
140506: 11.645
140507: 11.665
140508: 11.905
140509: 11.50
140512: 11.53X
140513: 11.74
140514: 11.955
140515: 11.73
140516: 11.675
140519: 11.58
140520: 11.45
140521: 11.32
140522: 11.24
140523: 11.305
140526: 11.41
140527: 11.425
140528: 11.355
140529: 11.38
140530: 11.20
140602: 11.195
140603: 11.095
140604: 11.05
140605: 11.085
140606: 11.245
140609: 11.405
140610: 11.33
140611: 11.285
140612: 11.195
140613: 11.05
140616: 10.92
140617: 11.045
140618: 11.115
140619: 11.12
140620: 11.075
140623: 11.15
140624: 11.165
140625: 10.91
140626: 10.885
140627: 10.85
140630: 10.83
140701: 10.93
140702: 11.105
140703: 11.29
140704: 11.275
140707: 11.02
140708: 10.91
140709: 10.87
140710: 10.685
140711: 10.645
140714: 10.92
140715: 10.925
140716: 11.19
140717: 11.095
140718: 11.07
140721: 11.055
140722: 11.185
140723: 11.105
140724: 11.215
140725: 11.22
140728: 11.265
140729: 11.345
140730: 11.565
140731: 11.37
140801: 10.675
140804: 10.755
140805: 10.615
140806: 10.555
140807: 10.365
140808: 10.31
140811: 10.395
140812: 10.295
140813: 10.355
140814: 10.34
140815: 10.185
140818: 10.48
140819: 10.65
140820: 10.605
140821: 10.635
140822: 10.555
140825: 10.65
140826: 11.115
140827: 11.19
140828: 10.925
140829: 11.075
140901: 11.03
140902: 10.94
140903: 11.165
140904: 11.255
140905: 11.19
140908: 11.39
140909: 11.385
140910: 11.255
140911: 11.20
140912: 11.055
140915: 11.035
140916: 11.085
140917: 11.425
140918: 11.64
140919: 11.595
140922: 11.305
140923: 11.245
140924: 11.19
140925: 11.00
140926: 10.995
140929: 10.895
140930: 10.90
141001: 10.635
141002: 10.19
141003: 10.205
141006: 10.265
141007: 10.26
141008: 9.90
141009: 9.90
141010: 9.647
141013: 9.858
141014: 10.025
141015: 9.489
141016: 9.656
141017: 9.771
141020: 9.597
141021: 10.095
141022: 10.045
141023: 10.10
141024: 10.16
141027: 9.834
141028: 10.235
141029: 10.26
141030: 10.17
141031: 10.44
141103: 10.37
141104: 9.774
141105: 9.839
141106: 9.876
141107: 10.105
141110: 9.85
141111: 9.74
141112: 9.609
141113: 9.672
141114: 9.67
141117: 9.807
141118: 9.98
141119: 9.798
141120: 9.50
141121: 10.10
141124: 10.11
141125: 9.971
";}