a:3:{s:4:"time";i:1417023944;s:3:"ttl";i:315360000;s:4:"data";s:2628:"140226: 3.598
140227: 3.505
140228: 3.62
140303: 3.467
140304: 3.515
140305: 3.509
140306: 3.539
140307: 3.588
140310: 3.558
140311: 3.556
140312: 3.539
140313: 3.51
140314: 3.472
140317: 3.505
140318: 3.513
140319: 3.519
140320: 3.509
140321: 3.491
140324: 3.495
140325: 3.482
140326: 3.502
140327: 3.588
140328: 3.649
140331: 3.649
140401: 3.67
140402: 3.613
140403: 3.582
140404: 3.61
140407: 3.65
140408: 3.605
140409: 3.606
140410: 3.60
140411: 3.56
140414: 3.526
140415: 3.50
140416: 3.519
140417: 3.528
140422: 3.566
140423: 3.54
140424: 3.603
140425: 3.526
140428: 3.579
140429: 3.576
140430: 3.85
140502: 4.08
140505: 4.09
140506: 4.163
140507: 4.29
140508: 4.33
140509: 4.35
140512: 4.398
140513: 4.40
140514: 4.36
140515: 4.325
140516: 4.34
140519: 4.349
140520: 4.291
140521: 4.221
140522: 4.283
140523: 4.349
140526: 4.339
140527: 4.32
140528: 4.305
140529: 4.382
140530: 4.35
140602: 4.41
140603: 4.355
140604: 4.305
140605: 4.363
140606: 4.43
140609: 4.499
140610: 4.501
140611: 4.532
140612: 4.51
140613: 4.438
140616: 4.414
140617: 4.381
140618: 4.305
140619: 4.307
140620: 4.30
140623: 4.32
140624: 4.30
140625: 4.263
140626: 4.264
140627: 4.299
140630: 4.349
140701: 4.345
140702: 4.30
140703: 4.409
140704: 4.354
140707: 4.281
140708: 4.14
140709: 4.151
140710: 4.01
140711: 4.09
140714: 4.183
140715: 4.071
140716: 4.089
140717: 4.101
140718: 4.053
140721: 4.023
140722: 4.062
140723: 4.087
140724: 4.159
140725: 4.09
140728: 4.083
140729: 4.08
140730: 4.055
140731: 4.063
140801: 4.053
140804: 3.723
140805: 3.718
140806: 3.582
140807: 3.53
140808: 3.53
140811: 3.61
140812: 3.62
140813: 3.616
140814: 3.62
140815: 3.652
140818: 3.65
140819: 3.722
140820: 3.727
140821: 3.735
140822: 3.72
140825: 3.75
140826: 3.758
140827: 3.779
140828: 3.77
140829: 3.779
140901: 3.765
140902: 3.726
140903: 3.793
140904: 3.959
140905: 4.057
140908: 4.119
140909: 4.09
140910: 3.99
140911: 4.05
140912: 4.00
140915: 3.929
140916: 3.85
140917: 3.86
140918: 4.038
140919: 4.099
140922: 4.015
140923: 4.004
140924: 4.005
140925: 4.061
140926: 4.005
140929: 4.01
140930: 4.007
141001: 4.03
141002: 4.007
141003: 4.007
141006: 3.983
141007: 3.909
141008: 3.649
141009: 3.668
141010: 3.612
141013: 3.599
141014: 3.717
141015: 3.62
141016: 3.472
141017: 3.65
141020: 3.61
141021: 3.736
141022: 3.70
141023: 3.74
141024: 3.78
141027: 3.625
141028: 3.70
141029: 3.76
141030: 3.699
141031: 3.669
141103: 3.516
141104: 3.477
141105: 3.542
141106: 3.601
141107: 3.645
141110: 3.68
141111: 3.64
141112: 3.576
141113: 3.534
141114: 3.549
141117: 3.563
141118: 3.649
141119: 3.602
141120: 3.547
141121: 3.629
141124: 3.59
141125: 3.609
";}